<?xml version="1.0" encoding="utf-8"?>
<!-- Generator: Adobe Illustrator 21.0.0, SVG Export Plug-In . SVG Version: 6.00 Build 0)  -->
<svg version="1.1" id="Capa_1" xmlns="http://www.w3.org/2000/svg" xmlns:xlink="http://www.w3.org/1999/xlink" x="0px" y="0px"
	 viewBox="0 0 119 48" style="enable-background:new 0 0 119 48;" xml:space="preserve">
<style type="text/css">
	.st0{fill:#1F140F;}
	.st1{fill:#B3B2B8;}
	.st2{fill:#008375;}
	.st3{fill:#FFFFFF;}
	.st4{clip-path:url(#SVGID_2_);}
	.st5{fill:#008375;stroke:#FFFFFF;stroke-width:0.25;stroke-miterlimit:10;}
</style>
<g>
	<g>
		<g>
			<path class="st0" d="M52.3,18.4v1.1h-1.6v-4.3h2.2c1.2,0,1.8,0.6,1.8,1.5c0,1.1-0.8,1.7-2,1.7C52.6,18.4,52.5,18.4,52.3,18.4z
				 M52.3,17.2c0.1,0,0.2,0,0.2,0c0.4,0,0.5-0.2,0.5-0.5c0-0.3-0.2-0.4-0.5-0.4h-0.2V17.2z"/>
			<path class="st0" d="M55.1,15.1h1.5v4.4h-1.5V15.1z"/>
			<path class="st0" d="M61,19.4c-0.5,0.1-0.9,0.2-1.1,0.2c-0.4,0-0.6-0.1-0.7-0.4l0,0c-0.3,0.3-0.7,0.5-1.1,0.5c-0.5,0-1-0.4-1-0.9
				c0-0.4,0.3-0.6,0.7-0.7c0.4-0.1,1-0.2,1.3-0.3v0c0-0.2-0.1-0.3-0.4-0.3c-0.3,0-0.8,0.1-1.3,0.3l-0.3-0.9c0.5-0.3,1.3-0.4,1.7-0.4
				c0.6,0,1.8,0.1,1.8,1.3v0.8c0,0.1,0,0.1,0.1,0.1c0.1,0,0.2,0,0.2,0L61,19.4z M58.8,18.7c0.1,0,0.2,0,0.2-0.1v-0.4
				c-0.1,0-0.3,0.1-0.4,0.1c-0.1,0-0.1,0.1-0.1,0.2C58.6,18.5,58.7,18.7,58.8,18.7z"/>
			<path class="st0" d="M61.3,16.3h1.4l0.1,0.4l0.1,0c0.3-0.4,0.7-0.5,1.1-0.5c0.7,0,1.1,0.3,1.1,1.2v2h-1.6v-1.7
				c0-0.2-0.1-0.3-0.2-0.3c-0.2,0-0.3,0.1-0.4,0.3v1.8h-1.6V16.3z"/>
			<path class="st0" d="M65.2,16.3h0.5l0.3-0.9h1.2v0.9h1l-0.1,1h-0.9V18c0,0.2,0,0.4,0.3,0.4c0.2,0,0.4-0.1,0.6-0.1l0.2,1.1
				c-0.5,0.2-1,0.2-1.4,0.2c-0.8,0-1.2-0.4-1.2-1.4v-0.9h-0.5V16.3z"/>
			<path class="st0" d="M71.9,19.3c-0.5,0.2-1.1,0.3-1.6,0.3c-0.8,0-1.9-0.3-1.9-1.6c0-1.5,1-1.7,1.9-1.7c0.9,0,1.7,0.3,1.7,1.5
				c0,0.1,0,0.2,0,0.3h-2v0.1c0,0.2,0.1,0.4,0.6,0.4c0.3,0,0.7,0,1.2-0.2L71.9,19.3z M70.6,17.5c0-0.3-0.1-0.4-0.3-0.4
				c-0.2,0-0.3,0.1-0.3,0.4H70.6z"/>
			<path class="st0" d="M72.4,15.1h1.5v4.4h-1.5V15.1z"/>
			<path class="st0" d="M76.1,18.3h1.1v-1.6l-1.1,0v-1c0.8-0.1,1.4-0.2,2-0.4h0.6v3h1.1v1.2h-3.7V18.3z"/>
			<path class="st0" d="M80.3,18.6c1-0.6,1.9-1.2,1.9-1.7c0-0.1,0-0.3-0.4-0.3c-0.3,0-0.8,0.2-1,0.3l-0.5-1.1
				c0.4-0.2,1.1-0.5,1.8-0.5c0.8,0,1.7,0.3,1.7,1.4c0,0.7-0.5,1.2-1,1.6l0,0H84v1.2h-3.6L80.3,18.6z"/>
		</g>
		<g>
			<path class="st0" d="M54.6,27.5c-1.1-1.3-1.7-2-2.1-2.3l-0.1,0v2.3h-1.7v-4.8h1.5c0.3,0.3,1,1,1.7,1.9l0.1,0v-1.8h1.7v4.8
				L54.6,27.5z"/>
			<path class="st0" d="M60.1,27.2c-0.5,0.2-1.2,0.3-1.8,0.3c-0.9,0-2.1-0.4-2.1-1.8c0-1.6,1.1-1.9,2.1-1.9c0.9,0,1.9,0.4,1.9,1.7
				c0,0.1,0,0.3,0,0.3H58v0.1c0,0.2,0.1,0.4,0.6,0.4c0.3,0,0.8-0.1,1.3-0.2L60.1,27.2z M58.6,25.2c0-0.3-0.1-0.4-0.3-0.4
				c-0.2,0-0.3,0.1-0.3,0.4H58.6z"/>
			<path class="st0" d="M64.1,27.4h-3.7v-0.7c0.5-0.6,0.9-1.2,1.4-1.7l0-0.1h-1.3v-1.1h3.5l0.2,0.7c-0.4,0.5-1.1,1.2-1.4,1.7l0,0
				h1.4V27.4z"/>
			<path class="st0" d="M68.8,27.3c-0.6,0.2-1,0.2-1.3,0.2c-0.5,0-0.7-0.1-0.8-0.5l0,0c-0.4,0.4-0.8,0.5-1.2,0.5
				c-0.5,0-1.1-0.4-1.1-1c0-0.5,0.3-0.7,0.8-0.8c0.4-0.1,1.1-0.2,1.5-0.3v-0.1c0-0.2-0.1-0.3-0.4-0.3c-0.4,0-0.9,0.1-1.4,0.3l-0.3-1
				c0.6-0.3,1.4-0.5,1.9-0.5c0.7,0,1.9,0.1,1.9,1.5v0.9c0,0.1,0,0.2,0.2,0.2c0.1,0,0.2,0,0.2,0L68.8,27.3z M66.4,26.5
				c0.1,0,0.2-0.1,0.3-0.2v-0.4c-0.1,0-0.3,0.1-0.4,0.1c-0.1,0-0.1,0.1-0.1,0.2C66.2,26.3,66.2,26.5,66.4,26.5z"/>
			<path class="st0" d="M69.2,22.5h1.7v1.3l0,0.6l0.1,0c0.3-0.3,0.6-0.6,1.1-0.6c0.9,0,1.3,0.5,1.3,1.6v2h-1.7v-1.8
				c0-0.3-0.1-0.4-0.3-0.4c-0.2,0-0.3,0.1-0.4,0.3v2h-1.7V22.5z"/>
			<path class="st0" d="M77.8,27.4h-1.5L76.2,27l-0.1,0c-0.3,0.3-0.8,0.5-1.2,0.5c-0.6,0-1.2-0.4-1.2-1.3v-2.3h1.7v2
				c0,0.3,0.1,0.4,0.3,0.4s0.3-0.1,0.4-0.2v-2.2h1.7V27.4z"/>
			<path class="st0" d="M82.7,27.3c-0.6,0.2-1,0.2-1.3,0.2c-0.5,0-0.7-0.1-0.8-0.5l0,0c-0.4,0.4-0.8,0.5-1.2,0.5
				c-0.5,0-1.1-0.4-1.1-1c0-0.5,0.3-0.7,0.8-0.8c0.4-0.1,1.1-0.2,1.5-0.3v-0.1c0-0.2-0.1-0.3-0.4-0.3c-0.4,0-0.9,0.1-1.4,0.3l-0.3-1
				c0.6-0.3,1.4-0.5,1.9-0.5c0.7,0,1.9,0.1,1.9,1.5v0.9c0,0.1,0,0.2,0.2,0.2c0.1,0,0.2,0,0.2,0L82.7,27.3z M80.3,26.5
				c0.1,0,0.2-0.1,0.3-0.2v-0.4c-0.1,0-0.3,0.1-0.4,0.1c-0.1,0-0.1,0.1-0.1,0.2C80,26.3,80.1,26.5,80.3,26.5z"/>
			<path class="st0" d="M83,22.5h1.7v4.9H83V22.5z"/>
			<path class="st0" d="M85.2,25.7c0-1,0.3-1.9,1.9-1.9c0.5,0,1.1,0.1,1.4,0.3l-0.2,1.2c-0.2-0.1-0.6-0.2-0.8-0.2
				c-0.3,0-0.5,0.1-0.5,0.5c0,0.3,0.1,0.6,0.6,0.6c0.3,0,0.6-0.1,0.8-0.2l0.2,1.2c-0.3,0.1-0.8,0.3-1.4,0.3
				C85.9,27.5,85.2,26.9,85.2,25.7z"/>
			<path class="st0" d="M88.7,25.6c0-1.2,0.7-1.8,2.1-1.8c1.4,0,2.1,0.6,2.1,1.9c0,1.3-0.9,1.8-2.1,1.8C89.5,27.5,88.7,27,88.7,25.6
				z M89.9,23.1l1-1.9l1.1,0.7l-1.5,1.5L89.9,23.1z M91.2,25.7c0-0.5-0.1-0.7-0.4-0.7c-0.2,0-0.4,0.1-0.4,0.7c0,0.5,0.1,0.7,0.4,0.7
				C91,26.3,91.2,26.1,91.2,25.7z"/>
			<path class="st0" d="M93.8,28.9c0.2-0.4,0.5-1,0.7-1.5h-0.4c-0.2-0.8-0.6-1.6-0.8-2.2C93.3,25,93.2,25,93,25v-1.1
				c0.1,0,0.4,0,0.6,0c0.6,0,1,0.1,1.2,0.7l0.5,1.3h0c0.2-0.6,0.5-1.4,0.6-1.9h1.8c-0.6,1.8-1.3,3.5-2,5H93.8z"/>
			<path class="st0" d="M97.8,25.6c0-1.2,0.7-1.8,2.1-1.8c1.4,0,2.1,0.6,2.1,1.9c0,1.3-0.9,1.8-2.1,1.8C98.6,27.5,97.8,27,97.8,25.6
				z M100.3,25.7c0-0.5-0.1-0.7-0.4-0.7c-0.2,0-0.4,0.1-0.4,0.7c0,0.5,0.1,0.7,0.4,0.7C100.1,26.3,100.3,26.1,100.3,25.7z"/>
			<path class="st0" d="M102.2,23.9h0.6l0.3-1h1.3v1h1.1l-0.1,1.1h-1v0.7c0,0.2,0,0.4,0.3,0.4c0.2,0,0.4-0.1,0.7-0.1l0.2,1.3
				c-0.6,0.2-1.1,0.2-1.6,0.2c-0.9,0-1.3-0.4-1.3-1.5v-1h-0.5V23.9z"/>
			<path class="st0" d="M106,22.5h1.7v4.9H106V22.5z"/>
		</g>
	</g>
	<g>
		<g>
			<path class="st1" d="M45.1,15.3l-7-5.7l-1.4,8.9l1.8-0.7c0.7,1.9,1.1,3.9,1.1,5.9c0,9.2-7.5,16.7-16.7,16.7
				c-9.2,0-16.7-7.5-16.7-16.7C6.2,14.5,13.7,7,22.9,7c4.1,0,8,1.5,11.1,4.2l3.4-3.9c-4-3.6-9.2-5.5-14.5-5.5
				c-12.1,0-21.9,9.8-21.9,21.9c0,12.1,9.8,21.9,21.9,21.9c12,0,21.9-9.8,21.9-21.9c0-2.7-0.5-5.3-1.4-7.8L45.1,15.3z"/>
			<path class="st2" d="M40.3,21.2c-1.4,0-2.6,1.2-2.6,2.6c0,8.1-6.6,14.8-14.8,14.8c-8.2,0-14.8-6.6-14.8-14.8
				C8.1,15.6,14.8,9,22.9,9c2.9,0,5.6,0.8,8,2.3l2.8-4.4c-3.2-2-6.9-3.2-10.8-3.2c-11,0-20,9-20,20s9,20,20,20s20-9,20-20
				C42.9,22.3,41.7,21.2,40.3,21.2z"/>
			<circle class="st3" cx="22.9" cy="23.7" r="13.9"/>
		</g>
		<g>
			<defs>
				<circle id="SVGID_1_" cx="22.9" cy="23.7" r="13.9"/>
			</defs>
			<clipPath id="SVGID_2_">
				<use xlink:href="#SVGID_1_"  style="overflow:visible;"/>
			</clipPath>
			<g class="st4">
				<path class="st5" d="M29,24l-2.6,4.1h5.7C32.6,26.7,30.6,24.7,29,24z"/>
				<path class="st5" d="M27.1,19.1C27.1,19.1,27.1,19.1,27.1,19.1l-3.4-0.7L23,19.2c0,0-0.1,0-0.2,0L22.3,19l-0.1,0.1
					c0,0-0.1,0-0.2,0l-1.4-0.8l-0.8,0.8c0,0-0.1,0-0.1,0c0,0,0,0,0,0l-0.2,0l0.3,0.4l4.9,0.8v0c0,0,0,0,0.1,0l4.3,3.2
					c0,0,0,0.1,0.1,0.1l0.1,0.1l-0.1,0.1c0.6-0.4,1.5-1.5,1.5-1.5l1.4-2.3c0,0,0,0,0,0c0,0-0.1-0.1-0.1-0.1
					C30,18.7,27.1,19.1,27.1,19.1z"/>
				<polygon class="st5" points="28.8,23.8 23.8,25.1 26.2,27.9 				"/>
				<polygon class="st5" points="14.4,19.3 14.8,17.6 13.6,19.2 				"/>
				<polygon class="st5" points="15.1,17.3 14.7,19.4 23.6,24.9 24.5,20.5 20.1,19.8 20.1,19.8 17.9,19.7 				"/>
				<path class="st5" d="M15.2,17.2l2.3,0.2l1,1.1l0.7,0.2l0,0l0.5,0.1l0.8-0.8c0,0,0.1-0.1,0.2,0l1.4,0.8l0.8-0.7c0,0,0.1,0,0.1,0
					l3.6,0.5l0.1,0.2l0.5,0.1c0.1,0,0.7-0.1,1.5-0.1l-1.3-0.3l0,0L27,18.4l-5.6-1.7l0,0l-4.1-1.4l-2.1,1.9L15.2,17.2z"/>
				<path class="st5" d="M22.6,28.5l3.4-0.3l-2.5-2.9c-0.2,0.3-0.6,1-0.8,2C22.7,27.7,22.6,28.1,22.6,28.5z"/>
				<path class="st5" d="M23.4,31.8L21.1,30l-0.2,1.7C21.6,31.7,22.5,31.7,23.4,31.8z"/>
				<polygon class="st5" points="24.8,20.6 23.9,24.8 28.6,23.6 				"/>
				<path class="st5" d="M21,29.7l2.2,1.6c-1-1.5-1-3-0.7-4.1c0.2-1.1,0.7-1.8,0.9-2.1l-8.9-5.5l-0.6,0l8.2,5.3
					C20.3,26.7,20.8,28.9,21,29.7z"/>
				<path class="st5" d="M24.3,32c-0.2,0-0.3,0-0.5,0c0,0,0,0,0,0h0c-1.2,0-2.3,0-3.1,0l0,0L20.2,43h3.7L24.3,32z"/>
				<path class="st5" d="M25.9,28.4l-3.2,0.3c0.1,1,0.5,2,1.2,2.9L25.9,28.4z"/>
				<path class="st5" d="M30.3,32.3c-1.1-0.1-3-0.2-5.3-0.2c-0.1,0-0.3,0-0.4,0L24.1,43h1l0.1-5.3h5.1l0.9,5.3h1.3L30.3,32.3z"/>
				<polygon class="st5" points="25.7,17.7 23.3,13.6 22.9,13.5 21.5,16.4 				"/>
				<polygon class="st5" points="17,15.2 14.8,14.6 15,16.9 				"/>
				<path class="st5" d="M26.3,28.4L26.3,28.4l-2.2,3.4c2.1,0,4.5,0.1,6,0.2L26.3,28.4z"/>
				<path class="st5" d="M30.5,32C30.6,32,30.6,32,30.5,32c0.3-0.6,0.9-2.1,1.5-3.6h-5.4L30.5,32C30.5,32,30.5,32,30.5,32z"/>
				<polygon class="st5" points="35.8,43 30.7,32.6 32.8,43 				"/>
				<path class="st5" d="M30.6,19c0.1,0,0.9,0.2,1.5,0.6c0-0.2,0-0.6,0-1c0-2.9-0.1-3-0.6-3.8l-4,3.4L30.6,19z"/>
			</g>
		</g>
	</g>
</g>
</svg>
