<?xml version="1.0" encoding="utf-8"?>
<!-- Generator: Adobe Illustrator 21.0.0, SVG Export Plug-In . SVG Version: 6.00 Build 0)  -->
<svg version="1.1" id="Capa_13" xmlns="http://www.w3.org/2000/svg" xmlns:xlink="http://www.w3.org/1999/xlink" x="0px" y="0px"
	 viewBox="0 0 141.8 44.5" style="enable-background:new 0 0 141.8 44.5;" xml:space="preserve">
<style type="text/css">
	.st0{fill:#B4B3B9;}
	.st1{fill:#008375;}
	.st2{fill:#FFFFFF;}
	.st3{clip-path:url(#SVGID_2_);}
	.st4{fill:#FBFCFC;stroke:#FBFCFC;stroke-width:0.5;stroke-miterlimit:10;}
</style>
<g>
	<g>
		<g>
			<path d="M52,17.1v1.1h-1.6v-4.4h2.2c1.2,0,1.8,0.6,1.8,1.5c0,1.1-0.8,1.7-2,1.7C52.3,17.1,52.1,17.1,52,17.1z M52,15.9
				c0.1,0,0.2,0,0.2,0c0.4,0,0.5-0.2,0.5-0.5c0-0.3-0.2-0.4-0.5-0.4H52V15.9z"/>
			<path d="M54.8,13.8h1.5v4.5h-1.5V13.8z"/>
			<path d="M60.7,18.2c-0.5,0.2-0.9,0.2-1.2,0.2c-0.4,0-0.6-0.1-0.7-0.4l0,0c-0.3,0.3-0.7,0.5-1.1,0.5c-0.5,0-1-0.4-1-0.9
				c0-0.4,0.3-0.6,0.7-0.7c0.4-0.1,1-0.2,1.3-0.3v0c0-0.2-0.1-0.3-0.4-0.3c-0.3,0-0.8,0.1-1.3,0.3l-0.3-0.9c0.6-0.3,1.3-0.4,1.7-0.4
				c0.6,0,1.8,0.1,1.8,1.3v0.8c0,0.1,0,0.1,0.1,0.1c0.1,0,0.2,0,0.2,0L60.7,18.2z M58.5,17.4c0.1,0,0.2,0,0.2-0.1V17
				c-0.1,0-0.3,0.1-0.4,0.1c-0.1,0-0.1,0.1-0.1,0.2C58.3,17.3,58.4,17.4,58.5,17.4z"/>
			<path d="M61,15.1h1.4l0.1,0.4l0.1,0c0.3-0.4,0.7-0.5,1.1-0.5c0.7,0,1.1,0.3,1.1,1.3v2h-1.6v-1.7c0-0.2-0.1-0.3-0.2-0.3
				c-0.2,0-0.3,0.1-0.4,0.3v1.8H61V15.1z"/>
			<path d="M64.9,15.1h0.5l0.3-0.9H67v0.9h1l-0.1,1H67v0.6c0,0.2,0,0.4,0.3,0.4c0.2,0,0.4-0.1,0.6-0.1l0.2,1.1
				c-0.5,0.2-1,0.2-1.4,0.2c-0.8,0-1.2-0.4-1.2-1.4v-0.9h-0.5V15.1z"/>
			<path d="M71.7,18.1c-0.5,0.2-1.1,0.3-1.6,0.3c-0.8,0-1.9-0.3-1.9-1.6c0-1.5,1-1.7,1.9-1.7c0.9,0,1.7,0.3,1.7,1.5
				c0,0.1,0,0.2,0,0.3h-2v0.1c0,0.2,0.1,0.4,0.6,0.4c0.3,0,0.7,0,1.2-0.2L71.7,18.1z M70.4,16.3c0-0.3-0.1-0.4-0.3-0.4
				c-0.2,0-0.3,0.1-0.3,0.4H70.4z"/>
			<path d="M72.2,13.8h1.5v4.5h-1.5V13.8z"/>
			<path d="M75.9,17.1H77v-1.6l-1.1,0v-1c0.8-0.1,1.4-0.2,2.1-0.4h0.6v3h1.1v1.2h-3.7V17.1z"/>
			<path d="M81.9,18.4c-0.7,0-1.3-0.2-1.7-0.5l0.4-1.1c0.3,0.2,0.8,0.4,1.2,0.4c0.3,0,0.5-0.1,0.5-0.3c0-0.3-0.5-0.3-1-0.3v-0.7
				c0.4-0.1,0.8-0.2,0.8-0.4c0-0.2-0.2-0.2-0.4-0.2c-0.4,0-0.8,0.1-1,0.3l-0.4-1c0.4-0.3,1.1-0.5,1.8-0.5c1.1,0,1.7,0.4,1.7,1.1
				c0,0.4-0.3,0.7-0.7,0.9v0c0.4,0.1,0.8,0.4,0.8,1C83.9,18,82.9,18.4,81.9,18.4z"/>
		</g>
		<g>
			<path d="M51.9,23.8c-0.2-0.3-0.4-0.6-0.6-0.9c-0.2-0.2-0.4-0.3-0.5-0.3v-1.3c0.2,0,0.6,0,0.8,0c0.5,0,0.7,0.1,1.1,0.6
				c0.1,0.1,0.3,0.4,0.5,0.8h0c0.2-0.3,0.4-0.8,0.7-1.3h2c-0.5,0.9-1.1,1.9-1.4,2.4c0.2,0.3,0.5,0.8,0.7,1c0.2,0.2,0.5,0.3,0.6,0.3
				v1.2c-0.1,0-0.7,0.1-0.9,0.1c-0.5,0-0.8,0-1.2-0.6l-0.5-0.8h-0.1c-0.2,0.3-0.5,0.8-0.7,1.3h-2C50.9,25.3,51.5,24.4,51.9,23.8z"/>
			<path d="M56,24.4c0-1.2,0.7-1.8,2.1-1.8c1.4,0,2.1,0.6,2.1,1.9c0,1.3-0.9,1.8-2.1,1.8C56.9,26.3,56,25.8,56,24.4z M58.6,24.5
				c0-0.5-0.1-0.7-0.4-0.7c-0.2,0-0.4,0.1-0.4,0.7c0,0.5,0.1,0.7,0.4,0.7C58.4,25.1,58.6,24.9,58.6,24.5z"/>
			<path d="M60.6,24.5c0-1,0.3-1.9,1.9-1.9c0.5,0,1.1,0.1,1.4,0.3l-0.2,1.2c-0.2-0.1-0.6-0.2-0.8-0.2c-0.3,0-0.5,0.1-0.5,0.5
				c0,0.3,0.1,0.6,0.6,0.6c0.3,0,0.6-0.1,0.8-0.2L64,26c-0.3,0.1-0.9,0.3-1.4,0.3C61.4,26.3,60.6,25.7,60.6,24.5z"/>
			<path d="M64.4,21.2h1.7v1.3l0,0.7l0.1,0c0.3-0.3,0.6-0.6,1.1-0.6c0.9,0,1.3,0.5,1.3,1.6v2h-1.7v-1.9c0-0.4-0.1-0.5-0.3-0.5
				c-0.2,0-0.3,0.1-0.4,0.3v2h-1.7V21.2z"/>
			<path d="M69.8,20.5c0.5,0,0.9,0.3,0.9,0.8c0,0.5-0.4,0.8-0.9,0.8c-0.5,0-0.9-0.3-0.9-0.8C68.9,20.8,69.3,20.5,69.8,20.5z
				 M68.9,22.7h1.7v3.5h-1.7V22.7z"/>
			<path d="M71.2,22.7h1.5l0.1,0.5l0.1,0c0.3-0.4,0.8-0.6,1.2-0.6c0.5,0,0.9,0.2,1.1,0.6l0.1,0c0.4-0.5,0.9-0.6,1.2-0.6
				c0.7,0,1.2,0.4,1.2,1.4v2.2H76v-1.9c0-0.3-0.1-0.4-0.3-0.4c-0.2,0-0.3,0.1-0.4,0.3v2h-1.7v-1.9c0-0.3-0.1-0.4-0.3-0.4
				c-0.2,0-0.3,0.1-0.4,0.3v2h-1.7V22.7z"/>
			<path d="M79,20.5c0.5,0,0.9,0.3,0.9,0.8c0,0.5-0.4,0.8-0.9,0.8c-0.5,0-0.9-0.3-0.9-0.8C78.1,20.8,78.5,20.5,79,20.5z M78.1,22.7
				h1.7v3.5h-1.7V22.7z"/>
			<path d="M80.4,21.2h1.7v5h-1.7V21.2z"/>
			<path d="M82.5,24.5c0-1,0.3-1.9,1.9-1.9c0.5,0,1.1,0.1,1.4,0.3l-0.2,1.2c-0.2-0.1-0.6-0.2-0.8-0.2c-0.3,0-0.5,0.1-0.5,0.5
				c0,0.3,0.1,0.6,0.6,0.6c0.3,0,0.6-0.1,0.8-0.2l0.2,1.2c-0.3,0.1-0.9,0.3-1.4,0.3C83.3,26.3,82.5,25.7,82.5,24.5z"/>
			<path d="M86.1,24.4c0-1.2,0.7-1.8,2.2-1.8c1.4,0,2.1,0.6,2.1,1.9c0,1.3-0.9,1.8-2.1,1.8C87,26.3,86.1,25.8,86.1,24.4z M88.6,24.5
				c0-0.5-0.1-0.7-0.4-0.7c-0.2,0-0.4,0.1-0.4,0.7c0,0.5,0.1,0.7,0.4,0.7C88.5,25.1,88.6,24.9,88.6,24.5z"/>
			<path d="M90.7,23.9l2.7-0.2v1l-2.7,0.2V23.9z"/>
			<path d="M95,22.7h-1.4v-1.3h4.6v1.3h-1.4v3.5H95V22.7z"/>
			<path d="M101.8,26c-0.5,0.2-1.2,0.3-1.8,0.3c-0.9,0-2.1-0.4-2.1-1.8c0-1.6,1.1-1.9,2.1-1.9c1,0,1.9,0.4,1.9,1.7
				c0,0.1,0,0.3,0,0.3h-2.2v0.1c0,0.2,0.1,0.4,0.6,0.4c0.3,0,0.8-0.1,1.3-0.2L101.8,26z M100.3,24c0-0.3-0.1-0.4-0.3-0.4
				c-0.2,0-0.3,0.1-0.3,0.4H100.3z"/>
			<path d="M106.5,24.4c0,1.4-0.8,1.9-1.8,1.9c-0.3,0-0.6-0.1-0.7-0.1v1.5h-1.7v-5h1.5l0.2,0.4l0,0c0.3-0.3,0.5-0.5,1-0.5
				C105.9,22.6,106.5,23.3,106.5,24.4z M103.9,24v1c0.1,0,0.2,0.1,0.3,0.1c0.4,0,0.5-0.3,0.5-0.7c0-0.4-0.1-0.7-0.4-0.7
				C104.2,23.8,104,23.9,103.9,24z"/>
			<path d="M110.7,26c-0.5,0.2-1.2,0.3-1.8,0.3c-0.9,0-2.1-0.4-2.1-1.8c0-1.6,1.1-1.9,2.1-1.9c1,0,1.9,0.4,1.9,1.7
				c0,0.1,0,0.3,0,0.3h-2.2v0.1c0,0.2,0.1,0.4,0.6,0.4c0.3,0,0.8-0.1,1.3-0.2L110.7,26z M109.2,24c0-0.3-0.1-0.4-0.3-0.4
				c-0.2,0-0.3,0.1-0.3,0.4H109.2z"/>
			<path d="M115.4,24.4c0,1.4-0.8,1.9-1.8,1.9c-0.3,0-0.6-0.1-0.7-0.1v1.5h-1.7v-5h1.5l0.2,0.4l0,0c0.3-0.3,0.5-0.5,1-0.5
				C114.8,22.6,115.4,23.3,115.4,24.4z M112.8,24v1c0.1,0,0.2,0.1,0.3,0.1c0.4,0,0.5-0.3,0.5-0.7c0-0.4-0.1-0.7-0.4-0.7
				C113.1,23.8,112.9,23.9,112.8,24z"/>
			<path d="M120.1,26.1c-0.6,0.2-1,0.2-1.3,0.2c-0.5,0-0.7-0.1-0.8-0.5l0,0c-0.4,0.4-0.8,0.5-1.2,0.5c-0.5,0-1.1-0.4-1.1-1
				c0-0.5,0.3-0.7,0.8-0.8c0.4-0.1,1.1-0.2,1.5-0.3v-0.1c0-0.2-0.1-0.3-0.4-0.3c-0.4,0-0.9,0.1-1.4,0.3l-0.3-1
				c0.6-0.3,1.4-0.5,1.9-0.5c0.7,0,2,0.1,2,1.5V25c0,0.1,0,0.2,0.2,0.2c0.1,0,0.2,0,0.2,0L120.1,26.1z M117.7,25.3
				c0.1,0,0.2-0.1,0.3-0.2v-0.4c-0.1,0-0.3,0.1-0.4,0.1c-0.1,0-0.1,0.1-0.1,0.2C117.4,25.1,117.5,25.3,117.7,25.3z"/>
			<path d="M120.4,22.7h1.6l0.1,0.5l0.1,0c0.3-0.4,0.8-0.6,1.2-0.6c0.7,0,1.2,0.4,1.2,1.4v2.2h-1.7v-1.9c0-0.3-0.1-0.4-0.3-0.4
				c-0.2,0-0.3,0.1-0.4,0.3v2h-1.7V22.7z"/>
		</g>
		<g>
			<path d="M51.2,29.9C51,30.1,51,30.3,51,30.5c0,0.2,0.1,0.4,0.3,0.6l-0.6,0.1c-0.2-0.2-0.3-0.4-0.3-0.5c0-0.3,0.2-0.6,0.5-0.8
				L51.2,29.9z M52.3,29.9c-0.2,0.2-0.3,0.4-0.3,0.6c0,0.2,0.1,0.4,0.3,0.5l-0.6,0.1c-0.2-0.2-0.3-0.4-0.3-0.5
				c0-0.3,0.2-0.5,0.5-0.8L52.3,29.9z"/>
			<path d="M54.4,34.1c-1.1-0.2-1.6-1-1.6-2.1c0-1.2,0.7-2.1,2-2.1c1.4,0,2,0.9,2,2.1c0,1.1-0.5,1.9-1.4,2.1
				c0.3,0.3,0.8,0.5,1.3,0.5c0.1,0,0.1,0,0.3,0V35c-0.1,0-0.4,0.1-0.5,0.1C55.8,35,54.9,34.5,54.4,34.1z M56.1,31.9
				c0-1-0.4-1.6-1.2-1.6c-0.8,0-1.2,0.6-1.2,1.6c0,1,0.4,1.6,1.2,1.6C55.7,33.5,56.1,33,56.1,31.9z"/>
			<path d="M60.2,34.1h-0.6l-0.1-0.4l0,0c-0.3,0.3-0.6,0.4-1,0.4c-0.6,0-1-0.4-1-1.1v-2h0.7v1.8c0,0.4,0.2,0.7,0.5,0.7
				c0.3,0,0.6-0.2,0.7-0.4V31h0.7V34.1z"/>
			<path d="M61.3,29.6c0.2,0,0.4,0.2,0.4,0.4c0,0.2-0.2,0.4-0.4,0.4c-0.3,0-0.4-0.2-0.4-0.4C60.8,29.8,61,29.6,61.3,29.6z M60.9,31
				h0.7v3h-0.7V31z"/>
			<path d="M62.4,34.1v-3h0.6l0.1,0.5h0c0.3-0.3,0.6-0.5,0.8-0.5c0.1,0,0.3,0.1,0.4,0.2l-0.2,0.6c-0.1,0-0.2-0.1-0.3-0.1
				c-0.3,0-0.6,0.3-0.7,0.5v1.9H62.4z"/>
			<path d="M65.1,29.6c0.2,0,0.4,0.2,0.4,0.4c0,0.2-0.2,0.4-0.4,0.4c-0.3,0-0.4-0.2-0.4-0.4C64.7,29.8,64.8,29.6,65.1,29.6z
				 M64.7,31h0.7v3h-0.7V31z"/>
			<path d="M66.2,31h0.6l0.1,0.4l0,0c0.3-0.3,0.6-0.4,1-0.4c0.6,0,1,0.4,1,1.1v1.9h-0.7v-1.8c0-0.5-0.2-0.7-0.5-0.7
				c-0.3,0-0.6,0.2-0.7,0.4v2.1h-0.7V31z"/>
			<path d="M69.5,32.6c0-1,0.5-1.6,1.5-1.6c1,0,1.5,0.5,1.5,1.6c0,1.1-0.6,1.6-1.5,1.6C70.1,34.1,69.5,33.7,69.5,32.6z M71.7,32.6
				c0-0.8-0.3-1-0.7-1c-0.4,0-0.8,0.3-0.8,1c0,0.7,0.3,1,0.8,1C71.4,33.6,71.7,33.3,71.7,32.6z"/>
			<path d="M79.1,34.1h-0.7l-0.2-3h0c-0.4,1-1.1,2.4-1.2,2.7l-0.4,0.1c-0.3-0.6-0.7-1.6-1.3-2.7h0l-0.1,3h-0.7l0.2-4.2h0.8
				c0.6,1.2,1.2,2.6,1.4,2.9h0c0.2-0.5,0.8-1.8,1.3-2.9h0.8L79.1,34.1z"/>
			<path d="M82.4,33.9c-0.3,0.1-0.7,0.2-1.1,0.2c-0.8,0-1.6-0.4-1.6-1.5c0-1.2,0.7-1.6,1.5-1.6c0.9,0,1.3,0.5,1.3,1.3
				c0,0.1,0,0.2,0,0.2h-2v0.1c0,0.7,0.4,0.9,0.9,0.9c0.3,0,0.7-0.1,0.9-0.2L82.4,33.9z M81.8,32.2c0-0.5-0.2-0.7-0.6-0.7
				c-0.4,0-0.7,0.2-0.7,0.7H81.8z"/>
			<path d="M83.1,31h0.6l0.1,0.4l0,0c0.3-0.3,0.6-0.4,1-0.4c0.6,0,1,0.4,1,1.1v1.9h-0.7v-1.8c0-0.5-0.2-0.7-0.5-0.7
				c-0.3,0-0.6,0.2-0.7,0.4v2.1h-0.7V31z"/>
			<path d="M86.3,32.6c0-1.1,0.6-1.6,1.4-1.6c0.3,0,0.5,0.1,0.7,0.1v-1.3h0.7v4.3h-0.6l-0.1-0.4l0,0c-0.2,0.2-0.5,0.4-0.9,0.4
				C86.8,34.1,86.3,33.4,86.3,32.6z M88.4,33.2v-1.5c-0.2-0.1-0.4-0.1-0.6-0.1c-0.6,0-0.8,0.5-0.8,1.1c0,0.6,0.3,1,0.6,1
				C88,33.6,88.3,33.4,88.4,33.2z"/>
			<path d="M89.8,32.6c0-1,0.5-1.6,1.5-1.6c1,0,1.5,0.5,1.5,1.6c0,1.1-0.6,1.6-1.5,1.6C90.4,34.1,89.8,33.7,89.8,32.6z M92,32.6
				c0-0.8-0.3-1-0.7-1c-0.4,0-0.8,0.3-0.8,1c0,0.7,0.3,1,0.8,1C91.7,33.6,92,33.3,92,32.6z"/>
			<path d="M95.8,34.1h-2.6v-0.3c0.4-0.5,1.1-1.6,1.5-2.2l0,0h-1.5V31h2.4l0.1,0.3c-0.6,0.8-1.2,1.7-1.6,2.2l0,0h1.6V34.1z"/>
			<path d="M99.2,34c-0.2,0.1-0.4,0.1-0.6,0.1c-0.3,0-0.4-0.1-0.5-0.4l0,0c-0.3,0.3-0.6,0.4-1,0.4c-0.5,0-0.9-0.4-0.9-0.9
				c0-0.4,0.2-0.6,0.7-0.7c0.4-0.1,0.9-0.2,1.2-0.3v-0.2c0-0.4-0.1-0.6-0.6-0.6c-0.3,0-0.7,0.1-1,0.3l-0.1-0.5
				c0.4-0.2,0.8-0.3,1.2-0.3c0.6,0,1.2,0.2,1.2,1.1v1.3c0,0.1,0,0.2,0.2,0.2c0.1,0,0.2,0,0.2,0L99.2,34z M97.4,33.6
				c0.2,0,0.5-0.1,0.7-0.4v-0.7c-0.3,0.1-0.6,0.1-0.8,0.2c-0.2,0.1-0.3,0.1-0.3,0.4C97,33.4,97.2,33.6,97.4,33.6z"/>
			<path d="M101.6,35.3c0.2-0.3,0.4-0.7,0.6-1.3H102c-0.2-0.7-0.7-1.9-0.9-2.3c-0.1-0.1-0.1-0.2-0.3-0.2V31c0,0,0.1,0,0.3,0
				c0.3,0,0.5,0.1,0.6,0.5c0.1,0.2,0.4,1.2,0.6,1.9h0c0.2-0.7,0.7-1.9,0.8-2.3h0.7c-0.3,0.9-1.2,3.2-1.6,4.3H101.6z"/>
			<path d="M105.9,32c0-1.5,0.9-2.2,2.1-2.2c0.4,0,0.9,0.1,1.2,0.3l-0.1,0.6c-0.3-0.2-0.7-0.3-1-0.3c-0.8,0-1.4,0.5-1.4,1.6
				c0,1,0.7,1.5,1.5,1.5c0.4,0,0.7-0.1,1.1-0.2l0.1,0.6c-0.4,0.2-0.8,0.3-1.3,0.3C106.9,34.1,105.9,33.5,105.9,32z"/>
			<path d="M109.8,32.6c0-1,0.5-1.6,1.5-1.6c1,0,1.5,0.5,1.5,1.6c0,1.1-0.6,1.6-1.5,1.6C110.4,34.1,109.8,33.7,109.8,32.6z
				 M112,32.6c0-0.8-0.3-1-0.7-1c-0.4,0-0.8,0.3-0.8,1c0,0.7,0.3,1,0.8,1C111.7,33.6,112,33.3,112,32.6z"/>
			<path d="M113.4,34.1v-3h0.6l0.1,0.5h0c0.3-0.3,0.6-0.5,0.8-0.5c0.1,0,0.3,0.1,0.4,0.2l-0.2,0.6c-0.1,0-0.2-0.1-0.3-0.1
				c-0.3,0-0.6,0.3-0.7,0.5v1.9H113.4z"/>
			<path d="M115.5,31h0.5l0.1-0.7h0.6V31h0.9l-0.1,0.5h-0.9v1.6c0,0.3,0.1,0.4,0.4,0.4c0.2,0,0.4,0,0.6-0.1l0.1,0.5
				c-0.3,0.1-0.6,0.2-0.9,0.2c-0.6,0-0.9-0.3-0.9-0.9v-1.6h-0.5V31z"/>
			<path d="M120.8,33.9c-0.3,0.1-0.7,0.2-1.1,0.2c-0.8,0-1.6-0.4-1.6-1.5c0-1.2,0.7-1.6,1.5-1.6c0.9,0,1.3,0.5,1.3,1.3
				c0,0.1,0,0.2,0,0.2h-2v0.1c0,0.7,0.4,0.9,0.9,0.9c0.3,0,0.7-0.1,0.9-0.2L120.8,33.9z M120.2,32.2c0-0.5-0.2-0.7-0.6-0.7
				c-0.4,0-0.7,0.2-0.7,0.7H120.2z M119,30.5l0.7-1.3l0.6,0.3l-1,1.1L119,30.5z"/>
			<path d="M122.4,34.1c-0.4,0-0.8-0.1-1-0.2l0.1-0.5c0.2,0.1,0.6,0.2,1,0.2c0.3,0,0.6-0.1,0.6-0.4c0-0.6-1.6-0.3-1.6-1.3
				c0-0.6,0.5-0.9,1.2-0.9c0.4,0,0.8,0.1,1,0.2l-0.1,0.5c-0.2-0.1-0.6-0.2-0.8-0.2c-0.3,0-0.5,0.1-0.5,0.4c0,0.5,1.6,0.3,1.6,1.3
				C123.6,33.8,123.1,34.1,122.4,34.1z"/>
			<path d="M124.2,31.1c0.2-0.2,0.3-0.4,0.3-0.6c0-0.2-0.1-0.4-0.3-0.5l0.6-0.1c0.2,0.2,0.3,0.4,0.3,0.5c0,0.3-0.2,0.5-0.5,0.8
				L124.2,31.1z M125.2,31.1c0.2-0.2,0.3-0.4,0.3-0.6c0-0.2-0.1-0.4-0.3-0.5l0.6-0.1c0.2,0.2,0.3,0.4,0.3,0.5c0,0.3-0.2,0.6-0.5,0.8
				L125.2,31.1z"/>
		</g>
	</g>
	<g>
		<g>
			<path class="st0" d="M44.8,14l-7.1-5.8l-1.5,9l1.8-0.7c0.7,1.9,1.1,3.9,1.1,6c0,9.3-7.5,16.8-16.8,16.8
				c-9.3,0-16.8-7.5-16.8-16.8c0-9.3,7.5-16.8,16.8-16.8c4.1,0,8.1,1.5,11.2,4.2L37,6.1c-4-3.6-9.2-5.6-14.6-5.6
				c-12.1,0-22,9.9-22,22c0,12.1,9.9,22,22,22c12.1,0,22-9.9,22-22c0-2.7-0.5-5.3-1.4-7.8L44.8,14z"/>
			<path class="st1" d="M39.9,20c-1.4,0-2.6,1.2-2.6,2.6c0,8.2-6.7,14.9-14.9,14.9c-8.2,0-14.9-6.7-14.9-14.9
				c0-8.2,6.7-14.9,14.9-14.9c2.9,0,5.7,0.8,8,2.4l2.8-4.4c-3.2-2.1-7-3.2-10.8-3.2c-11.1,0-20.1,9-20.1,20.1s9,20.1,20.1,20.1
				c11.1,0,20.1-9,20.1-20.1C42.5,21.1,41.3,20,39.9,20z"/>
			<circle class="st2" cx="22.4" cy="22.5" r="14"/>
		</g>
		<g>
			<defs>
				<circle id="SVGID_1_" cx="22.4" cy="22.5" r="14"/>
			</defs>
			<clipPath id="SVGID_2_">
				<use xlink:href="#SVGID_1_"  style="overflow:visible;"/>
			</clipPath>
			<g class="st3">
				<g>
					<path class="st1" d="M14.4,30.8c-0.1,0.1-0.1,0.1-0.2,0.1c0,0-0.1,0-0.2-0.1c-0.1-0.1-0.2-0.2-0.3-0.3
						c-0.1-0.1-0.3-0.2-0.4-0.3c-0.1-0.1-0.2-0.1-0.3-0.1c-0.2,0-0.4,0.1-0.6,0.1c-0.2,0.1-0.3,0.2-0.5,0.2
						c-0.2,0.1-0.3,0.1-0.5,0.1c-0.2,0-0.4-0.1-0.8-0.2c-0.1,0-0.1,0-0.2,0c-0.3,0-0.5,0.1-0.7,0.2c-0.2,0.1-0.4,0.2-0.6,0.2l0,0
						l0,0.3l0-0.3c-0.1,0-0.3,0-0.4-0.1c-0.1,0-0.3-0.1-0.4-0.1c-0.1,0-0.1,0-0.2,0c-0.1,0-0.3,0-0.4,0.1c-0.1,0-0.2,0.1-0.3,0.1
						c-0.1,0-0.2,0-0.2,0c-0.1,0-0.1,0-0.1,0c0,0-0.1-0.1-0.2-0.2c-0.1-0.1-0.2-0.1-0.3-0.1c-0.1,0-0.2,0-0.3,0.1
						c-0.1,0-0.2,0.1-0.2,0.1L6,31c0.1,0,0.2-0.1,0.3-0.1c0.1,0,0.1-0.1,0.2,0c0,0,0.1,0,0.1,0.1c0.1,0.1,0.2,0.1,0.2,0.2
						c0.1,0.1,0.2,0.1,0.3,0.1c0.1,0,0.2,0,0.3,0c0.1,0,0.3-0.1,0.4-0.1c0.1,0,0.2,0,0.3,0c0,0,0.1,0,0.1,0c0.1,0,0.3,0.1,0.4,0.1
						c0.2,0.1,0.3,0.1,0.5,0.1h0h0l0,0c0.3,0,0.5-0.1,0.7-0.2c0.2-0.1,0.4-0.2,0.6-0.2c0,0,0.1,0,0.1,0c0.3,0.1,0.5,0.2,0.8,0.2
						c0.2,0,0.4,0,0.6-0.1c0.2-0.1,0.4-0.2,0.5-0.2c0.2-0.1,0.3-0.1,0.4-0.1c0.1,0,0.1,0,0.2,0.1c0.1,0.1,0.3,0.2,0.4,0.3
						c0.1,0.1,0.2,0.1,0.3,0.2c0.1,0.1,0.2,0.1,0.3,0.1c0.1,0,0.3,0,0.4-0.2L14.4,30.8L14.4,30.8z"/>
					<path class="st1" d="M14.4,29.7c-0.1,0.1-0.1,0.1-0.2,0.1c0,0-0.1,0-0.2-0.1c-0.1-0.1-0.2-0.2-0.3-0.3
						c-0.1-0.1-0.3-0.2-0.4-0.3C13.2,29.1,13.1,29,13,29c-0.2,0-0.4,0-0.6,0.1s-0.3,0.2-0.5,0.2c-0.2,0.1-0.3,0.1-0.5,0.1
						c-0.2,0-0.4-0.1-0.8-0.2c-0.1,0-0.1,0-0.2,0c-0.3,0-0.5,0.1-0.7,0.2c-0.2,0.1-0.4,0.2-0.6,0.2l0,0l0,0.3l0-0.3
						c-0.1,0-0.2,0-0.4-0.1c-0.1,0-0.3-0.1-0.4-0.1c-0.1,0-0.1,0-0.2,0c-0.1,0-0.3,0-0.4,0.1c-0.1,0-0.2,0.1-0.3,0.1
						c-0.1,0-0.2,0-0.2,0c-0.1,0-0.1,0-0.1,0c0,0-0.1-0.1-0.2-0.2c-0.1-0.1-0.2-0.1-0.3-0.1c-0.1,0-0.2,0-0.3,0.1
						c-0.1,0-0.2,0.1-0.2,0.1l0,0.5c0.1,0,0.2-0.1,0.3-0.1c0.1,0,0.1-0.1,0.2,0c0,0,0.1,0,0.1,0.1c0.1,0.1,0.2,0.1,0.2,0.2
						C7,30,7.1,30.1,7.2,30.1c0.1,0,0.2,0,0.3,0c0.1,0,0.3-0.1,0.4-0.1c0.1,0,0.2,0,0.3,0c0,0,0.1,0,0.1,0c0.1,0,0.3,0.1,0.4,0.1
						c0.1,0,0.3,0.1,0.5,0.1h0h0l0,0c0.3,0,0.5-0.1,0.7-0.2c0.2-0.1,0.4-0.2,0.6-0.2c0,0,0.1,0,0.1,0c0.3,0.1,0.5,0.2,0.8,0.2
						c0.2,0,0.4,0,0.6-0.1c0.2-0.1,0.4-0.2,0.5-0.2c0.2-0.1,0.3-0.1,0.4-0.1c0.1,0,0.1,0,0.2,0.1c0.1,0.1,0.3,0.2,0.4,0.3
						c0.1,0.1,0.2,0.1,0.3,0.2c0.1,0.1,0.2,0.1,0.3,0.1c0.1,0,0.3,0,0.4-0.2L14.4,29.7z"/>
				</g>
				<g>
					<path class="st1" d="M40,30.8c-0.1,0.1-0.1,0.1-0.2,0.1c0,0-0.1,0-0.1-0.1c-0.1-0.1-0.2-0.2-0.3-0.3c-0.1-0.1-0.2-0.2-0.4-0.3
						c-0.1-0.1-0.2-0.1-0.3-0.1c-0.2,0-0.4,0.1-0.5,0.1c-0.2,0.1-0.3,0.2-0.5,0.2c-0.2,0.1-0.3,0.1-0.4,0.1c-0.2,0-0.4-0.1-0.7-0.2
						c-0.1,0-0.1,0-0.2,0c-0.3,0-0.5,0.1-0.7,0.2c-0.2,0.1-0.4,0.2-0.5,0.2l0,0l0,0.3l0-0.3c-0.1,0-0.2,0-0.4-0.1
						c-0.1,0-0.3-0.1-0.4-0.1c-0.1,0-0.1,0-0.2,0c-0.1,0-0.3,0-0.4,0.1c-0.1,0-0.2,0.1-0.3,0.1c-0.1,0-0.2,0-0.2,0c0,0-0.1,0-0.1,0
						c0,0-0.1-0.1-0.2-0.2c-0.1-0.1-0.2-0.1-0.3-0.1c-0.1,0-0.2,0-0.3,0.1c-0.1,0-0.2,0.1-0.2,0.1l0,0.5c0.1,0,0.2-0.1,0.3-0.1
						c0.1,0,0.1-0.1,0.2,0c0,0,0.1,0,0.1,0.1c0.1,0.1,0.2,0.1,0.2,0.2c0.1,0.1,0.2,0.1,0.3,0.1c0.1,0,0.2,0,0.3,0
						c0.1,0,0.2-0.1,0.3-0.1c0.1,0,0.2,0,0.2,0c0,0,0.1,0,0.1,0c0.1,0,0.3,0.1,0.4,0.1c0.1,0,0.3,0.1,0.4,0.1h0l0,0l0,0
						c0.3,0,0.5-0.1,0.7-0.2c0.2-0.1,0.4-0.2,0.5-0.2c0,0,0.1,0,0.1,0c0.3,0.1,0.5,0.2,0.8,0.2c0.2,0,0.4,0,0.6-0.1
						c0.2-0.1,0.3-0.2,0.5-0.2c0.1-0.1,0.3-0.1,0.4-0.1c0.1,0,0.1,0,0.2,0.1c0.1,0.1,0.2,0.2,0.4,0.3c0.1,0.1,0.2,0.2,0.2,0.2
						c0.1,0.1,0.2,0.1,0.3,0.1c0.1,0,0.3,0,0.4-0.2L40,30.8L40,30.8z"/>
					<path class="st1" d="M40,29.7c-0.1,0.1-0.1,0.1-0.2,0.1c0,0-0.1,0-0.1-0.1c-0.1-0.1-0.2-0.2-0.3-0.3c-0.1-0.1-0.2-0.2-0.4-0.3
						C38.9,29,38.8,29,38.7,29c-0.2,0-0.4,0.1-0.5,0.1c-0.2,0.1-0.3,0.2-0.5,0.2c-0.2,0.1-0.3,0.1-0.4,0.1c-0.2,0-0.4-0.1-0.7-0.2
						c-0.1,0-0.1,0-0.2,0c-0.3,0-0.5,0.1-0.7,0.2c-0.2,0.1-0.4,0.2-0.5,0.2l0,0l0,0.3l0-0.3c-0.1,0-0.2,0-0.4-0.1
						c-0.1,0-0.3-0.1-0.4-0.1c-0.1,0-0.1,0-0.2,0c-0.1,0-0.3,0-0.4,0.1c-0.1,0-0.2,0.1-0.3,0.1c-0.1,0-0.2,0-0.2,0c0,0-0.1,0-0.1,0
						c0,0-0.1-0.1-0.2-0.2c-0.1-0.1-0.2-0.1-0.3-0.1c-0.1,0-0.2,0-0.3,0.1c-0.1,0-0.2,0.1-0.2,0.1l0,0.5c0.1,0,0.2-0.1,0.3-0.1
						c0.1,0,0.1-0.1,0.2,0c0,0,0.1,0,0.1,0.1c0.1,0.1,0.2,0.1,0.2,0.2c0.1,0.1,0.2,0.1,0.3,0.1c0.1,0,0.2,0,0.3,0
						c0.1,0,0.2-0.1,0.3-0.1c0.1,0,0.2,0,0.2,0c0,0,0.1,0,0.1,0c0.1,0,0.3,0.1,0.4,0.1c0.1,0,0.3,0.1,0.4,0.1h0h0l0,0
						c0.3,0,0.5-0.1,0.7-0.2c0.2-0.1,0.4-0.2,0.5-0.2c0,0,0.1,0,0.1,0c0.3,0.1,0.5,0.2,0.8,0.2c0.2,0,0.4,0,0.6-0.1
						c0.2-0.1,0.3-0.2,0.5-0.2c0.1-0.1,0.3-0.1,0.4-0.1c0.1,0,0.1,0,0.2,0.1c0.1,0.1,0.3,0.2,0.4,0.3c0.1,0.1,0.2,0.2,0.2,0.2
						c0.1,0.1,0.2,0.1,0.3,0.1c0.1,0,0.3,0,0.4-0.2L40,29.7z"/>
				</g>
				<path class="st1" d="M30.5,19.8c-0.6-0.7-1.1-1.2-2.9-1.3c-0.7,0-1.8,0-3.3,0c-2.5,0-5.3,0-5.3,0c0,0-2.1,0-3,1.3
					c-0.8,1.2-0.7,4.5-0.5,6h1.1c0-0.4,0-1.2,0-2c0.2-1.7,0.7-2.7,1.5-2.9c1.4-0.4,3.4-0.4,4.7-0.4c0.2,0,0.3,0,0.4,0
					c0.1,0,0.2,0,0.3,0h0.2c0.1,0,0.2,0,0.3,0c2.9,0,4.3,0.2,4.7,0.8c0.6,0.8,1,2.8,1.1,4.5h1.8c0-2.1-0.3-5.1-0.7-5.6
					C30.7,20.1,30.6,20,30.5,19.8"/>
				<path class="st1" d="M13.5,16.8c-0.1-0.3-0.1-0.6,0.1-0.9c0.1-0.1,0.3-0.2,0.3,0c0,0.1,0,0.1-0.1,0.2c0,0.1-0.1,0.2,0,0.3
					c0,0.2,0.1,0.4,0.2,0.5c0,0.1,0.1,0.1,0.1,0.2c0.1,0.1,0.1,0.1,0.2,0.1l0.1-0.2c-0.1,0-0.1-0.1-0.2-0.1l0,0c0,0-0.1-0.1-0.1-0.1
					l0,0c-0.1-0.2-0.1-0.3-0.1-0.4c0-0.1,0-0.1,0-0.2l0,0c0-0.1,0.1-0.1,0.1-0.3c0-0.2-0.2-0.3-0.2-0.3c-0.2-0.1-0.4,0.1-0.5,0.2
					c-0.3,0.3-0.3,0.8-0.1,1.2c0.1,0.3,0.4,0.4,0.7,0.5c0.1,0,0.2,0,0.2,0.1l0.1-0.2C13.9,17.1,13.6,17.1,13.5,16.8"/>
				<path class="st1" d="M17.6,16.2c-0.1-0.2-0.3-0.3-0.6-0.4c0.1,0,0.1,0,0.2,0C17.4,15.8,17.6,16,17.6,16.2
					c0.2,0.1,0.2,0.4,0.2,0.6c0,0.1,0,0.2-0.2,0.4l0-0.1C17.8,16.8,17.8,16.4,17.6,16.2 M18.5,15.4c-0.3-0.3-0.6-0.7-1.2-0.7l-0.1,0
					c-0.4,0-0.9,0.1-1.3,0.5c-0.3,0.4-0.5,0.8-0.5,1.2c0,0.3,0.1,0.6,0.3,0.9c0,0-0.1,0-0.1,0c-0.1,0-0.2,0-0.2-0.1l0-0.1l-0.1-0.1
					c-0.1-0.1-0.1-0.1-0.1-0.2c-0.1-0.3-0.1-0.6,0-0.8l0-0.1c0.1-0.1,0.2-0.2,0.2-0.3c0.1-0.1,0.1-0.3,0-0.4
					c-0.1-0.1-0.2-0.2-0.3-0.3c-0.1,0-0.1,0-0.2,0c-0.2,0-0.4,0.1-0.5,0.3l0,0c-0.1,0.1-0.2,0.2-0.3,0.4c-0.1,0.4-0.2,0.9,0,1.4
					c0,0.1,0.1,0.3,0.1,0.4l-0.1,0.1c-0.2,0.2-0.4,0.4-0.6,0.6c0,0.1-0.1,0.1-0.1,0.2c0,0.1-0.1,0.1-0.1,0.2
					c-0.1,0.2-0.3,0.4-0.4,0.5c-0.1,0.1-0.2,0.2-0.2,0.4c0,0.1,0,0.3,0.1,0.4c0.1,0.1,0.3,0.2,0.4,0.2c0.1,0,0.2,0,0.3-0.1
					c0.3-0.2,0.5-0.5,0.6-0.7c0-0.1,0.1-0.1,0.1-0.2c0-0.1,0.1-0.1,0.1-0.2c0.1-0.2,0.3-0.3,0.4-0.5c0.1-0.1,0.2-0.1,0.3-0.1l0.1,0
					l0,0c0.1,0,0.2,0.1,0.3,0.1c0.2,0.1,0.5,0.2,0.8,0.3c0.1,0,0.1,0,0.2,0c0.1,0,0.2,0,0.2,0c0,0,0.1,0,0.1,0c0.2,0,0.4,0,0.7-0.2
					c0,0,0.1,0,0.1-0.1c0.1,0,0.2-0.1,0.3-0.2c0.2-0.1,0.3-0.2,0.4-0.4l0,0c0.3-0.4,0.5-0.8,0.5-1.2C19,16.3,18.8,15.8,18.5,15.4"/>
				<path class="st2" d="M18.2,15.7c-0.2-0.3-0.5-0.6-1-0.6c-0.3,0-0.7,0.1-1,0.3c-0.2,0.3-0.4,0.6-0.4,0.9c0,0.4,0.2,1,0.7,1
					c0.3,0,0.6-0.2,0.7-0.5c0.1-0.2,0-0.4-0.1-0.5c-0.1-0.1-0.2-0.2-0.3-0.2c-0.1,0-0.1,0-0.1,0.1c0,0.1,0,0.1,0.1,0.1
					c0,0,0.1,0,0.1,0.1c0.1,0.1,0.1,0.2,0,0.3c-0.1,0.2-0.3,0.3-0.5,0.3c-0.3,0-0.5-0.5-0.5-0.8c0-0.3,0.1-0.5,0.3-0.8
					c0.2-0.2,0.5-0.2,0.8-0.3c0.3,0,0.5,0.3,0.8,0.5c0.2,0.2,0.3,0.6,0.3,0.9c0,0.3-0.1,0.5-0.3,0.7l0,0c-0.1,0.1-0.2,0.2-0.2,0.2
					c-0.1,0-0.1,0.1-0.2,0.1c-0.1,0-0.1,0.1-0.2,0.1C17.2,18,17.1,18,16.9,18c0,0-0.1,0-0.1,0c-0.1,0-0.2,0-0.3,0
					c-0.2,0-0.4-0.1-0.6-0.2c-0.1-0.1-0.2-0.1-0.4-0.1c-0.1,0-0.2,0-0.3-0.1c-0.1,0-0.2-0.1-0.2-0.2l0-0.1c-0.1-0.1-0.2-0.2-0.2-0.4
					c-0.1-0.4-0.1-0.8,0-1c0-0.1,0.1-0.1,0.1-0.2c0.1-0.1,0.1-0.1,0.2-0.2c0-0.1,0-0.1-0.1-0.2c-0.1,0-0.1,0-0.2,0.1
					c0,0.1-0.1,0.1-0.1,0.2c-0.1,0.1-0.1,0.1-0.2,0.3c-0.1,0.3-0.1,0.7,0,1.2c0,0.2,0.1,0.3,0.3,0.5l0,0.1l0.1,0.1
					c-0.2,0-0.3,0.1-0.4,0.2c-0.2,0.2-0.3,0.4-0.5,0.6c0,0.1-0.1,0.1-0.1,0.2c0,0.1-0.1,0.1-0.1,0.2c-0.2,0.2-0.3,0.4-0.5,0.5
					c-0.1,0-0.1,0.1,0,0.2c0,0,0.1,0,0.1,0l0.1,0c0.2-0.2,0.4-0.4,0.5-0.6c0-0.1,0.1-0.1,0.1-0.2c0-0.1,0.1-0.1,0.1-0.2
					c0.1-0.2,0.3-0.4,0.5-0.5c0.2-0.1,0.4-0.2,0.6-0.2l0,0l0,0l0,0c0.1,0,0.1,0,0.2,0c0.1,0,0.2,0.1,0.3,0.1
					c0.2,0.1,0.4,0.2,0.7,0.2c0.1,0,0.3,0,0.4,0c0,0,0.1,0,0.1,0c0.2,0,0.3,0,0.5-0.1c0.1,0,0.1-0.1,0.2-0.1c0.1,0,0.2-0.1,0.3-0.1
					c0.1-0.1,0.2-0.2,0.3-0.3l0,0c0.3-0.3,0.4-0.6,0.4-0.9C18.5,16.4,18.4,16,18.2,15.7"/>
				<path class="st2" d="M14.3,17.3c-0.2-0.1-0.4-0.1-0.6-0.2c-0.2-0.1-0.4-0.2-0.7-0.2c-0.2,0-0.5,0-0.6,0.2
					c-0.1,0.2,0,0.4,0.2,0.6c0.3,0.2,0.6,0.1,0.9,0c0.3-0.1,0.6-0.2,0.9-0.2"/>
				<path class="st1" d="M13.1,17.1c-0.1,0-0.2,0-0.3,0.1c0,0.1,0,0.2,0.1,0.3c0.2,0.1,0.3,0.1,0.5,0c0,0,0.1,0,0.1,0l0.1,0
					c0.1,0,0.3-0.1,0.4-0.1l0,0c-0.1,0-0.2,0-0.3-0.1C13.5,17.1,13.4,17.1,13.1,17.1C13.2,17.1,13.1,17.1,13.1,17.1 M13.2,17.8
					c-0.1,0-0.3,0-0.4-0.1c-0.2-0.2-0.3-0.4-0.3-0.7c0.1-0.3,0.5-0.3,0.7-0.3c0.3,0,0.5,0.1,0.6,0.2c0.1,0,0.2,0.1,0.3,0.1
					c0.1,0,0.2,0,0.3,0.1l-0.1,0.2c0,0,0.1,0,0.1,0v0.3c-0.2,0-0.4,0.1-0.6,0.1l-0.1,0c0,0-0.1,0-0.1,0
					C13.5,17.8,13.3,17.8,13.2,17.8"/>
				<path class="st2" d="M14.3,17.6c-0.4,0-0.9,0.1-1.3,0.3c-0.2,0.1-0.3,0.2-0.4,0.4c-0.1,0.1-0.1,0.5,0,0.6
					c0.2,0.1,0.7-0.4,0.8-0.6C13.7,18.2,14,17.8,14.3,17.6"/>
				<path class="st1" d="M13.8,17.7c-0.2,0-0.4,0.1-0.6,0.2c-0.1,0.1-0.2,0.2-0.3,0.3c0,0.1-0.1,0.2,0,0.3c0.1,0,0.2-0.1,0.5-0.4
					c0,0,0.1-0.1,0.1-0.1c0.1-0.1,0.1-0.1,0.2-0.2C13.7,17.8,13.8,17.8,13.8,17.7 M12.9,18.9c-0.1,0-0.1,0-0.2-0.1
					c-0.2-0.2-0.1-0.5-0.1-0.7c0.1-0.2,0.2-0.4,0.4-0.4c0.4-0.2,0.8-0.3,1.2-0.3v0.2l0.1,0.2c-0.2,0.1-0.3,0.2-0.5,0.4
					c-0.1,0.1-0.1,0.1-0.2,0.2l-0.1,0.1C13.4,18.7,13.1,18.9,12.9,18.9"/>
				<path class="st1" d="M32.4,16.4c0.1-0.3,0.1-0.6-0.1-0.9c-0.1-0.1-0.3-0.2-0.3,0c0,0.1,0,0.1,0.1,0.2c0.1,0.1,0.1,0.2,0.1,0.3
					c0,0.2-0.1,0.4-0.2,0.5c0,0.1-0.1,0.1-0.1,0.2c-0.1,0-0.1,0-0.2,0.1l-0.1-0.2c0.1,0,0.1-0.1,0.2-0.1l0,0c0,0,0.1-0.1,0.1-0.1
					l0,0c0.1-0.2,0.1-0.3,0.1-0.4c0-0.1,0-0.1,0-0.2l0,0c0-0.1-0.1-0.1-0.1-0.3c0-0.2,0.2-0.3,0.2-0.3c0.2-0.1,0.4,0.1,0.5,0.2
					c0.3,0.3,0.3,0.8,0.1,1.2c-0.1,0.3-0.4,0.4-0.7,0.5c-0.1,0-0.2,0-0.2,0.1l-0.1-0.2C31.9,16.7,32.3,16.6,32.4,16.4"/>
				<path class="st1" d="M28.1,16.7L28.1,16.7C28,16.5,28,16.4,28,16.3c0-0.2,0.1-0.5,0.2-0.6c0.1-0.1,0.3-0.4,0.4-0.4
					c0.1,0,0.1,0,0.2,0c-0.2,0-0.4,0.2-0.6,0.4C28.1,16,28.1,16.4,28.1,16.7 M26.9,16.3c0,0.4,0.2,0.8,0.5,1.2l0,0
					c0.1,0.1,0.2,0.2,0.4,0.4c0.1,0.1,0.2,0.1,0.3,0.2c0.1,0,0.1,0,0.1,0.1c0.3,0.1,0.5,0.1,0.7,0.2c0,0,0.1,0,0.1,0
					c0.1,0,0.2,0,0.3,0c0.1,0,0.1,0,0.2,0c0.3,0,0.6-0.2,0.8-0.3c0.1,0,0.2-0.1,0.3-0.1l0,0l0.1,0c0.1,0,0.2,0.1,0.3,0.1
					c0.1,0.1,0.3,0.3,0.4,0.5c0,0.1,0.1,0.1,0.1,0.2c0,0.1,0.1,0.1,0.1,0.2c0.2,0.2,0.4,0.5,0.6,0.7c0.1,0.1,0.2,0.1,0.3,0.1
					c0.2,0,0.3-0.1,0.4-0.2c0.1-0.1,0.1-0.3,0.1-0.4c0-0.1-0.1-0.3-0.2-0.4c-0.1-0.1-0.3-0.3-0.4-0.5c0-0.1-0.1-0.1-0.1-0.2
					c0-0.1-0.1-0.1-0.1-0.2c-0.2-0.2-0.3-0.4-0.6-0.6l-0.1-0.1c0.1-0.1,0.1-0.2,0.1-0.4c0.1-0.5,0.1-1,0-1.4
					c-0.1-0.2-0.2-0.3-0.3-0.4l0-0.1c-0.1-0.2-0.3-0.3-0.5-0.3c-0.1,0-0.2,0-0.2,0c-0.1,0.1-0.2,0.2-0.3,0.3c-0.1,0.1,0,0.3,0,0.4
					c0.1,0.2,0.2,0.3,0.2,0.3l0,0.1c0.1,0.2,0.1,0.5,0,0.8c0,0.1,0,0.1-0.1,0.2l-0.1,0.1l0,0.1c-0.1,0-0.2,0-0.2,0.1
					c0,0-0.1,0-0.1,0c0.2-0.3,0.3-0.6,0.3-0.9c0-0.5-0.1-0.9-0.5-1.2c-0.3-0.4-0.9-0.5-1.3-0.5l-0.1,0c-0.6,0-1,0.4-1.2,0.7
					C27,15.4,26.9,15.9,26.9,16.3"/>
				<path class="st2" d="M27.7,15.3c0.2-0.3,0.5-0.6,1-0.6c0.3,0,0.7,0.1,1,0.3c0.2,0.3,0.4,0.6,0.4,0.9c0,0.4-0.2,1-0.7,1
					c-0.3,0-0.6-0.2-0.7-0.5c-0.1-0.1,0-0.4,0.1-0.5c0.1-0.1,0.2-0.2,0.3-0.2c0.1,0,0.1,0,0.1,0.1c0,0.1,0,0.1-0.1,0.1
					c0,0-0.1,0-0.1,0.1c-0.1,0.1-0.1,0.2,0,0.3c0.1,0.2,0.3,0.3,0.5,0.3c0.3,0,0.5-0.5,0.5-0.8c0-0.3-0.1-0.5-0.3-0.8
					C29.2,15,28.9,15,28.6,15c-0.3,0-0.5,0.3-0.8,0.5c-0.2,0.2-0.3,0.6-0.3,0.9c0,0.3,0.1,0.5,0.3,0.7l0,0c0.1,0.1,0.1,0.2,0.2,0.2
					c0.1,0,0.1,0.1,0.2,0.1c0.1,0,0.1,0.1,0.2,0.1c0.1,0.1,0.2,0.1,0.4,0.1c0,0,0.1,0,0.1,0c0.1,0,0.2,0,0.3,0
					c0.2,0,0.4-0.1,0.6-0.2c0.1-0.1,0.2-0.1,0.4-0.2c0.1,0,0.2,0,0.3,0c0.1,0,0.2-0.1,0.2-0.2l0-0.1c0.1-0.1,0.2-0.2,0.2-0.4
					c0.1-0.4,0.1-0.8,0-1c0-0.1-0.1-0.1-0.1-0.2c-0.1-0.1-0.1-0.1-0.2-0.2c0-0.1,0-0.1,0.1-0.2c0.1,0,0.1,0,0.2,0.1
					c0,0.1,0.1,0.1,0.1,0.2c0.1,0.1,0.1,0.1,0.2,0.3c0.1,0.3,0.1,0.7,0,1.2c0,0.2-0.1,0.3-0.3,0.5l0,0.1L31,17.2
					c0.2,0,0.3,0.1,0.4,0.2c0.2,0.2,0.3,0.4,0.5,0.6c0,0.1,0.1,0.1,0.1,0.2c0,0.1,0.1,0.1,0.1,0.2c0.1,0.2,0.3,0.4,0.5,0.5
					c0.1,0,0.1,0.1,0,0.2c0,0-0.1,0.1-0.1,0.1l-0.1,0c-0.2-0.2-0.4-0.4-0.5-0.6c0-0.1-0.1-0.1-0.1-0.2c0-0.1-0.1-0.1-0.1-0.2
					c-0.1-0.2-0.3-0.4-0.5-0.5c-0.2-0.1-0.4-0.2-0.6-0.2l0,0l0,0l0,0c-0.1,0-0.1,0-0.2,0c-0.1,0-0.2,0.1-0.3,0.1
					c-0.2,0.1-0.4,0.2-0.7,0.2c-0.1,0-0.3,0-0.4,0c0,0-0.1,0-0.1,0c-0.2,0-0.3,0-0.5-0.1c-0.1,0-0.1-0.1-0.2-0.1
					c-0.1,0-0.2-0.1-0.3-0.1c-0.1-0.1-0.2-0.2-0.3-0.3l0,0c-0.3-0.3-0.4-0.6-0.4-0.9C27.3,16,27.4,15.6,27.7,15.3"/>
				<path class="st2" d="M31.6,16.8c0.2-0.1,0.4-0.1,0.6-0.2c0.2-0.1,0.4-0.2,0.7-0.2c0.2,0,0.5,0,0.6,0.2c0.1,0.2,0,0.4-0.2,0.6
					c-0.3,0.2-0.6,0.1-0.9,0c-0.3-0.1-0.6-0.2-0.9-0.2"/>
				<path class="st1" d="M32.8,16.6c0,0-0.1,0-0.1,0c-0.2,0-0.3,0-0.5,0.1c-0.1,0.1-0.2,0.1-0.3,0.1l0,0c0.1,0,0.3,0.1,0.4,0.1
					l0.1,0c0,0,0.1,0,0.1,0c0.2,0.1,0.4,0.1,0.5,0c0.1-0.1,0.2-0.2,0.1-0.3C33,16.7,32.9,16.6,32.8,16.6 M32.7,17.4
					c-0.1,0-0.3,0-0.4-0.1c0,0-0.1,0-0.1,0l-0.1,0c-0.2-0.1-0.5-0.1-0.6-0.1v-0.3c0,0,0.1,0,0.1,0l-0.1-0.2c0.1,0,0.2,0,0.3-0.1
					c0.1,0,0.2,0,0.3-0.1c0.2-0.1,0.4-0.2,0.6-0.2c0.2,0,0.6,0,0.7,0.3c0.1,0.2,0,0.5-0.3,0.7C32.9,17.4,32.8,17.4,32.7,17.4"/>
				<path class="st2" d="M31.6,17.2c0.4,0,0.9,0.1,1.3,0.3c0.2,0.1,0.3,0.2,0.4,0.4c0.1,0.1,0.1,0.5,0,0.6c-0.2,0.1-0.7-0.4-0.8-0.6
					C32.2,17.8,31.9,17.4,31.6,17.2"/>
				<path class="st1" d="M32,17.3c0.1,0.1,0.1,0.1,0.2,0.2c0.1,0.1,0.1,0.1,0.2,0.2c0,0,0,0,0.1,0.1c0.3,0.2,0.4,0.3,0.5,0.4
					c0-0.1,0-0.2,0-0.3c-0.1-0.1-0.1-0.2-0.3-0.3C32.4,17.4,32.2,17.4,32,17.3 M32.9,18.5c-0.2,0-0.4-0.2-0.7-0.5
					c0,0-0.1-0.1-0.1-0.1c-0.1-0.1-0.1-0.1-0.2-0.2c-0.2-0.2-0.3-0.3-0.5-0.4l0.1-0.2V17c0.4,0,0.8,0.1,1.2,0.3
					c0.2,0.1,0.3,0.2,0.4,0.4c0.1,0.2,0.2,0.5-0.1,0.7C33.1,18.4,33,18.5,32.9,18.5"/>
				<polygon class="st1" points="22.9,17.6 26.3,14.2 22.9,16.9 19.9,14.2 				"/>
				<rect x="30.2" y="26.3" class="st1" width="0.5" height="3.2"/>
				<rect x="16" y="26.2" class="st1" width="0.5" height="3.2"/>
				<polygon class="st1" points="14.9,29.7 31.6,29.7 30.2,31.4 16.5,31.4 				"/>
				<path class="st1" d="M20.8,18.3c-0.2,0-0.3-0.1-0.5-0.1c-0.2-0.1-0.5-0.2-0.6-0.1c0,0,0,0,0,0.1l-0.6,0c0-0.3,0.1-0.5,0.3-0.6
					c0.3-0.2,0.8-0.1,1.1,0c0.1,0,0.3,0.1,0.3,0.1c0.1,0,0.2-0.1,0.4-0.2c0.1-0.1,0.2-0.1,0.4-0.2c0.4-0.2,0.8-0.1,1,0
					c0.1,0,0.2,0.1,0.4,0.1c0.1,0,0.3,0.1,0.3,0.1h0c0.1,0,0.2,0,0.3-0.1c0.1-0.1,0.3-0.2,0.5-0.2c0.3,0,0.4,0,0.6,0.1
					c0.1,0,0.2,0.1,0.3,0.1c0.1,0,0.2,0,0.3-0.1c0.1-0.1,0.2-0.2,0.4-0.2c0.4-0.1,0.7,0,0.9,0.1c0.1,0,0.2,0.1,0.2,0.1
					c0,0,0.1,0.1,0.1,0.1l-0.1,0l0.4,0.5c-0.3,0.3-0.7,0-0.8-0.1c0,0-0.1-0.1-0.1-0.1c-0.2-0.1-0.3-0.1-0.4-0.1
					c-0.1,0-0.2,0.1-0.2,0.1c-0.2,0.1-0.4,0.3-0.8,0.2c-0.2,0-0.3-0.1-0.4-0.1c-0.1,0-0.2-0.1-0.3-0.1c-0.1,0-0.2,0.1-0.3,0.1
					c-0.1,0.1-0.3,0.2-0.5,0.2c-0.2,0-0.4-0.1-0.6-0.2c-0.1,0-0.2-0.1-0.3-0.1c-0.3-0.1-0.5-0.1-0.7,0c-0.1,0-0.2,0.1-0.2,0.1
					C21.3,18.2,21.1,18.3,20.8,18.3L20.8,18.3z"/>
				<path class="st4" d="M20.8,20.1c-0.2,0-0.3-0.1-0.5-0.1c-0.2,0-0.5-0.2-0.6-0.1c0,0,0,0,0,0.1L19,20c0-0.3,0.1-0.5,0.3-0.6
					c0.3-0.2,0.8-0.1,1.1,0c0.1,0,0.3,0.1,0.3,0.1c0.1,0,0.2-0.1,0.4-0.2c0.1-0.1,0.2-0.1,0.4-0.2c0.4-0.2,0.8-0.1,1,0
					c0.1,0,0.2,0.1,0.4,0.1c0.1,0,0.3,0.1,0.3,0.1h0c0.1,0,0.2,0,0.3-0.1c0.1-0.1,0.3-0.1,0.5-0.2c0.3,0,0.4,0,0.6,0.1
					c0.1,0,0.2,0.1,0.3,0.1c0.1,0,0.2,0,0.3-0.1c0.1-0.1,0.2-0.2,0.4-0.2c0.4-0.1,0.7,0,0.9,0.1c0.1,0,0.2,0.1,0.2,0.1
					c0,0,0.1,0.1,0.1,0.1l-0.1,0l0.4,0.5c-0.3,0.3-0.7,0-0.8-0.1c0,0-0.1-0.1-0.1-0.1c-0.2-0.1-0.3-0.1-0.4-0.1
					c-0.1,0-0.2,0.1-0.2,0.1c-0.2,0.1-0.4,0.3-0.8,0.2c-0.2,0-0.3-0.1-0.4-0.1c-0.1,0-0.2-0.1-0.3-0.1c-0.1,0-0.2,0.1-0.3,0.1
					c-0.1,0.1-0.3,0.2-0.5,0.2c-0.2,0-0.4-0.1-0.6-0.2c-0.1,0-0.2-0.1-0.3-0.1c-0.3-0.1-0.5-0.1-0.7,0c-0.1,0-0.2,0.1-0.2,0.1
					C21.3,20,21.1,20.1,20.8,20.1L20.8,20.1z"/>
				<path class="st1" d="M30.9,14.5c0,0.1-0.1,0.2-0.3,0.2H14c-0.1,0-0.3-0.1-0.3-0.2v-1.5c0-0.1,0.1-0.2,0.3-0.2h16.7
					c0.1,0,0.3,0.1,0.3,0.2V14.5z"/>
			</g>
		</g>
	</g>
</g>
</svg>
