<?xml version="1.0" encoding="utf-8"?>
<!-- Generator: Adobe Illustrator 21.0.0, SVG Export Plug-In . SVG Version: 6.00 Build 0)  -->
<svg version="1.1" id="Capa_16" xmlns="http://www.w3.org/2000/svg" xmlns:xlink="http://www.w3.org/1999/xlink" x="0px" y="0px"
	 viewBox="0 0 74.5 33.9" style="enable-background:new 0 0 74.5 33.9;" xml:space="preserve">
<style type="text/css">
	.st0{fill:#1F140F;}
	.st1{fill:#B3B2B8;}
	.st2{fill:#008375;}
	.st3{fill:#FFFFFF;}
	.st4{clip-path:url(#SVGID_2_);}
	.st5{fill:#FCFDFD;}
</style>
<g>
	<g>
		<g>
			<path class="st0" d="M38.8,12.9v0.9h-1.2v-3.3h1.7c0.9,0,1.3,0.4,1.3,1.1c0,0.8-0.6,1.3-1.5,1.3C39,12.9,38.9,12.9,38.8,12.9z
				 M38.8,12c0.1,0,0.1,0,0.2,0c0.3,0,0.4-0.1,0.4-0.3c0-0.2-0.2-0.3-0.4-0.3h-0.2V12z"/>
			<path class="st0" d="M40.9,10.4H42v3.4h-1.2V10.4z"/>
			<path class="st0" d="M45.3,13.7c-0.4,0.1-0.7,0.1-0.9,0.1c-0.3,0-0.5-0.1-0.5-0.3l0,0c-0.3,0.2-0.5,0.3-0.8,0.3
				c-0.4,0-0.8-0.3-0.8-0.7c0-0.3,0.2-0.5,0.6-0.6c0.3-0.1,0.8-0.2,1-0.2v0c0-0.1-0.1-0.2-0.3-0.2c-0.3,0-0.6,0.1-1,0.2l-0.2-0.7
				c0.4-0.2,1-0.3,1.3-0.3c0.5,0,1.3,0,1.3,1v0.6c0,0.1,0,0.1,0.1,0.1c0.1,0,0.1,0,0.1,0L45.3,13.7z M43.7,13.1c0,0,0.1,0,0.2-0.1
				v-0.3c-0.1,0-0.2,0.1-0.3,0.1c-0.1,0-0.1,0.1-0.1,0.1C43.5,13,43.6,13.1,43.7,13.1z"/>
			<path class="st0" d="M45.6,11.4h1l0.1,0.3l0,0c0.2-0.3,0.6-0.4,0.8-0.4c0.5,0,0.8,0.3,0.8,0.9v1.5h-1.2v-1.3
				c0-0.2-0.1-0.3-0.2-0.3c-0.1,0-0.2,0.1-0.3,0.2v1.3h-1.2V11.4z"/>
			<path class="st0" d="M48.5,11.4h0.4l0.2-0.7H50v0.7h0.7l-0.1,0.7h-0.7v0.5c0,0.2,0,0.3,0.2,0.3c0.1,0,0.3,0,0.4-0.1l0.2,0.9
				c-0.4,0.1-0.7,0.2-1.1,0.2c-0.6,0-0.9-0.3-0.9-1v-0.7h-0.4V11.4z"/>
			<path class="st0" d="M53.6,13.6c-0.4,0.1-0.8,0.2-1.2,0.2c-0.6,0-1.4-0.2-1.4-1.2c0-1.1,0.8-1.3,1.4-1.3c0.6,0,1.3,0.2,1.3,1.1
				c0,0.1,0,0.2,0,0.2h-1.5v0c0,0.1,0.1,0.3,0.4,0.3c0.2,0,0.5,0,0.9-0.1L53.6,13.6z M52.6,12.3c0-0.2-0.1-0.3-0.2-0.3
				c-0.1,0-0.2,0.1-0.2,0.3H52.6z"/>
			<path class="st0" d="M53.9,10.4h1.2v3.4h-1.2V10.4z"/>
			<path class="st0" d="M56.7,13.1c0.8-0.4,1.4-0.9,1.4-1.3c0-0.1,0-0.2-0.3-0.2c-0.3,0-0.6,0.1-0.8,0.2l-0.4-0.8
				c0.3-0.2,0.8-0.4,1.4-0.4c0.6,0,1.3,0.2,1.3,1c0,0.6-0.4,0.9-0.7,1.2l0,0h0.8v0.9h-2.7L56.7,13.1z"/>
			<path class="st0" d="M59.9,12.2c0-1.1,0.5-1.6,1.4-1.6c0.9,0,1.4,0.5,1.4,1.6c0,1.3-0.5,1.7-1.4,1.7
				C60.5,13.8,59.9,13.4,59.9,12.2z M61.6,12.1c0-0.5-0.1-0.7-0.2-0.7c-0.2,0-0.3,0.2-0.3,0.7c0,0.5,0.1,0.8,0.3,0.8
				C61.5,13,61.6,12.7,61.6,12.1z"/>
		</g>
		<g>
			<path class="st0" d="M37.6,16.1h1.8c1.2,0,1.9,0.6,1.9,1.8c0,1.3-0.8,1.8-1.9,1.8h-1.8V16.1z M38.9,18.7h0.2
				c0.4,0,0.6-0.2,0.6-0.9c0-0.7-0.3-0.8-0.6-0.8h-0.2V18.7z"/>
			<path class="st0" d="M44.4,19.6c-0.4,0.2-0.9,0.2-1.3,0.2c-0.7,0-1.6-0.3-1.6-1.4c0-1.2,0.9-1.4,1.6-1.4c0.7,0,1.4,0.3,1.4,1.3
				c0,0.1,0,0.2,0,0.3h-1.7v0c0,0.1,0.1,0.3,0.5,0.3c0.2,0,0.6,0,1-0.2L44.4,19.6z M43.3,18.1c0-0.2-0.1-0.3-0.2-0.3
				c-0.1,0-0.2,0.1-0.3,0.3H43.3z"/>
			<path class="st0" d="M44.8,16h1.3v3.7h-1.3V16z"/>
			<path class="st0" d="M48.9,19.7c-0.2-0.4-1-2.5-1.4-3.6H49c0.2,0.6,0.4,1.4,0.7,2.2h0c0.3-0.8,0.5-1.6,0.7-2.2h1.4
				c-0.3,1.1-1.2,3.2-1.4,3.6H48.9z"/>
			<path class="st0" d="M55,19.6c-0.4,0.1-0.7,0.2-1,0.2c-0.4,0-0.5-0.1-0.6-0.4l0,0c-0.3,0.3-0.6,0.4-0.9,0.4
				c-0.4,0-0.9-0.3-0.9-0.8c0-0.4,0.2-0.5,0.6-0.6c0.3-0.1,0.9-0.2,1.1-0.2v0c0-0.1-0.1-0.2-0.3-0.2c-0.3,0-0.7,0.1-1.1,0.2
				l-0.2-0.7c0.5-0.2,1.1-0.4,1.4-0.4c0.5,0,1.5,0.1,1.5,1.1v0.7c0,0.1,0,0.1,0.1,0.1c0.1,0,0.1,0,0.1,0L55,19.6z M53.2,19
				c0.1,0,0.1,0,0.2-0.1v-0.3c-0.1,0-0.2,0.1-0.3,0.1c-0.1,0-0.1,0.1-0.1,0.1C53,18.9,53.1,19,53.2,19z"/>
			<path class="st0" d="M55.3,16h1.3v3.7h-1.3V16z"/>
			<path class="st0" d="M57,16h1.3v3.7H57V16z"/>
			<path class="st0" d="M61.6,19.6c-0.4,0.2-0.9,0.2-1.3,0.2c-0.7,0-1.6-0.3-1.6-1.4c0-1.2,0.9-1.4,1.6-1.4c0.7,0,1.4,0.3,1.4,1.3
				c0,0.1,0,0.2,0,0.3H60v0c0,0.1,0.1,0.3,0.5,0.3c0.2,0,0.6,0,1-0.2L61.6,19.6z M60.5,18.1c0-0.2-0.1-0.3-0.2-0.3
				c-0.1,0-0.2,0.1-0.3,0.3H60.5z"/>
		</g>
		<g>
			<path class="st0" d="M38.2,22.5c-0.1,0.2-0.2,0.3-0.2,0.5c0,0.1,0.1,0.3,0.2,0.4l-0.4,0.1c-0.1-0.1-0.2-0.3-0.2-0.4
				c0-0.2,0.1-0.4,0.3-0.6L38.2,22.5z M39,22.5c-0.1,0.1-0.2,0.3-0.2,0.4c0,0.1,0.1,0.3,0.2,0.4l-0.4,0.1c-0.1-0.1-0.2-0.3-0.2-0.4
				c0-0.2,0.1-0.4,0.3-0.6L39,22.5z"/>
			<path class="st0" d="M43,25.6h-0.5l-0.1-2.2h0c-0.3,0.7-0.8,1.8-0.9,2l-0.3,0c-0.2-0.4-0.5-1.2-1-2h0L40,25.6h-0.5l0.1-3.1h0.6
				c0.5,0.9,0.9,1.9,1,2.1h0c0.2-0.3,0.6-1.3,0.9-2.1h0.6L43,25.6z"/>
			<path class="st0" d="M45.6,25.5c-0.2,0.1-0.3,0.1-0.4,0.1c-0.2,0-0.3-0.1-0.4-0.3l0,0c-0.2,0.2-0.4,0.3-0.7,0.3
				c-0.4,0-0.7-0.3-0.7-0.7c0-0.3,0.2-0.4,0.5-0.5c0.3-0.1,0.7-0.1,0.9-0.2v-0.1c0-0.3-0.1-0.4-0.4-0.4c-0.2,0-0.5,0.1-0.7,0.2
				l-0.1-0.3c0.3-0.2,0.6-0.3,0.9-0.3c0.5,0,0.9,0.1,0.9,0.8v1c0,0.1,0,0.2,0.1,0.2c0.1,0,0.1,0,0.1,0L45.6,25.5z M44.3,25.3
				c0.2,0,0.4-0.1,0.5-0.3v-0.5c-0.2,0-0.5,0.1-0.6,0.2c-0.1,0-0.3,0.1-0.3,0.3C43.9,25.1,44.1,25.3,44.3,25.3z"/>
			<path class="st0" d="M45.8,23.3h0.4l0.1-0.6h0.4v0.6h0.7l0,0.4h-0.7v1.2c0,0.2,0.1,0.3,0.3,0.3c0.1,0,0.3,0,0.4-0.1l0.1,0.4
				c-0.2,0.1-0.5,0.1-0.7,0.1c-0.5,0-0.6-0.2-0.6-0.7v-1.2h-0.4V23.3z"/>
			<path class="st0" d="M47.9,23.3h0.5v2.3h-0.5V23.3z M47.9,22.9l0.5-1l0.4,0.2L48.1,23L47.9,22.9z"/>
			<path class="st0" d="M51.1,25.5c-0.2,0.1-0.3,0.1-0.4,0.1c-0.2,0-0.3-0.1-0.4-0.3l0,0c-0.2,0.2-0.4,0.3-0.7,0.3
				c-0.4,0-0.7-0.3-0.7-0.7c0-0.3,0.2-0.4,0.5-0.5c0.3-0.1,0.7-0.1,0.9-0.2v-0.1c0-0.3-0.1-0.4-0.4-0.4c-0.2,0-0.5,0.1-0.7,0.2
				L49,23.5c0.3-0.2,0.6-0.3,0.9-0.3c0.5,0,0.9,0.1,0.9,0.8v1c0,0.1,0,0.2,0.1,0.2c0.1,0,0.1,0,0.1,0L51.1,25.5z M49.8,25.3
				c0.2,0,0.4-0.1,0.5-0.3v-0.5c-0.2,0-0.5,0.1-0.6,0.2c-0.1,0-0.3,0.1-0.3,0.3C49.4,25.1,49.6,25.3,49.8,25.3z"/>
			<path class="st0" d="M52.2,25.6c-0.3,0-0.6-0.1-0.8-0.2l0.1-0.4c0.2,0.1,0.5,0.2,0.7,0.2c0.2,0,0.4-0.1,0.4-0.3
				c0-0.4-1.2-0.2-1.2-1c0-0.4,0.4-0.7,0.9-0.7c0.3,0,0.6,0.1,0.7,0.1L53,23.8c-0.2-0.1-0.4-0.1-0.6-0.1c-0.2,0-0.4,0.1-0.4,0.3
				c0,0.4,1.2,0.2,1.2,1C53.1,25.4,52.7,25.6,52.2,25.6z"/>
			<path class="st0" d="M57.1,25.6c-0.1,0-0.2,0-0.3,0c-0.2,0-0.3,0-0.4-0.2c-0.1-0.2-0.5-0.7-0.7-1.1h-0.4v1.2h-0.6v-3.1h1
				c0.7,0,1.1,0.3,1.1,0.9c0,0.4-0.2,0.7-0.5,0.8c0.1,0.2,0.3,0.6,0.6,0.9c0.1,0.1,0.2,0.1,0.3,0.1h0V25.6z M55.3,23.9h0.3
				c0.4,0,0.7-0.1,0.7-0.5c0-0.4-0.2-0.5-0.6-0.5h-0.3V23.9z"/>
			<path class="st0" d="M57.3,24.5c0-0.8,0.4-1.2,1.1-1.2c0.7,0,1.1,0.4,1.1,1.2c0,0.8-0.5,1.2-1.1,1.2
				C57.8,25.6,57.3,25.3,57.3,24.5z M59,24.5c0-0.6-0.2-0.8-0.6-0.8c-0.3,0-0.6,0.2-0.6,0.8c0,0.5,0.2,0.8,0.6,0.8
				C58.8,25.2,59,25,59,24.5z"/>
			<path class="st0" d="M60,23.3h0.4l0.1,0.3l0,0c0.3-0.2,0.5-0.3,0.7-0.3c0.3,0,0.5,0.1,0.6,0.4h0c0.3-0.3,0.5-0.4,0.8-0.4
				c0.5,0,0.7,0.3,0.7,0.9v1.4h-0.5v-1.4c0-0.3-0.1-0.5-0.4-0.5c-0.2,0-0.4,0.1-0.5,0.3v1.6h-0.5v-1.4c0-0.3-0.1-0.5-0.4-0.5
				c-0.2,0-0.4,0.1-0.6,0.3v1.6H60V23.3z"/>
			<path class="st0" d="M65.9,25.5c-0.2,0.1-0.5,0.2-0.8,0.2c-0.6,0-1.2-0.3-1.2-1.1c0-0.9,0.5-1.2,1.1-1.2c0.6,0,1,0.4,1,1
				c0,0.1,0,0.1,0,0.2h-1.5v0.1c0,0.5,0.3,0.7,0.7,0.7c0.2,0,0.5-0.1,0.7-0.1L65.9,25.5z M65.5,24.2c0-0.4-0.2-0.5-0.5-0.5
				c-0.3,0-0.5,0.2-0.5,0.5H65.5z"/>
			<path class="st0" d="M66.4,25.6v-2.3h0.4l0.1,0.3h0c0.2-0.2,0.4-0.4,0.6-0.4c0.1,0,0.2,0,0.3,0.1l-0.1,0.4
				c-0.1,0-0.1-0.1-0.2-0.1c-0.2,0-0.4,0.2-0.6,0.3v1.4H66.4z"/>
			<path class="st0" d="M68.1,24.5c0-0.8,0.4-1.2,1.1-1.2c0.7,0,1.1,0.4,1.1,1.2c0,0.8-0.5,1.2-1.1,1.2
				C68.5,25.6,68.1,25.3,68.1,24.5z M69.7,24.5c0-0.6-0.2-0.8-0.6-0.8c-0.3,0-0.6,0.2-0.6,0.8c0,0.5,0.2,0.8,0.6,0.8
				C69.5,25.2,69.7,25,69.7,24.5z"/>
			<path class="st0" d="M70.7,23.3c0.1-0.1,0.2-0.3,0.2-0.4c0-0.1-0.1-0.3-0.2-0.4l0.4-0.1c0.1,0.1,0.2,0.3,0.2,0.4
				c0,0.2-0.1,0.4-0.3,0.6L70.7,23.3z M71.5,23.4c0.1-0.2,0.2-0.3,0.2-0.5c0-0.1-0.1-0.3-0.2-0.4l0.4-0.1c0.1,0.1,0.2,0.3,0.2,0.4
				c0,0.2-0.1,0.4-0.3,0.6L71.5,23.4z"/>
		</g>
	</g>
	<g>
		<g>
			<path class="st1" d="M33.4,10.6l-5.3-4.3L27,13l1.4-0.5c0.5,1.4,0.8,2.9,0.8,4.5c0,6.9-5.7,12.6-12.6,12.6
				C9.6,29.6,4,23.9,4,16.9C4,10,9.6,4.3,16.6,4.3c3.1,0,6.1,1.1,8.4,3.2l2.6-2.9c-3-2.7-6.9-4.2-11-4.2C7.5,0.4,0.1,7.8,0.1,16.9
				c0,9.1,7.4,16.5,16.5,16.5c9.1,0,16.5-7.4,16.5-16.5c0-2-0.4-4-1.1-5.9L33.4,10.6z"/>
			<path class="st2" d="M29.7,15c-1.1,0-2,0.9-2,2c0,6.2-5,11.2-11.2,11.2c-6.2,0-11.2-5-11.2-11.2c0-6.2,5-11.2,11.2-11.2
				c2.2,0,4.2,0.6,6,1.8l2.1-3.3c-2.4-1.5-5.2-2.4-8.1-2.4C8.3,1.9,1.5,8.7,1.5,17C1.5,25.3,8.3,32,16.6,32
				c8.3,0,15.1-6.8,15.1-15.1C31.7,15.9,30.8,15,29.7,15z"/>
			<circle class="st3" cx="16.6" cy="16.9" r="10.5"/>
		</g>
		<g>
			<defs>
				<circle id="SVGID_1_" cx="16.6" cy="17" r="10.5"/>
			</defs>
			<clipPath id="SVGID_2_">
				<use xlink:href="#SVGID_1_"  style="overflow:visible;"/>
			</clipPath>
			<g class="st4">
				<path class="st2" d="M25.9,25.6c-0.1-0.7-0.1-1.3-0.2-1.6c-0.1-0.2-0.2-0.4-0.2-0.6c-0.1-0.2-0.1-0.3-0.2-0.5
					c0-0.4-0.1-0.6-0.3-1c0-0.1-0.2-0.3-0.3-0.5c-0.1-0.1-0.1-0.2-0.2-0.3c-0.1-0.1-0.1-0.2-0.2-0.2c-0.1-0.1-0.2-0.2-0.3-0.2
					c-0.2-0.1-0.3-0.1-0.4-0.1c-0.1,0-0.2,0-0.3-0.1c-0.3-0.2-0.6-0.4-1.1-0.6c-0.2-0.1-0.4-0.2-0.7-0.4c-0.3-0.2-0.6-0.3-0.8-0.4
					c-0.1,0-0.2-0.1-0.4-0.1c-0.1,0-0.3,0-0.3,0.1c-0.1,0-0.1,0.1-0.1,0.1c-0.1,0.1-0.1,0.2-0.3,0.2c-0.2,0.1-0.4,0.1-0.7,0.3
					c-0.1,0.1-0.2,0.1-0.3,0.2c-0.1,0.1-0.2,0.2-0.2,0.3c-0.1,0.4-0.3,0.7-0.5,1.1c-0.3,1-0.6,1.9-1,2.8c0,0,0,0,0,0
					c-0.1-0.1-0.2-0.2-0.3-0.3h0c0,0,0-0.1,0-0.1c0-0.1,0-0.2-0.1-0.3c-0.1-0.1-0.1-0.2-0.2-0.3c-0.1-0.1-0.1-0.1-0.1-0.2
					c-0.2-0.4-0.4-0.9-0.6-1.4c-0.2-0.5-0.3-0.8-0.3-0.8L15,20.1c0,0,0-0.1-0.1-0.3c0-0.1-0.1-0.2-0.1-0.2c0,0,0-0.1-0.1-0.1
					c0,0-0.1-0.1-0.2-0.1l-0.1,0l-0.3,0c0-0.2,0.1-0.5,0.1-0.8c0-0.2,0-0.3-0.1-0.5c-0.1-0.1-0.2-0.2-0.3-0.3l0-0.2l0-0.5l-0.8,0.5
					l0,0.1c0,0.2-0.3,0.4-0.5,0.7c-0.3,0.2-0.6,0.4-0.8,0.5c-0.8,0.3-1.8,0.5-2.6,0.8c-0.1,0.1-0.2,0.1-0.4,0.1
					c-0.1,0-0.2,0.1-0.3,0.1c0,0-0.1,0.1-0.1,0.1L8,19.6L8,19.9c0,0,0,0-0.1,0c-0.1,0-0.2,0-0.3,0.1c-0.1,0-0.2,0.1-0.2,0.2l0,0l0,0
					c0,0-0.1,0.2-0.3,0.4c-0.2,0.4-0.6,0.9-0.9,1.4c-0.2,0.2-0.3,0.4-0.4,0.6c-0.1,0.1-0.1,0.2-0.1,0.2c0,0.1-0.1,0.1-0.1,0.1
					c0,0,0,0.1-0.1,0.1c-0.1,0.2,3.5,5,3.5,4.8c0,0.2,8.4,4.9,8.4,4.9C20.1,32,25.9,25.9,25.9,25.6z"/>
				<path class="st2" d="M12.8,13.6l-0.4-0.3c0,0-0.8-1.1-0.4-2.1c0.4-1,0.9-2,2.3-2.8c1.4-0.8,2.1,0.1,2.7,0.2c0,0,1.5,0.5,1.6,0.5
					c0.1-0.1,1.5,1,1.5,2.3L19.3,15l0.5,0.4v0.4c0,0-0.4,0.8-0.3,1c0.1,0.2,0.2,0.4,0,0.6c-0.2,0.1-0.5,0.6-0.3,0.8
					c0.2,0.2,0.7,0.8,0.6,0.9c-0.1,0.1-0.9,0.8-0.9,0.8l-0.7,0.6h-1L14.9,20l-0.6-0.7l0-0.7l0.5-0.2l-0.3-0.5L13.3,17l-0.2-1.7
					l-0.8-0.4c0,0-0.6-0.2-0.6-0.9c0,0-0.1-0.7,0.3-0.6C12.5,13.4,12.8,13.6,12.8,13.6"/>
				<path class="st2" d="M12.8,13.6l0.2-0.2l-0.4-0.3l-0.2,0.2l0.3-0.1l0,0c0-0.1-0.5-0.7-0.5-1.4c0-0.2,0-0.3,0.1-0.5
					c0.4-1,0.9-1.9,2.2-2.6c0.4-0.2,0.7-0.3,0.9-0.3c0.3,0,0.5,0.1,0.8,0.2c0.3,0.1,0.5,0.3,0.8,0.3l0-0.3l-0.1,0.2
					c0,0,0.3,0.1,0.7,0.2c0.2,0.1,0.4,0.1,0.5,0.2c0.1,0,0.2,0,0.2,0.1c0.1,0,0.1,0,0.2,0c0,0,0.1,0,0.2,0l0,0l0,0l-0.1-0.2v0.2
					c0,0,0.1,0,0.1,0l-0.1-0.2v0.2V9.2l-0.1,0.1c0,0,0,0,0.1,0V9.2l-0.1,0.1c0,0,0,0,0.1,0.1c0.2,0.1,0.5,0.4,0.7,0.8
					c0.3,0.4,0.5,0.8,0.5,1.3h0.3l-0.3,0L19,15.1l0.6,0.5v0.3h0.3l-0.3-0.1c0,0-0.1,0.1-0.2,0.3c0,0.1-0.1,0.2-0.1,0.3
					c0,0.1-0.1,0.2-0.1,0.3c0,0.1,0,0.2,0.1,0.3c0.1,0.1,0.1,0.2,0.1,0.2l0,0h0l0,0l0,0h0l0,0l0,0c-0.1,0.1-0.3,0.2-0.3,0.3
					c-0.1,0.1-0.2,0.3-0.2,0.5c0,0.1,0,0.2,0.1,0.3c0.1,0.1,0.2,0.3,0.4,0.4c0.1,0.1,0.1,0.2,0.2,0.2l0,0.1l0,0l0,0l0.1,0h-0.1l0,0
					l0.1,0h-0.1h0.2l-0.2-0.1c0,0,0,0.1,0,0.1h0.2l-0.2-0.1l0.1,0.1l-0.1-0.1l0,0l0.1,0.1l-0.1-0.1l-0.1,0c-0.1,0.1-0.3,0.3-0.5,0.4
					c-0.2,0.1-0.3,0.3-0.3,0.3l0,0l-0.6,0.5h-0.9l-2.2-0.3l-0.5-0.6l0-0.4l0.3-0.1l0.3-0.1l-0.4-0.8l-1.1-0.9l-0.2-1.8l-0.9-0.5l0,0
					l0,0.1l0-0.1h0l0,0.1l0-0.1c0,0-0.1,0-0.2-0.1c-0.1-0.1-0.2-0.2-0.2-0.5l0-0.1l0,0l0,0l0,0l0-0.1c0-0.1,0-0.2,0-0.2l0,0l0,0
					l-0.1,0l0,0.1l0,0l-0.1,0l0,0.1l0-0.1v0.1l0,0l0-0.1v0.1v-0.1l0,0.1h0v-0.1l0,0.1v0v0l0,0v0v0h0h0c0.2,0,0.3,0.1,0.4,0.1
					c0,0,0.1,0,0.1,0.1l0,0l0,0l0.1-0.1l-0.1,0.1h0l0.1-0.1l-0.1,0.1l0.4-0.4L12.8,13.6l0.2-0.2c0,0-0.3-0.2-0.7-0.3h0
					c-0.1,0-0.1,0-0.1,0c-0.1,0-0.3,0.1-0.4,0.1c-0.1,0.1-0.1,0.2-0.2,0.3c0,0.1,0,0.2,0,0.3c0,0.1,0,0.1,0,0.1l0.3,0l-0.3,0
					c0,0,0,0.1,0,0.1c0,0.4,0.2,0.7,0.4,0.8c0.2,0.2,0.4,0.2,0.4,0.2l0.1-0.2L12.2,15l0.6,0.4l0.2,1.7l1.2,0.9l0.1,0.2l-0.3,0.1
					L14,18.5l0,0.9l0.7,0.9l2.5,0.4h1.2l0.7-0.6l-0.2-0.2l0.2,0.2c0,0,0.2-0.2,0.5-0.3c0.1-0.1,0.2-0.2,0.3-0.3c0,0,0.1-0.1,0.1-0.1
					l0,0l0-0.1c0-0.1,0.1-0.1,0.1-0.2c0-0.1,0-0.1,0-0.2c-0.1-0.1-0.2-0.3-0.3-0.4c-0.1-0.2-0.3-0.3-0.3-0.4l0,0l0.1,0l0,0l0,0
					l0.1,0l0,0l0,0c0,0,0-0.1,0.1-0.2c0.1-0.1,0.1-0.2,0.2-0.2c0.1-0.1,0.2-0.1,0.2-0.2c0-0.1,0.1-0.2,0.1-0.2
					c0-0.2-0.1-0.3-0.2-0.5l-0.1,0.1l0.1,0l0,0l-0.1,0.1l0.1,0h0h0l0,0h0h0v0c0,0,0-0.1,0-0.2c0-0.1,0.1-0.3,0.2-0.4
					c0-0.1,0.1-0.1,0.1-0.1c0,0,0,0,0,0l0-0.1v-0.6l-0.5-0.4l0.8-3.5v0c0-0.7-0.4-1.4-0.7-1.8c-0.2-0.2-0.4-0.4-0.6-0.5
					C19.1,9,19,8.9,18.9,8.9c0,0-0.1,0-0.1-0.1c0,0-0.1,0-0.2,0c0,0-0.1,0-0.1,0l0.1,0.2l-0.1-0.2L18.6,9V8.8c0,0,0,0-0.1,0L18.6,9
					V8.8v0l0,0h0v0l0,0c0,0,0,0-0.1,0c-0.2,0-0.5-0.2-0.8-0.3c-0.1,0-0.3-0.1-0.4-0.1c-0.1,0-0.2-0.1-0.2-0.1l0,0l0,0
					c-0.1,0-0.4-0.1-0.6-0.3c-0.3-0.1-0.6-0.3-1.1-0.3c-0.4,0-0.8,0.1-1.2,0.4C12.6,9,12,10,11.6,11.1c-0.1,0.2-0.1,0.4-0.1,0.6
					c0,0.9,0.5,1.7,0.5,1.7l0,0l0.5,0.4l0.4-0.4L12.8,13.6z"/>
				<path class="st5" d="M11.8,19.3l1.5,0.2v-0.5l0.3,0.7v0.5h0.4c0,0,1.4,2.5,1.6,4.8c0,0,0.8,4,0.7,4.5c-0.1,0.5,0,0.1,0,0.1v0.4
					c0,0-1.4-3.1-3.3-4.6c0,0-2.2-2.9-2.1-3c0.1-0.1,1.7-0.7,1.7-0.7l-1.4-0.1L11.8,19.3z"/>
				<path class="st3" d="M18.1,16.6c0,0.1-0.1,0.2-0.3,0.2H17c-0.1,0-0.2-0.1-0.2-0.2c0-0.1,0.1-0.2,0.2-0.2h0.8
					C17.9,16.4,18.1,16.4,18.1,16.6"/>
				<path class="st3" d="M13.6,13.1c0-1,0-0.8,0-0.8s-0.4-0.6,0-1.4c0.4-0.7,2.6-1.8,3.6-0.9c0,0,0.9-0.4,1.7-0.1
					c0.7,0.4,1,1.7,1,2.6c0,0.9-0.4,3.4-0.6,3.8c-0.2,0.4-1.1-0.9-1.1-0.9l0.1-0.3l-0.4,0.1c0,0-0.5-0.1-0.8,0l-0.3,0l0.3,0.3
					l-1,0.3l-0.8,0.7L14.3,16c0,0-1-0.2-1-2.3C13.3,13.3,13.5,13.3,13.6,13.1"/>
				<path class="st2" d="M14.6,13.2c0.1-0.1,0.2,0,0.3,0c0.1,0,0.3,0,0.5,0c0.1,0,0.2,0,0.4,0c0.1,0,0.2,0,0.3,0v0.1
					c-0.3,0-0.5,0.1-0.8,0.1c-0.3,0.1-0.4,0.2-0.7,0.2c0.1,0.1,0.2,0.1,0.3,0.1c0.1,0,0.2-0.1,0.2,0c0,0,0,0.1,0.1,0.1
					c0.1,0,0.1,0,0.1-0.1c0.1-0.1,0-0.2,0.1-0.2c0.1,0,0.2-0.1,0.3,0c0.1,0.1,0,0.1,0.1,0.2c0.1,0,0.1,0,0.2-0.1
					c0.1-0.1,0.1,0,0.2,0c0,0,0.1,0,0.1,0c0-0.1,0-0.2,0.1-0.3c0.1,0,0.1,0,0.1,0c0.1,0,0.1,0,0.1-0.1c0.1,0,0.3,0,0.3,0
					c0.1-0.1-0.1-0.1-0.1-0.2c-0.1,0-0.1-0.1-0.2-0.2c-0.1-0.1-0.2-0.1-0.3-0.1c-0.1,0-0.2,0-0.3,0.1c-0.1,0-0.3,0-0.4,0
					c-0.3,0-0.5-0.1-0.8-0.1c-0.3,0-0.6,0.1-0.8,0.2c0.2,0,0.3,0.1,0.5,0.1"/>
				<path class="st2" d="M17.8,13.5c0-0.1,0.1-0.3,0.1-0.3c0.1-0.1,0.2-0.1,0.3-0.2c0.2-0.1,0.4-0.2,0.7-0.1c0.1,0,0.2,0,0.3,0
					c0.1,0,0.2,0,0.3,0c0.1,0,0.1,0,0.1,0.2c0,0.1,0,0.2-0.1,0.2c0,0-0.2,0-0.2,0c-0.1,0-0.1-0.1-0.2-0.1c-0.1,0-0.1,0-0.2,0.1
					c-0.1,0-0.2,0-0.2,0c0.1,0.2,0.5,0,0.6,0.2c0.1,0.2-0.2,0.2-0.2,0.4c-0.2,0-0.1-0.1-0.2-0.1c-0.1,0-0.2,0-0.2,0
					c-0.1,0-0.2-0.1-0.1-0.2c0-0.1,0.1,0,0.2,0c0.1-0.1-0.2-0.1-0.2-0.1c-0.1,0-0.2,0-0.3,0.1c-0.1,0.1-0.1,0-0.2,0
					C17.9,13.5,17.9,13.6,17.8,13.5c0,0.2,0.1,0.3,0.2,0.5"/>
				<path class="st3" d="M14.5,19.8l2.8,4.9l1.3-3.9V20v-0.2c-0.2-0.3-0.3,0.2-0.5,0.4c-0.2,0.2-0.3-0.1-0.6,0
					c-0.3,0.1-0.2-0.1-0.4,0c-0.2,0.1-0.3,0-0.3,0s-0.4-0.4-0.7-0.1c-0.3,0.3-0.6,0.1-1.1-0.2C15,19.8,14.5,19.5,14.5,19.8"/>
				<path class="st3" d="M14.5,19.8L14.5,19.8l2.8,5.1l1.4-4.1V20v-0.2v0l0,0c0-0.1-0.1-0.1-0.2-0.1c-0.1,0-0.1,0-0.1,0.1
					c-0.1,0.1-0.1,0.1-0.1,0.2c0,0.1-0.1,0.1-0.1,0.2c0,0,0,0-0.1,0c0,0-0.1,0-0.1,0c-0.1,0-0.1,0-0.2,0c0,0-0.1,0-0.1,0
					c0,0-0.1,0-0.1,0c0,0-0.1,0-0.1,0l0,0l-0.1,0c0,0-0.1,0-0.1,0c0,0-0.1,0-0.1,0c0,0-0.1,0-0.1,0l0,0l0,0l0,0l0,0.1l0.1,0
					c0,0-0.1-0.1-0.2-0.1c-0.1-0.1-0.2-0.1-0.4-0.1c-0.1,0-0.2,0-0.3,0.1C15.9,20,15.8,20,15.7,20c-0.2,0-0.4-0.1-0.7-0.3l0,0.1l0,0
					c0,0,0,0-0.1-0.1c-0.1,0-0.2-0.1-0.3-0.1c0,0-0.1,0-0.1,0.1C14.5,19.7,14.4,19.7,14.5,19.8L14.5,19.8L14.5,19.8L14.5,19.8
					L14.5,19.8c0.1,0,0.1-0.1,0.1-0.1l0,0c0,0,0.1,0,0.2,0.1l0.1,0l0,0l0,0l0,0c0.3,0.2,0.6,0.3,0.8,0.3c0.1,0,0.3-0.1,0.4-0.2
					c0.1-0.1,0.1-0.1,0.2-0.1c0.1,0,0.2,0.1,0.3,0.1c0,0,0.1,0.1,0.1,0.1l0,0l0,0l0,0c0,0,0.1,0.1,0.2,0.1c0.1,0,0.1,0,0.2-0.1l0,0
					v0l0,0h0v0l0,0c0,0,0,0,0.1,0c0,0,0.1,0,0.2,0c0,0,0.1,0,0.1,0l0.1,0c0.1,0,0.1,0,0.2,0c0.1,0,0.1,0,0.2,0c0.1,0,0.1,0,0.2-0.1
					c0.1-0.1,0.1-0.2,0.2-0.3c0,0,0.1-0.1,0.1-0.1l0,0h0l0,0v0h0l0,0v0l0,0l0,0l0.1,0h-0.1V20v0.7l-1.3,3.8L14.5,19.8L14.5,19.8
					L14.5,19.8L14.5,19.8z"/>
				<path class="st5" d="M16.7,30.5c-0.1,0.6,1.5,0.2,1.5,0.2l0.8-9.3l-0.2-0.2L18.4,21l-0.9,2.8L15,19.9l-0.8-0.1
					c0,0,1.8,3.7,1.9,5.5C16.1,25.3,16.9,29.7,16.7,30.5z"/>
				<path class="st3" d="M20.5,19.2c0,0,2.2,2.4,2.1,2.7c0,0-0.9-0.2-1.1,0l1.8,0.4c0,0-0.9,2.2-1.4,2.9c0,0-0.6,1.2-0.6,1.6
					c0,0-0.7,1.5-1.3,2.9c-0.3,0.7-1.3,1.7-1.3,0.5c0-3.2,0.1-8.1,0.7-8.9l0.3-0.3l0.6-0.5l0.1-0.4L20.5,19.2z"/>
				<polygon class="st2" points="14.5,20.2 15.9,20.4 18.3,20.3 17.1,25.3 				"/>
				<polygon class="st2" points="14.5,20.2 14.5,20.5 15.9,20.6 17.9,20.5 17,24.4 14.8,20.1 14.5,20.2 14.5,20.5 14.5,20.2 
					14.3,20.3 17.2,26.1 18.6,20 15.9,20.1 14.1,19.9 14.3,20.3 				"/>
				<path class="st2" d="M17.8,26.1c0,0.1-0.1,0.3-0.3,0.3c-0.2,0-0.3-0.1-0.3-0.3c0-0.1,0.1-0.3,0.3-0.3
					C17.6,25.8,17.8,25.9,17.8,26.1"/>
			</g>
		</g>
	</g>
</g>
</svg>
