<?xml version="1.0" encoding="utf-8"?>
<!-- Generator: Adobe Illustrator 21.0.0, SVG Export Plug-In . SVG Version: 6.00 Build 0)  -->
<svg version="1.1" id="Capa_1" xmlns="http://www.w3.org/2000/svg" xmlns:xlink="http://www.w3.org/1999/xlink" x="0px" y="0px"
	 viewBox="0 0 95.4 41.8" style="enable-background:new 0 0 95.4 41.8;" xml:space="preserve">
<style type="text/css">
	.st0{fill:#1F140F;}
	.st1{fill:#B3B2B8;}
	.st2{fill:#008375;}
	.st3{fill:#FFFFFF;}
	.st4{clip-path:url(#SVGID_2_);fill:#FFFFFF;}
	.st5{clip-path:url(#SVGID_4_);fill:#FFFFFF;}
	.st6{clip-path:url(#SVGID_6_);fill:#FFFFFF;}
	.st7{clip-path:url(#SVGID_8_);fill:#FFFFFF;}
	.st8{clip-path:url(#SVGID_10_);fill:#FFFFFF;}
	.st9{clip-path:url(#SVGID_12_);fill:#FFFFFF;}
	.st10{clip-path:url(#SVGID_14_);fill:#FFFFFF;}
	.st11{clip-path:url(#SVGID_16_);fill:#FFFFFF;}
	.st12{clip-path:url(#SVGID_18_);fill:#FFFFFF;}
	.st13{clip-path:url(#SVGID_20_);}
</style>
<g id="Capa_1_1_">
</g>
<g id="Capa_2">
	<g>
		<g>
			<g>
				<path class="st0" d="M48.1,15.4v1.1h-1.5v-4h2.1c1.1,0,1.6,0.5,1.6,1.4c0,1-0.7,1.6-1.8,1.6C48.4,15.4,48.2,15.4,48.1,15.4z
					 M48.1,14.3c0.1,0,0.2,0,0.2,0c0.4,0,0.5-0.2,0.5-0.5c0-0.3-0.2-0.4-0.5-0.4h-0.2V14.3z"/>
				<path class="st0" d="M50.7,12.3h1.5v4.1h-1.5V12.3z"/>
				<path class="st0" d="M56.2,16.3c-0.5,0.2-0.8,0.2-1.1,0.2c-0.5,0-0.6-0.1-0.6-0.5l0,0c-0.4,0.4-0.7,0.5-1.1,0.5
					c-0.5,0-0.9-0.4-0.9-0.9c0-0.4,0.3-0.5,0.6-0.7c0.4-0.1,0.9-0.2,1.3-0.3l0,0c0-0.2-0.1-0.3-0.4-0.3c-0.4,0-0.7,0.1-1.2,0.3
					l-0.3-0.8c0.5-0.3,1.2-0.4,1.6-0.4c0.5,0,1.6,0.1,1.6,1.3v0.7c0,0.1,0,0.1,0.1,0.1s0.2,0,0.2,0L56.2,16.3z M54.2,15.7
					c0.1,0,0.2,0,0.2-0.1v-0.4c-0.1,0-0.3,0.1-0.4,0.1c-0.1,0-0.1,0.1-0.1,0.2C53.9,15.6,54,15.7,54.2,15.7z"/>
				<path class="st0" d="M56.4,13.5h1.3l0.1,0.4h0.1c0.3-0.4,0.6-0.5,1-0.5c0.6,0,1,0.3,1,1.2v1.8h-1.5v-1.6c0-0.2-0.1-0.3-0.2-0.3
					c-0.2,0-0.3,0.1-0.4,0.3v1.6h-1.5C56.4,16.4,56.4,13.5,56.4,13.5z"/>
				<path class="st0" d="M60.1,13.5h0.5l0.3-0.8h1.1v0.8h0.9l-0.1,0.9h-0.8v0.5c0,0.2,0,0.4,0.3,0.4c0.2,0,0.4-0.1,0.5-0.1l0.2,1.1
					c-0.5,0.2-0.9,0.2-1.3,0.2c-0.7,0-1.1-0.4-1.1-1.3v-0.8h-0.5V13.5z"/>
				<path class="st0" d="M66.3,16.2c-0.5,0.2-1,0.3-1.5,0.3c-0.7,0-1.7-0.3-1.7-1.5c0-1.4,0.9-1.6,1.7-1.6s1.6,0.3,1.6,1.4
					c0,0.1,0,0.2,0,0.3h-1.8v0.1c0,0.2,0.1,0.4,0.5,0.4c0.3,0,0.6,0,1.1-0.2L66.3,16.2z M65.1,14.6c0-0.3-0.1-0.4-0.3-0.4
					c-0.2,0-0.3,0.1-0.3,0.4H65.1z"/>
				<path class="st0" d="M66.7,12.3h1.5v4.1h-1.5V12.3z"/>
				<path class="st0" d="M72,14.7L72,14.7c-0.2,0.1-0.4,0.2-0.7,0.2c-0.6,0-1.2-0.3-1.2-1.1c0-0.8,0.7-1.3,1.7-1.3
					c0.8,0,1.7,0.3,1.7,1.6c0,1.5-1.5,2.2-2.8,2.4l-0.3-1C70.6,15.4,71.6,15.2,72,14.7z M72.2,13.9c0-0.3-0.1-0.5-0.4-0.5
					c-0.3,0-0.4,0.2-0.4,0.4c0,0.2,0.1,0.4,0.4,0.4C71.9,14.1,72.1,14,72.2,13.9z"/>
			</g>
			<g>
				<path class="st0" d="M49.9,23h-1.3l-0.3,0.8h-1.7c0.5-1.3,1.4-3.4,1.8-4.5h1.6c0.2,0.5,1.4,3.2,1.8,4.5H50
					C50,23.4,49.9,23.2,49.9,23z M49.2,21.2c-0.1,0.2-0.2,0.5-0.3,0.7h0.5C49.4,21.5,49.3,21.2,49.2,21.2L49.2,21.2z"/>
				<path class="st0" d="M52.1,23.8v-3.3h1.4l0.2,0.6h0.1c0.5-0.5,0.8-0.7,1.1-0.7c0.2,0,0.4,0.1,0.5,0.2L54.9,22
					c-0.1,0-0.1,0-0.3,0c-0.3,0-0.6,0.4-0.8,0.6v1.2H52.1z"/>
				<path class="st0" d="M59.6,23.6c-0.5,0.2-0.9,0.2-1.2,0.2c-0.5,0-0.6-0.1-0.7-0.5l0,0c-0.4,0.4-0.7,0.5-1.1,0.5
					c-0.5,0-1-0.4-1-1c0-0.5,0.3-0.6,0.7-0.7c0.4-0.1,1-0.2,1.4-0.3v-0.1c0-0.2-0.1-0.3-0.4-0.3c-0.4,0-0.8,0.1-1.3,0.3l-0.3-0.9
					c0.5-0.3,1.4-0.5,1.7-0.5c0.6,0,1.8,0.1,1.8,1.4v0.8c0,0.1,0,0.2,0.2,0.2c0.1,0,0.2,0,0.2,0L59.6,23.6z M57.4,22.9
					c0.1,0,0.2-0.1,0.3-0.2v-0.4c-0.1,0-0.3,0.1-0.4,0.1s-0.1,0.1-0.1,0.2C57.1,22.8,57.2,22.9,57.4,22.9z"/>
				<path class="st0" d="M61.6,20.4c0.8,0,1.2,0.2,1.4,0.5H63c0-0.3,0-0.5,0.4-0.5c0.2,0,0.4,0,0.5,0.1l-0.1,0.7c-0.1,0-0.3,0-0.4,0
					c-0.3,0-0.3,0.1-0.3,0.3c0,0,0,0.1,0,0.2c0,0.7-0.5,1-1.6,1c-0.1,0-0.2,0-0.3,0C61.2,22.8,61,22.9,61,23c0,0.2,0.2,0.2,0.3,0.2
					h1c1,0,1.5,0.3,1.5,0.9c0,1.1-1.6,1.2-2.5,1.2c-0.5,0-1.8,0-1.8-0.8c0-0.5,0.4-0.6,0.6-0.7v-0.1c-0.4-0.1-0.5-0.3-0.5-0.5
					c0-0.4,0.5-0.5,0.8-0.6v-0.1c-0.5-0.1-0.7-0.5-0.7-0.8C59.8,20.8,60.6,20.4,61.6,20.4z M61.5,23.9c-0.1,0-0.3,0.1-0.3,0.2
					c0,0.2,0.3,0.2,0.5,0.2c0.3,0,0.5-0.1,0.5-0.3c0-0.1,0-0.2-0.3-0.2L61.5,23.9L61.5,23.9z M61.7,21.9c0.2,0,0.3-0.1,0.3-0.4
					c0-0.2-0.1-0.4-0.3-0.4c-0.2,0-0.3,0.2-0.3,0.4C61.4,21.7,61.5,21.9,61.7,21.9z"/>
				<path class="st0" d="M64,22.2c0-1.1,0.7-1.7,2-1.7s2,0.5,2,1.7c0,1.2-0.8,1.7-2,1.7S64,23.4,64,22.2z M65.2,19.8l0.9-1.7l1,0.6
					l-1.4,1.5L65.2,19.8z M66.4,22.2c0-0.5-0.1-0.6-0.4-0.6c-0.2,0-0.4,0.1-0.4,0.6c0,0.5,0.1,0.6,0.4,0.6
					C66.2,22.8,66.4,22.6,66.4,22.2z"/>
				<path class="st0" d="M68.4,20.5h1.5L70,21h0.1c0.4-0.4,0.7-0.5,1.1-0.5c0.6,0,1.1,0.4,1.1,1.3v2.1h-1.6V22
					c0-0.3-0.1-0.4-0.3-0.4c-0.2,0-0.3,0.1-0.4,0.3v1.8h-1.6L68.4,20.5L68.4,20.5z"/>
			</g>
		</g>
		<g>
			<g>
				<path class="st1" d="M41.3,12.5l-6.5-5.3l-1.4,8.3l1.7-0.6c0.6,1.7,1,3.6,1,5.5c0,8.6-7,15.6-15.6,15.6s-15.6-7-15.6-15.6
					S12,4.8,20.6,4.8c3.8,0,7.5,1.4,10.3,3.9l3.2-3.6C30.4,1.8,25.7,0,20.6,0C9.5,0,0.3,9.2,0.3,20.3c0,11.3,9.2,20.3,20.3,20.3
					c11.3,0,20.3-9.2,20.3-20.3c0-2.5-0.5-4.9-1.3-7.2L41.3,12.5z"/>
				<path class="st2" d="M36.8,18c-1.4,0-2.4,1.1-2.4,2.4c0,7.6-6.1,13.7-13.7,13.7S7,27.9,7,20.3S13.1,6.6,20.7,6.6
					c2.7,0,5.2,0.7,7.4,2.2l2.6-4c-2.9-1.9-6.4-2.9-10.1-2.9C10.4,1.8,2,10.2,2,20.4S10.4,39,20.6,39s18.6-8.3,18.6-18.6
					C39.2,19.1,38.2,18,36.8,18z"/>
				<circle class="st3" cx="20.6" cy="20.3" r="13"/>
			</g>
			<g>
				<g>
					<defs>
						<circle id="SVGID_1_" cx="20.6" cy="20.3" r="13"/>
					</defs>
					<clipPath id="SVGID_2_">
						<use xlink:href="#SVGID_1_"  style="overflow:visible;"/>
					</clipPath>
					<path class="st4" d="M18.1,29.7c-0.1-0.1,0-0.1,0-0.2c-0.1,0.2,0-0.1-0.1,0c-0.1,0,0-0.2,0-0.2C18.2,29.4,18.1,29.7,18.1,29.7"
						/>
				</g>
				<g>
					<defs>
						<circle id="SVGID_3_" cx="20.6" cy="20.3" r="13"/>
					</defs>
					<clipPath id="SVGID_4_">
						<use xlink:href="#SVGID_3_"  style="overflow:visible;"/>
					</clipPath>
					<path class="st5" d="M21.3,29.5c0.2,0,0.2,0.1,0.3,0.2C21.5,29.6,21.3,29.7,21.3,29.5"/>
				</g>
				<g>
					<defs>
						<circle id="SVGID_5_" cx="20.6" cy="20.3" r="13"/>
					</defs>
					<clipPath id="SVGID_6_">
						<use xlink:href="#SVGID_5_"  style="overflow:visible;"/>
					</clipPath>
					<path class="st6" d="M17.3,29.8c-0.2-0.1-0.2-0.3,0.1-0.4c0.1,0.1,0.1,0.2,0.2,0.4C17.4,29.7,17.4,29.8,17.3,29.8"/>
				</g>
				<g>
					<defs>
						<circle id="SVGID_7_" cx="20.6" cy="20.3" r="13"/>
					</defs>
					<clipPath id="SVGID_8_">
						<use xlink:href="#SVGID_7_"  style="overflow:visible;"/>
					</clipPath>
					<path class="st7" d="M17.5,29.5c0-0.1,0.1-0.1,0.3-0.1c0.2,0.1,0.1,0.2,0.2,0.4c-0.1,0.1-0.2,0-0.3,0
						C17.6,29.5,17.6,29.6,17.5,29.5"/>
				</g>
				<g>
					<defs>
						<circle id="SVGID_9_" cx="20.6" cy="20.3" r="13"/>
					</defs>
					<clipPath id="SVGID_10_">
						<use xlink:href="#SVGID_9_"  style="overflow:visible;"/>
					</clipPath>
					<path class="st8" d="M17.1,29.8L17.1,29.8C16.9,29.8,17.1,29.7,17.1,29.8C17,29.7,17,29.9,17.1,29.8c-0.1,0.1-0.2,0-0.2,0.1
						c-0.1-0.1,0.1-0.2,0.1-0.3c0.2,0,0.2,0.2,0.3,0.3L17.1,29.8L17.1,29.8"/>
				</g>
				<g>
					<defs>
						<circle id="SVGID_11_" cx="20.6" cy="20.3" r="13"/>
					</defs>
					<clipPath id="SVGID_12_">
						<use xlink:href="#SVGID_11_"  style="overflow:visible;"/>
					</clipPath>
					<path class="st9" d="M21.4,29.9c0-0.1-0.1,0-0.2,0V30c0,0.1,0.1-0.1,0.1,0.1c-0.3,0.1-0.1-0.3,0-0.4c0.2,0.1,0.3,0.2,0.3,0.4
						c-0.1,0-0.2,0.1-0.3,0.1C21.3,30,21.4,30,21.4,29.9"/>
				</g>
				<g>
					<defs>
						<circle id="SVGID_13_" cx="20.6" cy="20.3" r="13"/>
					</defs>
					<clipPath id="SVGID_14_">
						<use xlink:href="#SVGID_13_"  style="overflow:visible;"/>
					</clipPath>
					<path class="st10" d="M27.8,30c-0.1-0.1-0.1,0.1-0.1,0.2c-0.1-0.1-0.1-0.3,0-0.5c0.3,0,0.3,0.2,0.4,0.5c-0.1,0-0.2,0-0.3,0.1
						C27.7,30.2,27.8,30.1,27.8,30"/>
				</g>
				<g>
					<defs>
						<circle id="SVGID_15_" cx="20.6" cy="20.3" r="13"/>
					</defs>
					<clipPath id="SVGID_16_">
						<use xlink:href="#SVGID_15_"  style="overflow:visible;"/>
					</clipPath>
					<path class="st11" d="M20.9,29.9c0.2,0,0.3,0.2,0.4,0.3c0,0.1-0.2,0-0.2,0.1c-0.1,0,0-0.1,0-0.1c-0.1,0-0.2,0.2-0.3,0.1v-0.1
						C20.7,30,20.8,30,20.9,29.9"/>
				</g>
				<g>
					<defs>
						<circle id="SVGID_17_" cx="20.6" cy="20.3" r="13"/>
					</defs>
					<clipPath id="SVGID_18_">
						<use xlink:href="#SVGID_17_"  style="overflow:visible;"/>
					</clipPath>
					<path class="st12" d="M25.9,29.9c0.1,0.2,0.1,0.3,0,0.5c-0.2,0-0.3-0.1-0.4-0.2C25.6,30,25.7,29.9,25.9,29.9"/>
				</g>
				<g>
					<defs>
						<circle id="SVGID_19_" cx="20.6" cy="20.3" r="13"/>
					</defs>
					<clipPath id="SVGID_20_">
						<use xlink:href="#SVGID_19_"  style="overflow:visible;"/>
					</clipPath>
					<g class="st13">
						<g>
							<g>
								<path class="st2" d="M0.4,21.5c0-0.1,0.2,0,0.3,0C0.7,21.6,0.5,21.5,0.4,21.5"/>
								<path class="st2" d="M2.1,20.9c0-0.1,0.2,0,0.3,0C2.4,21,2.2,20.9,2.1,20.9 M27.7,20.4c-0.1-0.2-0.5-0.3-0.7-0.5
									c-0.2-0.1-0.5-0.4-0.5-0.5c0.3,0.1,0.7,0.4,1.1,0.3c-0.4-0.6-1.6-0.9-1.9-1.7c-0.1-0.2,0-0.5,0-0.7c0-0.2-0.1-0.5-0.2-0.6
									c-0.5-1.6-0.6-3.9-2.2-4.5c-0.7-0.3-1.4,0.1-2.3-0.1c-0.3-0.1-0.4-0.3-0.8-0.4c-0.9-0.1-1.6,0.2-2.4-0.3l0,0h-0.2
									c-0.1,0.1-0.3,0.1-0.3,0.2c-1.2-0.5-2.2,0.4-3.2,0.4c-0.5,0-0.9-0.2-1.4-0.3c-0.9-0.2-2.3-0.4-3.1,0c-1.5,0.5-3,2.2-3.5,3.6
									c-0.3,0.8-0.5,1.6-0.9,2.6c-0.5,1.3-1.3,2.5-2.9,2.7c0.3,0,0,0.1-0.1,0.1c0,0.2,0.4,0,0.4,0.2c-0.2,0-0.4,0-0.5,0v0.1
									c0,0.2,0.3,0.2,0.5,0.2c-0.1,0.1-0.3,0.1-0.3,0.2c0.2,0.2,0.6-0.3,0.4,0C3,21.2,3.1,21.1,3.4,21c0.9-1.2,2-2.2,2.7-3.6
									c0.5,1.1,0,2.7,0,3.9c-0.8,0.8-0.5,2.5-1.1,3.6c0,0.2,0,0.4,0,0.5l0,0l0,0c0,0.1,0.1,0.1,0.2,0.1c0.2,0,0.2,0.1,0.3,0.2
									c0.4,0.1,0.9,0.1,1.4,0.1c0.5-0.1,0.8-0.2,1.1-0.4c0-0.5-0.5-0.6-0.6-1.1c-0.2-0.7,0.8-1.7,1.1-2.2c0.4,0.6,0.5,1.6,0.8,2.2
									c0.1,0.2,0.3,0.4,0.3,0.5c0,0.3-0.3,0.5-0.1,0.9H9.4v0.1c0.3,0.5,1.4,0.5,1.9,0.4l0,0c0.5-0.1,0.8-0.3,1.1-0.5
									c0-0.5-0.2-0.6-0.5-0.8c-0.5-1.3-0.9-2.7-1.1-4.4c2.3,0.2,4.2-0.4,5.6-1.1c0.2,0.5,0.6,1,0.8,1.6c0.3,0.6,0.1,1.4,0.2,2
									c0,0.3,0.2,0.5,0.1,0.7c-0.1,0.2-0.5,0.4-0.5,0.6c-0.3,0.6,0,1.2,0.2,1.7c0.2,0.1,0.4,0.2,0.5,0.4l0.1,0.1
									c0.2,0.1,0.5,0.1,0.6,0.1h0.1c0.1-0.1,0.3-0.2,0.4-0.2c0.5-0.2,1.5,0,1.6-0.5c0.1-0.4-0.4-0.5-0.6-0.8
									c-0.4-0.5-0.2-0.7,0-1.2c0.1-0.4,0.1-0.9,0.2-1.4c0.1-0.4,0.2-0.8,0.2-1.1c0-0.5-0.2-0.9-0.3-1.4c-0.1-0.5-0.2-1.1-0.1-1.6
									c0.1-0.5,0.5-0.8,0.6-1.2c0.4,0.1,0.6-0.3,0.9-0.3s0.8,0.3,1.2,0.4c0.2,0.1,0.4,0.4,0.5,0.5c0.3,0.2,0.8,0.2,1,0.5
									c0.2,0.3,0.3,1.1,0.3,1.6c0.2,1.6,0.5,3.5,0.2,4.9c-0.1,0.1-0.3,0.1-0.4,0.2c0.1,0.4-0.3,0.4-0.4,0.6c0.8,0.7,1.6,0,1.9-0.7
									c0.5-1.3,0-3.8,0.1-5.1C26.3,20.1,26.8,20.6,27.7,20.4"/>
							</g>
						</g>
						<path class="st2" d="M27.1,10.2C27.3,10.1,27.2,10.1,27.1,10.2c0.2-0.4,0.3,0.1,0.3,0.3c0.7,0.7,0.7,2.2,1.7,2.7
							c0.5,0.7,1.5,1.2,2.3,1.7c0.1,0.2-0.1,0.3,0.3,0.4c-0.4,0.2-0.3-0.1-0.1,0.4c-0.1,0-0.2-0.2-0.3-0.2c0,0.2,0.1,0.2,0.1,0.4
							c-0.3,0.1-0.2-0.2-0.3-0.3c-0.1,0.3-0.1,0.4-0.3,0c-0.1,0-0.1,0.2-0.1,0.3c-0.7-0.6-1.8-1-2.6-1.7c-0.2,0.1-0.2,0.3-0.3,0.5
							c-0.4-0.1-0.7-0.2-1-0.4v-0.5c0.4,0.1,0.4-0.2,0.7-0.2c-0.7-0.7-0.9-2-1.5-2.8c0.3-0.1,0.4,0,0-0.3c0.4-0.1,0.2,0,0.1-0.5
							c0.2,0,0.2,0.3,0.4,0.3c-0.1-0.1-0.1-0.3-0.2-0.3c0-0.2,0.4,0,0.3,0.2c0.3-0.1-0.1-0.2,0-0.4C27,9.6,27,10,27.1,10.2"/>
						<path class="st2" d="M27.9,24.7l-0.3,0.1l0.1,0.1L27.5,25l0.2,0.2h-0.1l-0.3,0.1H27v0.1c0,0-0.1,0.4-0.3,0.3
							c-0.2,0-0.5,0.1-0.9,0.5c-0.4,0.4-1.2,0.6-1.2,0.6s0.1,0-0.1,0s-0.8,0-1.1,0c-0.2,0-1.1,0.6-1.2,0.7c-0.2,0-0.5,0.4-0.5,0.4
							l-0.3,0.1l0.2,0.1l-0.5,0.5c-0.5,0.9-1.6,1.1-1.6,1.1c-0.5,0.2-1.8-0.1-1.8-0.1l0.3,0.2L18,30l0.4,0.2v0.2h0.3l-0.2-0.1
							l0.4,0.1l-0.1,0.2l0.5,0.1l0.2,0.1l0.2-0.1l0.1,0.1l0.3-0.2v0.2l0.5-0.3v0.3l0.4-0.3l0.1,0.1l0.4-0.5l0.1,0.1l0.2-0.4l0.1,0.1
							l0.2-0.2l-0.3,0.7c-0.1,0.5-0.6,0.5-0.6,0.5s0,0.1,0,0.8c0,0.7-0.6,1.4-0.6,1.4l-0.1,0.6l0.8-0.2v-0.5c0,0,0.6-1.4,0.6-1.5
							l0.4-0.4l1.1-0.5c0.1,1-0.5,0.9-0.5,0.9l0.1,0.2c0,0,0,0,0.1,0.3c0.1,0.3,0,1.4,0,1.4l0.7-0.3l-0.1-1.1l1.1-0.9
							c0.2-0.1,0.7-1.5,0.7-1.5s0.4-0.4,0.5-0.5c0.2,0-0.1,0.2-0.1,0.2l0.3,0.1h0.5l0.2,0.5l-0.1,1.6l0.3,0.5c0,0,0.8,0,0.6-0.3
							c-0.2-0.2-0.1-0.9-0.1-0.9l0.2-1.4h0.4c0.2,0.3,0.2,1.7,0.2,1.7l0.2,0.4l0.5-0.3c-0.2-0.3,0-1.7,0-1.7s0.3-0.4,0.4-0.5
							c0.1-0.2,0.2-0.6,0.2-0.6l0.2-0.1v-0.2l0.2,0.1v-0.2l0.1-0.1c0.1,0,0,0,0.1,0c0.1,0,0-0.1,0-0.1l0.2-0.1l0.1-0.4h0.2
							c0,0.2-0.1,0-0.1,0l0.2,0.1c0,0,0-0.3,0-0.4c0-0.1,0.2-0.9,0.2-0.9v-0.2l0.1-0.2l-0.2-0.3h0.3h-0.1l0.2-0.1l-0.3-0.4h0.1
							l-0.1-0.1h0.2L30.7,25l0.1-0.1l-0.3-0.2l0.2-0.1l-0.2-0.1l0.1-0.1l-0.2-0.2v-0.4c0-0.1,0.1-0.8,0.1-0.8l0.1-0.1l-0.1-0.1
							l0.2-0.6L30.6,22l-0.2,0.1v-0.4l-0.4-0.3L29.6,22c-0.2,0-0.3,0.5-0.3,0.5c-0.2,0-0.5,0.3-0.6,0.4c-0.2,0.2-0.3,0.7-0.3,0.7
							c-0.1,0-0.5,0.5-0.5,0.5h0.3C28.1,24.4,27.9,24.7,27.9,24.7"/>
					</g>
				</g>
			</g>
		</g>
	</g>
</g>
</svg>
