<?xml version="1.0" encoding="utf-8"?>
<!-- Generator: Adobe Illustrator 21.0.0, SVG Export Plug-In . SVG Version: 6.00 Build 0)  -->
<svg version="1.1" id="Capa_16" xmlns="http://www.w3.org/2000/svg" xmlns:xlink="http://www.w3.org/1999/xlink" x="0px" y="0px"
	 viewBox="0 0 74.5 33.9" style="enable-background:new 0 0 74.5 33.9;" xml:space="preserve">
<style type="text/css">
	.st0{fill:#B3B2B8;}
	.st1{fill:#008375;}
	.st2{fill:#FFFFFF;}
	.st3{fill:none;}
	.st4{fill:#1F140F;}
</style>
<g>
	<g>
		<path class="st0" d="M34.2,10.6l-5.3-4.3L27.8,13l1.4-0.5c0.5,1.4,0.8,2.9,0.8,4.5c0,6.9-5.6,12.6-12.6,12.6
			c-6.9,0-12.6-5.6-12.6-12.6c0-6.9,5.6-12.6,12.6-12.6c3.1,0,6.1,1.1,8.4,3.2l2.6-2.9c-3-2.7-6.9-4.2-11-4.2
			C8.3,0.5,0.9,7.9,0.9,17c0,9.1,7.4,16.5,16.5,16.5c9.1,0,16.5-7.4,16.5-16.5c0-2-0.4-4-1.1-5.9L34.2,10.6z"/>
		<path class="st1" d="M30.5,15c-1.1,0-2,0.9-2,2c0,6.2-5,11.2-11.2,11.2c-6.2,0-11.2-5-11.2-11.2c0-6.1,5-11.2,11.2-11.2
			c2.2,0,4.2,0.6,6,1.8l2.1-3.3c-2.4-1.5-5.2-2.4-8.1-2.4C9.1,1.9,2.4,8.7,2.4,17C2.4,25.3,9.1,32,17.4,32c8.3,0,15.1-6.8,15.1-15.1
			C32.5,15.9,31.6,15,30.5,15z"/>
		<circle class="st2" cx="17.4" cy="17" r="10.5"/>
		<g>
			<g>
				<path class="st1" d="M25.2,23.8v-0.9c-0.8-0.7-3.2-1.8-3.7-6.8h0.1c0.2,0,0.3-0.1,0.3-0.3c0-0.2-0.1-0.3-0.3-0.3h-0.1
					c0-0.1,0-0.3,0-0.4h0.1c0.2,0,0.3-0.2,0.3-0.3c0-0.2-0.1-0.3-0.3-0.3h-0.1c0-0.2,0-0.3,0-0.5c0.2-4.8-2.6-6-3.6-6.2
					c0,0,0-0.1,0-0.1c0-0.2-0.1-0.5-0.4-0.5C17.1,7,17,7.3,17,7.5c0,0,0,0.1,0,0.1c-1.1,0.3-3.8,1.4-3.6,6.2c0,0.2,0,0.3,0,0.5h-0.1
					c-0.2,0-0.3,0.2-0.3,0.3c0,0.2,0.2,0.3,0.3,0.3h0.1c0,0.1,0,0.3,0,0.4h-0.1c-0.2,0-0.3,0.2-0.3,0.3c0,0.2,0.2,0.3,0.3,0.3h0.1
					c-0.4,4.9-2.9,6.1-3.7,6.8v0.9H25.2z"/>
				<path class="st2" d="M22.7,19.3l0.1-0.2L22.1,19l-0.7,0.6c0,0-1.6-1-1.9,1c0,0-0.8-0.4-1.4,0.1c0,0-0.6-0.4-1.3-0.1
					c0,0-1.1-2-3.4-1c0,0-0.1-0.1-0.2-0.4c0,0-1.2,0.9-0.9,2.3c0.2,1.1,1.3,1.8,2.4,1.8c0.6,0,1-0.1,1.8-0.7l-0.8,1.1l-1.2,0.8l1,0
					l0.9-0.6l0.7-1.1c0,0,0.6,0.2,1.1-0.2l-0.5,1.3l-1,0.8l0.9,0l0.9-0.7l0.4-1.1l0.5,1.2l0.7,0.3l0.2,0.5l0.7,0l-0.3-0.9l-0.7-0.3
					l-0.5-1.3c0,0,0.5-0.7,1.9-0.1c0,0,1,0.3,0.9-0.6l-0.1-0.8c0,0-0.1-0.7-0.7-1l0.5-0.5L22.7,19.3z M22,20.5
					c0.1,0,0.2,0.2,0.1,0.4c-0.1,0.2-0.2,0.3-0.3,0.3c-0.1,0-0.2-0.2-0.1-0.4C21.7,20.6,21.8,20.5,22,20.5z"/>
			</g>
			<circle class="st3" cx="17.4" cy="17" r="10.5"/>
		</g>
	</g>
	<g>
		<path class="st1" d="M49.5,21.8"/>
	</g>
	<g>
		<path class="st4" d="M39.9,12.9v0.9h-1.2v-3.3h1.7c0.9,0,1.3,0.4,1.3,1.1c0,0.8-0.6,1.3-1.5,1.3C40.1,12.9,40,12.9,39.9,12.9z
			 M39.9,11.9c0.1,0,0.1,0,0.2,0c0.3,0,0.4-0.1,0.4-0.3c0-0.2-0.2-0.3-0.4-0.3h-0.2V11.9z"/>
		<path class="st4" d="M42,10.4h1.2v3.4H42V10.4z"/>
		<path class="st4" d="M46.4,13.6c-0.4,0.1-0.7,0.1-0.9,0.1c-0.3,0-0.5-0.1-0.5-0.3l0,0c-0.3,0.2-0.5,0.3-0.8,0.3
			c-0.4,0-0.8-0.3-0.8-0.7c0-0.3,0.2-0.5,0.6-0.6c0.3-0.1,0.8-0.2,1-0.2v0c0-0.1-0.1-0.2-0.3-0.2c-0.3,0-0.6,0.1-0.9,0.2l-0.2-0.7
			c0.4-0.2,1-0.3,1.3-0.3c0.5,0,1.3,0,1.3,1v0.6c0,0.1,0,0.1,0.1,0.1c0.1,0,0.1,0,0.1,0L46.4,13.6z M44.8,13.1c0,0,0.1,0,0.2-0.1
			v-0.3c-0.1,0-0.2,0.1-0.3,0.1c-0.1,0-0.1,0.1-0.1,0.1C44.6,13,44.7,13.1,44.8,13.1z"/>
		<path class="st4" d="M46.7,11.3h1l0.1,0.3l0,0c0.2-0.3,0.6-0.4,0.8-0.4c0.5,0,0.8,0.3,0.8,0.9v1.5h-1.2v-1.3
			c0-0.2-0.1-0.3-0.2-0.3c-0.1,0-0.2,0.1-0.3,0.2v1.3h-1.2V11.3z"/>
		<path class="st4" d="M49.6,11.3H50l0.2-0.7h0.9v0.7h0.7l-0.1,0.7h-0.7v0.5c0,0.2,0,0.3,0.2,0.3c0.1,0,0.3,0,0.4-0.1l0.2,0.9
			c-0.4,0.1-0.7,0.2-1.1,0.2c-0.6,0-0.9-0.3-0.9-1v-0.7h-0.4V11.3z"/>
		<path class="st4" d="M54.7,13.6c-0.4,0.1-0.8,0.2-1.2,0.2c-0.6,0-1.4-0.2-1.4-1.2c0-1.1,0.8-1.3,1.4-1.3c0.6,0,1.3,0.2,1.3,1.1
			c0,0.1,0,0.2,0,0.2h-1.5v0c0,0.1,0.1,0.3,0.4,0.3c0.2,0,0.5,0,0.9-0.1L54.7,13.6z M53.7,12.2c0-0.2-0.1-0.3-0.2-0.3
			c-0.1,0-0.2,0.1-0.2,0.3H53.7z"/>
		<path class="st4" d="M55,10.4h1.2v3.4H55V10.4z"/>
		<path class="st4" d="M57.8,12.8h0.8v-1.2l-0.8,0v-0.8c0.6-0.1,1.1-0.2,1.5-0.3h0.5v2.3h0.8v0.9h-2.8V12.8z"/>
	</g>
	<g>
		<path class="st4" d="M38.7,16h2.5v1H40v0.4h0.9l-0.1,0.8H40v0.4h1.2v1h-2.5V16z"/>
		<path class="st4" d="M41.6,15.9h1.3v3.7h-1.3V15.9z"/>
		<path class="st4" d="M48,19.7c-0.1,0-0.4,0.1-0.6,0.1c-0.3,0-0.5,0-0.7-0.3c-0.2-0.2-0.4-0.5-0.6-0.9h-0.1v1.1h-1.3V16h1.7
			c1,0,1.5,0.4,1.5,1.2c0,0.5-0.2,0.8-0.5,1c0.1,0.1,0.3,0.3,0.4,0.4c0.1,0.1,0.2,0.1,0.3,0.1H48V19.7z M45.9,17.6h0.1
			c0.2,0,0.4-0.1,0.4-0.3c0-0.2-0.2-0.3-0.4-0.3h-0.1V17.6z"/>
		<path class="st4" d="M48.2,18.3c0-0.9,0.6-1.4,1.6-1.4c1,0,1.6,0.5,1.6,1.4c0,1-0.6,1.4-1.6,1.4C48.8,19.7,48.2,19.3,48.2,18.3z
			 M50.1,18.4c0-0.4-0.1-0.5-0.3-0.5c-0.2,0-0.3,0.1-0.3,0.5c0,0.3,0.1,0.5,0.3,0.5C50,18.8,50.1,18.7,50.1,18.4z"/>
		<path class="st4" d="M52.8,19.7c-0.4,0-0.9-0.1-1.2-0.2l0.1-0.8c0.3,0.1,0.7,0.2,1.1,0.2c0.1,0,0.2,0,0.2-0.1c0-0.2-1.4,0-1.4-1
			c0-0.7,0.7-0.9,1.4-0.9c0.4,0,0.9,0.1,1.1,0.2L54,17.9c-0.2-0.1-0.6-0.1-0.9-0.1c-0.1,0-0.2,0-0.2,0.1c0,0.2,1.3,0,1.3,1
			C54.2,19.5,53.5,19.7,52.8,19.7z"/>
		<path class="st4" d="M57.8,19.6c-0.4,0.1-0.7,0.2-1,0.2c-0.4,0-0.5-0.1-0.6-0.4l0,0c-0.3,0.3-0.6,0.4-0.9,0.4
			c-0.4,0-0.9-0.3-0.9-0.8c0-0.4,0.2-0.5,0.6-0.6c0.3-0.1,0.9-0.2,1.1-0.2v0c0-0.1-0.1-0.2-0.3-0.2c-0.3,0-0.7,0.1-1.1,0.2l-0.2-0.7
			C55,17.1,55.7,17,56,17c0.5,0,1.5,0.1,1.5,1.1v0.7c0,0.1,0,0.1,0.1,0.1c0.1,0,0.1,0,0.1,0L57.8,19.6z M56,19c0.1,0,0.1,0,0.2-0.1
			v-0.3c-0.1,0-0.2,0.1-0.3,0.1c-0.1,0-0.1,0.1-0.1,0.1C55.8,18.8,55.8,19,56,19z"/>
		<path class="st4" d="M58,19.7V17h1.1l0.1,0.5l0,0c0.4-0.5,0.6-0.6,0.9-0.6c0.1,0,0.3,0.1,0.4,0.2l-0.3,1.1c-0.1,0-0.1-0.1-0.2-0.1
			c-0.2,0-0.5,0.3-0.7,0.5v1H58z"/>
		<path class="st4" d="M61.4,15.4c0.4,0,0.7,0.3,0.7,0.6c0,0.4-0.3,0.6-0.7,0.6c-0.4,0-0.7-0.2-0.7-0.6C60.7,15.6,61,15.4,61.4,15.4
			z M60.7,17H62v2.6h-1.3V17z"/>
		<path class="st4" d="M62.3,18.3c0-0.9,0.6-1.4,1.6-1.4c1,0,1.6,0.5,1.6,1.4c0,1-0.6,1.4-1.6,1.4C63,19.7,62.3,19.3,62.3,18.3z
			 M64.2,18.4c0-0.4-0.1-0.5-0.3-0.5c-0.2,0-0.3,0.1-0.3,0.5c0,0.3,0.1,0.5,0.3,0.5C64.1,18.8,64.2,18.7,64.2,18.4z"/>
	</g>
</g>
</svg>
