<?xml version="1.0" encoding="utf-8"?>
<!-- Generator: Adobe Illustrator 21.0.0, SVG Export Plug-In . SVG Version: 6.00 Build 0)  -->
<svg version="1.1" id="Capa_1" xmlns="http://www.w3.org/2000/svg" xmlns:xlink="http://www.w3.org/1999/xlink" x="0px" y="0px"
	 viewBox="0 0 203 66.4" style="enable-background:new 0 0 203 66.4;" xml:space="preserve">
<style type="text/css">
	.st0{fill:#1F140F;}
	.st1{fill:#B3B2B8;}
	.st2{fill:#008375;}
	.st3{fill:#FFFFFF;}
	.st4{clip-path:url(#SVGID_2_);}
</style>
<g>
	<g>
		<g>
			<path class="st0" d="M79.1,25.5v1.7h-2.4v-6.4H80c1.8,0,2.6,0.8,2.6,2.2c0,1.6-1.1,2.5-2.9,2.5C79.5,25.5,79.3,25.5,79.1,25.5z
				 M79.1,23.7c0.1,0,0.2,0,0.4,0c0.5,0,0.8-0.2,0.8-0.7c0-0.5-0.3-0.6-0.8-0.6h-0.4V23.7z"/>
			<path class="st0" d="M83.2,20.6h2.3v6.6h-2.3V20.6z"/>
			<path class="st0" d="M91.9,27c-0.8,0.2-1.3,0.3-1.7,0.3c-0.7,0-1-0.2-1.1-0.7l-0.1,0c-0.5,0.5-1,0.7-1.6,0.7
				c-0.7,0-1.5-0.5-1.5-1.4c0-0.6,0.4-0.9,1.1-1.1c0.6-0.2,1.5-0.3,2-0.4v-0.1c0-0.2-0.1-0.4-0.5-0.4c-0.5,0-1.2,0.1-1.9,0.4
				L86.2,23c0.8-0.4,1.9-0.6,2.5-0.6c0.9,0,2.6,0.1,2.6,2v1.2c0,0.2,0.1,0.2,0.2,0.2c0.1,0,0.2,0,0.2,0L91.9,27z M88.7,26
				c0.1,0,0.2-0.1,0.3-0.2v-0.5c-0.2,0-0.4,0.1-0.5,0.2c-0.1,0-0.2,0.1-0.2,0.2C88.3,25.8,88.5,26,88.7,26z"/>
			<path class="st0" d="M92.4,22.5h2.1l0.2,0.6l0.1,0c0.5-0.6,1.1-0.8,1.6-0.8c1,0,1.6,0.5,1.6,1.8v3h-2.3v-2.6
				c0-0.3-0.1-0.5-0.4-0.5c-0.2,0-0.5,0.1-0.6,0.4v2.7h-2.3V22.5z"/>
			<path class="st0" d="M98.2,22.5H99l0.4-1.4h1.8v1.4h1.4l-0.1,1.5h-1.3v0.9c0,0.3,0,0.6,0.4,0.6c0.3,0,0.6-0.1,0.9-0.2l0.3,1.7
				c-0.8,0.2-1.4,0.3-2.1,0.3c-1.2,0-1.8-0.6-1.8-2V24h-0.7V22.5z"/>
			<path class="st0" d="M108.2,26.9c-0.7,0.3-1.6,0.4-2.4,0.4c-1.2,0-2.8-0.5-2.8-2.4c0-2.2,1.5-2.5,2.8-2.5c1.3,0,2.5,0.5,2.5,2.2
				c0,0.1,0,0.4,0,0.4h-2.9v0.1c0,0.2,0.1,0.6,0.9,0.6c0.4,0,1-0.1,1.8-0.3L108.2,26.9z M106.2,24.3c0-0.4-0.2-0.5-0.4-0.5
				c-0.2,0-0.4,0.2-0.5,0.5H106.2z"/>
			<path class="st0" d="M108.8,20.6h2.3v6.6h-2.3V20.6z"/>
			<path class="st0" d="M114.4,25.5h1.6v-2.4l-1.6,0.1v-1.5c1.1-0.1,2.1-0.3,3-0.6h0.9v4.4h1.6v1.7h-5.5V25.5z"/>
			<path class="st0" d="M120.9,27.2c1.3-2.3,2-3.6,2.5-4.4h-2.7V21h5.2l0.3,0.8c-0.4,0.9-1.5,3.4-2.4,5.4H120.9z"/>
		</g>
		<g>
			<path class="st0" d="M76.7,31.8h2.7v2.6h2v-2.6H84v7.1h-2.7v-2.7h-2v2.7h-2.7V31.8z"/>
			<path class="st0" d="M90.9,38.9h-2.2l-0.2-0.6l-0.1,0c-0.4,0.5-1.1,0.7-1.8,0.7c-1,0-1.8-0.6-1.8-1.9v-3.4h2.6v3
				c0,0.4,0.2,0.6,0.4,0.6c0.2,0,0.5-0.2,0.6-0.4v-3.2h2.6V38.9z"/>
			<path class="st0" d="M98.1,38.7c-0.9,0.2-1.5,0.3-1.9,0.3c-0.7,0-1.1-0.2-1.2-0.7l-0.1,0c-0.6,0.5-1.1,0.8-1.8,0.8
				c-0.8,0-1.7-0.6-1.7-1.5c0-0.7,0.4-1,1.2-1.2c0.7-0.2,1.7-0.4,2.2-0.5v-0.1c0-0.3-0.1-0.5-0.6-0.5c-0.6,0-1.3,0.1-2.1,0.4
				l-0.4-1.4c0.9-0.5,2.1-0.7,2.8-0.7c1,0,2.9,0.1,2.9,2.2v1.3c0,0.2,0.1,0.2,0.2,0.2c0.2,0,0.3,0,0.3,0L98.1,38.7z M94.6,37.6
				c0.1,0,0.3-0.1,0.4-0.2v-0.6c-0.2,0-0.4,0.1-0.6,0.2c-0.1,0-0.2,0.1-0.2,0.3C94.2,37.3,94.3,37.6,94.6,37.6z"/>
			<path class="st0" d="M99.2,41.1c0.3-0.6,0.7-1.4,1.1-2.2h-0.6c-0.4-1.1-0.9-2.4-1.2-3.2c-0.1-0.3-0.3-0.3-0.5-0.3v-1.7
				c0.1,0,0.6-0.1,0.9-0.1c0.9,0,1.4,0.1,1.8,1l0.7,1.9h0.1c0.3-0.9,0.7-2,0.9-2.8h2.7c-0.9,2.7-2,5.3-3,7.4H99.2z"/>
			<path class="st0" d="M111.7,38.7c-0.9,0.2-1.5,0.3-1.9,0.3c-0.7,0-1.1-0.2-1.2-0.7l-0.1,0c-0.6,0.5-1.1,0.8-1.8,0.8
				c-0.8,0-1.7-0.6-1.7-1.5c0-0.7,0.4-1,1.2-1.2c0.7-0.2,1.7-0.4,2.2-0.5v-0.1c0-0.3-0.1-0.5-0.6-0.5c-0.6,0-1.3,0.1-2.1,0.4
				l-0.4-1.4c0.9-0.5,2.1-0.7,2.8-0.7c1,0,2.9,0.1,2.9,2.2v1.3c0,0.2,0.1,0.2,0.2,0.2c0.2,0,0.3,0,0.3,0L111.7,38.7z M108.1,37.6
				c0.1,0,0.3-0.1,0.4-0.2v-0.6c-0.2,0-0.4,0.1-0.6,0.2c-0.1,0-0.2,0.1-0.2,0.3C107.7,37.3,107.9,37.6,108.1,37.6z"/>
			<path class="st0" d="M112.2,33.7h2.3l0.2,0.7l0.1,0c0.5-0.6,1.2-0.8,1.7-0.8c0.7,0,1.3,0.3,1.6,0.9l0.1,0
				c0.5-0.7,1.3-0.9,1.8-0.9c1.1,0,1.8,0.6,1.8,2v3.3h-2.6v-2.8c0-0.4-0.2-0.6-0.4-0.6c-0.2,0-0.5,0.1-0.6,0.5v2.9h-2.5v-2.8
				c0-0.4-0.1-0.6-0.4-0.6c-0.2,0-0.5,0.1-0.6,0.5v2.9h-2.6V33.7z"/>
			<path class="st0" d="M123.7,30.5c0.8,0,1.3,0.5,1.3,1.2c0,0.7-0.5,1.2-1.3,1.2c-0.8,0-1.3-0.5-1.3-1.2
				C122.4,31,122.9,30.5,123.7,30.5z M122.4,33.7h2.6v5.2h-2.6V33.7z"/>
			<path class="st0" d="M125.7,31.6h2.5v7.3h-2.5V31.6z"/>
			<path class="st0" d="M135.4,36.2c0,2.1-1.2,2.8-2.7,2.8c-0.5,0-0.8-0.1-1-0.2v2.3h-2.5v-7.4h2.1l0.2,0.6l0.1,0
				c0.4-0.5,0.8-0.7,1.5-0.7C134.5,33.6,135.4,34.7,135.4,36.2z M131.6,35.7v1.4c0.1,0.1,0.2,0.2,0.5,0.2c0.5,0,0.7-0.5,0.7-1
				c0-0.6-0.2-1-0.6-1C132,35.3,131.7,35.5,131.6,35.7z"/>
			<path class="st0" d="M142.3,38.7c-0.9,0.2-1.5,0.3-1.9,0.3c-0.7,0-1.1-0.2-1.2-0.7l-0.1,0c-0.6,0.5-1.1,0.8-1.8,0.8
				c-0.8,0-1.7-0.6-1.7-1.5c0-0.7,0.4-1,1.2-1.2c0.7-0.2,1.7-0.4,2.2-0.5v-0.1c0-0.3-0.1-0.5-0.6-0.5c-0.6,0-1.3,0.1-2.1,0.4
				l-0.4-1.4c0.9-0.5,2.1-0.7,2.8-0.7c1,0,2.9,0.1,2.9,2.2v1.3c0,0.2,0.1,0.2,0.2,0.2c0.2,0,0.3,0,0.3,0L142.3,38.7z M138.8,37.6
				c0.1,0,0.3-0.1,0.4-0.2v-0.6c-0.2,0-0.4,0.1-0.6,0.2c-0.1,0-0.2,0.1-0.2,0.3C138.3,37.3,138.5,37.6,138.8,37.6z"/>
			<path class="st0" d="M144.9,39.1c-0.8,0-1.8-0.2-2.3-0.4l0.3-1.6c0.6,0.2,1.4,0.4,2.2,0.4c0.2,0,0.4,0,0.4-0.1
				c0-0.4-2.8,0.1-2.8-1.9c0-1.5,1.4-1.8,2.8-1.8c0.9,0,1.7,0.2,2.1,0.3l-0.3,1.5c-0.4-0.2-1.1-0.3-1.7-0.3c-0.3,0-0.4,0-0.4,0.1
				c0,0.4,2.6-0.1,2.6,2C147.8,38.6,146.3,39.1,144.9,39.1z"/>
			<path class="st0" d="M148.1,35.4l4-0.2v1.5l-4,0.2V35.4z"/>
			<path class="st0" d="M155.5,37.1v1.9h-2.7v-7.1h3.7c2,0,2.9,0.9,2.9,2.5c0,1.7-1.2,2.8-3.3,2.8C155.9,37.1,155.7,37.1,155.5,37.1
				z M155.5,35.1c0.1,0,0.2,0,0.4,0c0.6,0,0.9-0.3,0.9-0.8c0-0.5-0.3-0.6-0.9-0.6h-0.4V35.1z"/>
			<path class="st0" d="M165.5,38.6c-0.8,0.3-1.7,0.5-2.6,0.5c-1.4,0-3.1-0.5-3.1-2.7c0-2.4,1.7-2.8,3.1-2.8c1.4,0,2.8,0.5,2.8,2.5
				c0,0.1,0,0.4,0,0.5h-3.3v0.1c0,0.3,0.1,0.6,1,0.6c0.5,0,1.1-0.1,2-0.3L165.5,38.6z M163.3,35.7c0-0.4-0.2-0.6-0.4-0.6
				c-0.3,0-0.5,0.2-0.5,0.6H163.3z"/>
			<path class="st0" d="M166,36.5c0-2.1,1.4-2.9,2.7-2.9c0.5,0,0.8,0.1,1,0.2v-2.2h2.5v7.3H170l-0.2-0.6l-0.1,0
				c-0.4,0.5-0.8,0.7-1.5,0.7C166.9,39.1,166,38,166,36.5z M169.7,36.9v-1.4c-0.1-0.1-0.2-0.2-0.5-0.2c-0.5,0-0.7,0.5-0.7,1
				c0,0.6,0.2,1,0.6,1C169.4,37.3,169.6,37.2,169.7,36.9z"/>
			<path class="st0" d="M173.1,38.9v-5.2h2.2l0.2,1.1l0.1,0c0.8-0.9,1.3-1.2,1.8-1.2c0.2,0,0.6,0.1,0.8,0.3l-0.6,2.2
				c-0.2-0.1-0.3-0.1-0.5-0.1c-0.5,0-1.1,0.6-1.4,1v2H173.1z"/>
			<path class="st0" d="M184,38.6c-0.8,0.3-1.7,0.5-2.6,0.5c-1.4,0-3.1-0.5-3.1-2.7c0-2.4,1.7-2.8,3.1-2.8c1.4,0,2.8,0.5,2.8,2.5
				c0,0.1,0,0.4,0,0.5h-3.3v0.1c0,0.3,0.1,0.6,1,0.6c0.5,0,1.1-0.1,2-0.3L184,38.6z M181.8,35.7c0-0.4-0.2-0.6-0.4-0.6
				c-0.3,0-0.5,0.2-0.5,0.6H181.8z"/>
			<path class="st0" d="M187.5,33.6c1.3,0,1.9,0.3,2.3,0.7l0.1,0c0-0.4,0-0.7,0.6-0.7c0.3,0,0.7,0.1,0.9,0.1l-0.1,1.1
				c-0.2,0-0.4,0-0.5,0c-0.5,0-0.5,0.2-0.5,0.4c0,0.1,0,0.2,0,0.3c0,1.1-0.9,1.6-2.6,1.6c-0.2,0-0.3,0-0.5,0
				c-0.2,0.1-0.4,0.2-0.4,0.4c0,0.3,0.3,0.3,0.5,0.3h1.5c1.6,0,2.3,0.5,2.3,1.5c0,1.7-2.5,1.9-3.9,1.9c-0.9,0-2.9,0-2.9-1.3
				c0-0.7,0.6-1,1-1.2v-0.1c-0.5-0.1-0.7-0.4-0.7-0.7c0-0.6,0.7-0.9,1.3-1.1l0-0.1c-0.8-0.2-1.2-0.7-1.2-1.4
				C184.7,34.1,185.9,33.6,187.5,33.6z M187.3,39.1c-0.2,0-0.4,0.1-0.4,0.3c0,0.3,0.5,0.4,0.8,0.4c0.5,0,0.8-0.1,0.8-0.4
				c0-0.1,0-0.3-0.4-0.3H187.3z M187.6,36c0.3,0,0.4-0.2,0.4-0.6c0-0.4-0.1-0.6-0.4-0.6c-0.3,0-0.4,0.2-0.4,0.6
				C187.2,35.6,187.3,36,187.6,36z"/>
			<path class="st0" d="M198.2,38.7c-0.9,0.2-1.5,0.3-1.9,0.3c-0.7,0-1.1-0.2-1.2-0.7l-0.1,0c-0.6,0.5-1.1,0.8-1.8,0.8
				c-0.8,0-1.7-0.6-1.7-1.5c0-0.7,0.4-1,1.2-1.2c0.7-0.2,1.7-0.4,2.2-0.5v-0.1c0-0.3-0.1-0.5-0.6-0.5c-0.6,0-1.3,0.1-2.1,0.4
				l-0.4-1.4c0.9-0.5,2.1-0.7,2.8-0.7c1,0,2.9,0.1,2.9,2.2v1.3c0,0.2,0.1,0.2,0.2,0.2c0.2,0,0.3,0,0.3,0L198.2,38.7z M194.6,37.6
				c0.1,0,0.3-0.1,0.4-0.2v-0.6c-0.2,0-0.4,0.1-0.6,0.2c-0.1,0-0.2,0.1-0.2,0.3C194.2,37.3,194.4,37.6,194.6,37.6z"/>
			<path class="st0" d="M198.7,31.6h2.5v7.3h-2.5V31.6z"/>
		</g>
	</g>
	<g>
		<g>
			<path class="st1" d="M66.5,20.4l-10.4-8.5l-2.1,13.3l2.7-1c1.1,2.8,1.6,5.8,1.6,8.8c0,13.7-11.1,24.8-24.8,24.8
				c-13.7,0-24.8-11.1-24.8-24.8c0-13.7,11.1-24.8,24.8-24.8c6.1,0,11.9,2.2,16.5,6.3L55,8.6c-6-5.3-13.6-8.2-21.6-8.2
				C15.5,0.4,1,15,1,32.9c0,17.9,14.6,32.5,32.5,32.5C51.4,65.4,66,50.8,66,32.9c0-3.9-0.7-7.9-2.1-11.6L66.5,20.4z"/>
			<path class="st2" d="M59.3,29.1c-2.1,0-3.8,1.7-3.8,3.8c0,12.1-9.9,22-22,22c-12.1,0-22-9.9-22-22c0-12.1,9.9-22,22-22
				c4.2,0,8.4,1.2,11.9,3.5L49.5,8c-4.7-3-10.3-4.7-16-4.7C17.1,3.3,3.8,16.6,3.8,33c0,16.4,13.3,29.7,29.7,29.7
				c16.4,0,29.7-13.3,29.7-29.7C63.1,30.8,61.4,29.1,59.3,29.1z"/>
			<circle class="st3" cx="33.5" cy="32.9" r="20.7"/>
		</g>
		<g>
			<defs>
				<circle id="SVGID_1_" cx="33.5" cy="32.9" r="20.7"/>
			</defs>
			<clipPath id="SVGID_2_">
				<use xlink:href="#SVGID_1_"  style="overflow:visible;"/>
			</clipPath>
			<g class="st4">
				<g>
					<path class="st2" d="M32.9,42.2c0.7-1.8,0.2-4.2-0.4-5.8c-0.7-2-1.9-2.5-3.6-3.6c-2.9-2-6.3-4.6-6-8.3c0.1-0.9,0.2-1.7-0.3-2.5
						c1.8,0.4,1,3,1.4,4.2c0.5,1.3,1.6,2.4,2.7,3.4c1.1,1.1,2.3,2,3.7,2.8c0.9,0.6,2.5,2.5,3.5,2.5c4.4-0.2-0.2-7,0.2-8.9
						c0.4-1.9,2.4-2.2,4-2.4c0.9-0.1,1.8-0.1,2.5-0.6c0.6-0.4,0.9-1.3,1.6-1.4c0.2,0,0.3-0.1,0.5-0.1c0.1,1.4-2.4,2.7-3.5,2.9
						c-4.5,0.9-3.7,0.7-3.9,2.3c-0.1,0.7,1.2,1.9,1.2,4.8c0,1.9-0.9,2.6-1.9,4.1c-0.6,1-0.7,2.7,1,1.7c0.8-0.5,0.6-1,1-1.7
						c0.3-0.5,0.8-0.7,1.2-1.2c0.4-0.5,0.4-0.8,0.5-1.5c0.1-0.5,0.5-1.3,0.6-1.7c0.2-1,1.1-1.9,1.9-2.4c-0.9,1.4-1.3,2-1.5,3.7
						c-0.1,1.3-0.5,2.5-1.5,3.6c-0.8,0.9-2.3,1.5-2.9,2.5c-0.5,0.8-0.2,3.3,0.3,3.9"/>
					<path class="st2" d="M24,25.4c0,1.1-0.9,1.9-1.9,1.9c-1.1,0-1.9-0.9-1.9-1.9c0-1.1,0.9-1.9,1.9-1.9C23.1,23.5,24,24.3,24,25.4"
						/>
					<path class="st2" d="M22.8,20.5c0,1.1-0.9,1.9-1.9,1.9c-1.1,0-1.9-0.9-1.9-1.9c0-1.1,0.9-1.9,1.9-1.9
						C21.9,18.6,22.8,19.5,22.8,20.5"/>
					<path class="st2" d="M27.6,23.1c0,1.1-0.9,1.9-1.9,1.9c-1.1,0-1.9-0.9-1.9-1.9c0-1.1,0.9-1.9,1.9-1.9
						C26.8,21.2,27.6,22,27.6,23.1"/>
					<path class="st2" d="M39.5,24.2c0,1.1-0.9,1.9-1.9,1.9c-1.1,0-1.9-0.9-1.9-1.9c0-1.1,0.9-1.9,1.9-1.9
						C38.7,22.3,39.5,23.2,39.5,24.2"/>
					<path class="st2" d="M29.3,32.3c0,1.1-0.9,1.9-1.9,1.9c-1.1,0-1.9-0.9-1.9-1.9c0-1.1,0.9-1.9,1.9-1.9
						C28.5,30.4,29.3,31.3,29.3,32.3"/>
					<path class="st2" d="M39.1,21.8c-0.8-2.3,2.3-2.8,2.9-4.3c-0.3,1-0.3,2.6-0.8,3.5c-0.6,1.1-1.8,1.2-2.2,2.5
						c0.2-0.6,0.6-1.5,0-1.9"/>
					<path class="st2" d="M40.8,33.4c1.2,0,1.7,1.2,2.3,2c0.7,0.9,1.8,0.8,2.5,1.7l0,0c-0.2-1.6-0.2-2.7-1.9-3.4
						c-1.5-0.6-3-0.1-4.5-1"/>
					<path class="st2" d="M27,33c-0.9,0.9-2.1,0.6-3.2,1.1c-0.8,0.4-1.8,1.5-2.1,2.2c1.1-1,2.9-0.1,4-1.1c0.6-0.6,0.4-1.4,0.8-1.9
						c0.4-0.5,1.2-0.9,1.5-1.1"/>
					<path class="st2" d="M27.8,30.6c0.6-1.6,3.5-0.9,4,0.5c1.1-1.4,0-2.3-1.5-2.3c-0.7,0-1.4,0.1-2,0.6c-0.6,0.5-0.5,1.2-0.8,1.7"
						/>
					<path class="st2" d="M35.8,24c-1.1-0.7-1.1-1.4-0.6-2.5c0.4-0.9,0-2,0.9-2.6c-1.3,0.1-1.7,1-1.7,2.3c0,1.4,0.6,2.1,1.4,3.2"/>
				</g>
				<g>
					<path class="st2" d="M36.4,50.9c-0.1,0-0.2-0.1-0.2-0.1c-0.4-0.1-0.7-0.3-1.1-0.3h0c-0.5,0-0.9,0.2-1.3,0.4
						c-0.2,0.1-0.4,0.2-0.6,0.3c-0.3,0.1-0.6-0.1-1-0.3c-0.4-0.2-1-0.6-1.7-0.3c-0.1-0.3-0.1-0.6-0.1-0.9l0.1,0.1
						c0.4-0.4,0.7-0.3,1.3,0c0.4,0.2,0.8,0.4,1.3,0.4c0.2,0,0.3,0,0.5-0.1c0.3-0.1,0.5-0.2,0.8-0.4c0.3-0.2,0.6-0.3,0.8-0.3
						c0.2,0,0.5,0.1,0.8,0.3c0.3,0.1,0.5,0.2,0.8,0.3C36.6,50.3,36.5,50.6,36.4,50.9 M33.3,52.9c-1.1,0-2-0.6-2.5-1.4
						c0.2,0,0.5,0.1,0.8,0.3c0.4,0.2,0.8,0.4,1.3,0.4c0.2,0,0.3,0,0.5-0.1c0.3-0.1,0.5-0.2,0.8-0.4c0.3-0.2,0.6-0.3,0.8-0.3
						c0.2,0,0.5,0.1,0.8,0.3l0.1,0C35.2,52.5,34.3,52.9,33.3,52.9 M33.5,46.5c1.5,0.1,2.7,1.1,3,2.5c-0.1,0-0.2-0.1-0.3-0.1
						c-0.4-0.2-0.7-0.3-1.1-0.3h0c-0.5,0-0.9,0.2-1.3,0.4c-0.2,0.1-0.4,0.2-0.6,0.3c-0.3,0.1-0.6-0.1-1-0.3c-0.4-0.2-1-0.5-1.7-0.4
						C30.9,47.3,32.1,46.5,33.5,46.5 M33.8,43.7c-3.3-0.1-6.1,2.5-6.2,5.8c-0.1,3.3,2.5,6.1,5.8,6.2c3.3,0.1,6.1-2.5,6.2-5.8
						C39.7,46.6,37.1,43.8,33.8,43.7"/>
					<path class="st2" d="M33.4,56.1C29.8,56,27,53,27.2,49.5c0.1-3.6,3.1-6.3,6.7-6.2c3.6,0.1,6.3,3.1,6.2,6.7
						C39.9,53.5,36.9,56.2,33.4,56.1 M33.7,41.4c-4.6-0.2-8.4,3.4-8.6,8c-0.2,4.6,3.4,8.4,8,8.6c4.6,0.2,8.4-3.4,8.6-8
						C41.9,45.4,38.3,41.5,33.7,41.4"/>
				</g>
				<g>
					<g>
						<path class="st2" d="M25.6,51.5c-0.2,0.1-0.4,0.1-0.5,0.1c-0.1,0-0.3,0-0.5-0.1c-0.3-0.1-0.6-0.3-1-0.5
							c-0.4-0.2-0.8-0.4-1.3-0.6c-0.4-0.1-0.7-0.1-1.1-0.1c-0.7,0-1.3,0.1-1.8,0.2c-0.5,0.1-1,0.3-1.5,0.4c-0.5,0.1-1,0.2-1.4,0.1
							c-0.7,0-1.4-0.2-2.4-0.3c-0.2,0-0.4,0-0.6,0c-0.9,0-1.6,0.2-2.3,0.4c-0.6,0.2-1.2,0.3-1.7,0.3l-0.1,0l0,0.5l0-0.5
							c-0.4,0-0.8-0.1-1.2-0.2c-0.4-0.1-0.9-0.2-1.4-0.3c-0.2,0-0.4-0.1-0.6-0.1c-0.5,0-0.8,0.1-1.2,0.1c-0.3,0.1-0.7,0.2-1,0.2
							c-0.3,0.1-0.5,0.1-0.6,0.1c-0.2,0-0.2,0-0.4-0.1c-0.2-0.1-0.4-0.2-0.7-0.4c-0.3-0.2-0.7-0.2-1.1-0.3c-0.4,0-0.8,0.1-1,0.1
							C0,50.9-0.3,51-0.5,51l0.1,1c0.4,0,0.8-0.1,1-0.2c0.3-0.1,0.4-0.1,0.6-0.1c0.1,0,0.2,0,0.4,0.1c0.3,0.1,0.5,0.3,0.8,0.4
							c0.3,0.1,0.6,0.2,1,0.2c0.3,0,0.6,0,1-0.1c0.4-0.1,0.8-0.2,1.1-0.2C5.7,52,5.9,52,6.2,52c0.1,0,0.2,0,0.4,0
							c0.4,0.1,0.8,0.2,1.3,0.2c0.5,0.1,1,0.2,1.5,0.2l0,0h0h0.1c0.9,0,1.6-0.2,2.2-0.4c0.6-0.2,1.2-0.3,1.7-0.3c0.1,0,0.2,0,0.4,0
							c0.9,0.1,1.7,0.3,2.6,0.3c0.6,0,1.2,0,1.8-0.2c0.6-0.1,1.1-0.3,1.6-0.4c0.5-0.1,0.9-0.2,1.3-0.2c0.2,0,0.4,0,0.7,0.1
							c0.4,0.1,0.8,0.3,1.3,0.6c0.3,0.1,0.5,0.3,0.8,0.4c0.3,0.1,0.6,0.2,1,0.2c0.4,0,0.9-0.1,1.3-0.3L25.6,51.5z"/>
						<path class="st2" d="M25.7,50c-0.2,0.1-0.4,0.1-0.5,0.1c-0.1,0-0.3,0-0.5-0.1c-0.3-0.1-0.6-0.3-1-0.5
							c-0.4-0.2-0.8-0.4-1.3-0.6c-0.4-0.1-0.7-0.1-1.1-0.2c-0.7,0-1.3,0.1-1.8,0.2c-0.5,0.1-1,0.3-1.5,0.4c-0.6,0.1-1,0.2-1.4,0.1
							c-0.7,0-1.4-0.2-2.4-0.3c-0.2,0-0.4,0-0.6,0c-0.9,0-1.6,0.2-2.3,0.4c-0.6,0.2-1.2,0.3-1.7,0.3l-0.1,0l0,0.5l0-0.5
							c-0.3,0-0.8-0.1-1.2-0.2c-0.4-0.1-0.9-0.2-1.4-0.3c-0.2,0-0.4-0.1-0.6-0.1c-0.5,0-0.8,0-1.2,0.1c-0.3,0.1-0.7,0.2-1,0.2
							c-0.3,0.1-0.5,0.1-0.6,0.1c-0.2,0-0.2,0-0.4-0.1c-0.2-0.1-0.4-0.2-0.7-0.4c-0.3-0.2-0.7-0.2-1.1-0.3c-0.4,0-0.8,0.1-1,0.1
							c-0.3,0.1-0.5,0.1-0.8,0.1l0.1,1c0.4,0,0.8-0.1,1-0.2c0.3-0.1,0.4-0.1,0.6-0.1c0.1,0,0.2,0,0.4,0.1c0.3,0.1,0.5,0.3,0.8,0.4
							c0.3,0.1,0.6,0.2,1,0.2c0.3,0,0.6,0,1-0.1c0.5-0.1,0.8-0.2,1.1-0.2c0.3-0.1,0.5-0.1,0.8-0.1c0.1,0,0.2,0,0.4,0
							c0.4,0.1,0.8,0.2,1.3,0.2c0.5,0.1,1,0.2,1.5,0.2h0l0,0l0.1,0c0.9,0,1.6-0.2,2.2-0.4c0.6-0.2,1.2-0.3,1.7-0.3
							c0.1,0,0.2,0,0.4,0c0.9,0.1,1.7,0.3,2.6,0.3c0.6,0,1.2,0,1.8-0.2c0.6-0.1,1.1-0.3,1.6-0.4c0.5-0.1,0.9-0.2,1.3-0.2
							c0.2,0,0.4,0,0.7,0.1c0.4,0.1,0.8,0.4,1.3,0.6c0.3,0.1,0.5,0.3,0.8,0.4c0.3,0.1,0.6,0.2,1,0.2c0.4,0,0.9-0.1,1.3-0.3L25.7,50z
							"/>
						<path class="st2" d="M25.8,48.5c-0.2,0.1-0.4,0.1-0.5,0.1c-0.1,0-0.3,0-0.5-0.1c-0.3-0.1-0.6-0.3-1-0.5
							c-0.4-0.2-0.8-0.4-1.3-0.6c-0.4-0.1-0.7-0.1-1.1-0.2c-0.7,0-1.3,0.1-1.8,0.2c-0.5,0.1-1,0.3-1.5,0.4c-0.6,0.1-1,0.2-1.4,0.1
							c-0.7,0-1.4-0.2-2.4-0.3c-0.2,0-0.4,0-0.6,0c-0.9,0-1.6,0.2-2.3,0.4c-0.6,0.2-1.2,0.3-1.7,0.3l-0.1,0l0,0.5l0-0.5
							c-0.3,0-0.8-0.1-1.2-0.2C7.9,48.2,7.5,48.1,7,48c-0.2,0-0.4,0-0.6-0.1c-0.5,0-0.8,0.1-1.2,0.1c-0.3,0.1-0.6,0.2-1,0.2
							c-0.3,0.1-0.5,0.1-0.6,0.1c-0.2,0-0.2,0-0.4-0.1c-0.2-0.1-0.4-0.2-0.7-0.4c-0.3-0.2-0.7-0.2-1.1-0.3c-0.4,0-0.8,0.1-1,0.1
							c-0.3,0.1-0.5,0.1-0.8,0.1l0.1,1c0.4,0,0.8-0.1,1-0.2c0.3-0.1,0.4-0.1,0.6-0.1c0.1,0,0.2,0,0.4,0.1c0.3,0.1,0.5,0.3,0.8,0.4
							c0.2,0.1,0.6,0.2,1,0.2c0.3,0,0.6,0,0.9-0.1C5,49.2,5.3,49.1,5.6,49c0.3-0.1,0.5-0.1,0.8-0.1c0.1,0,0.2,0,0.4,0
							c0.4,0.1,0.8,0.2,1.3,0.2c0.5,0.1,1,0.2,1.5,0.2h0h0l0.1,0c0.9,0,1.6-0.2,2.2-0.4c0.6-0.2,1.2-0.3,1.7-0.3c0.1,0,0.2,0,0.4,0
							c0.9,0.1,1.7,0.3,2.6,0.3c0.6,0,1.2,0,1.8-0.2c0.6-0.1,1.1-0.3,1.6-0.4c0.5-0.1,0.9-0.2,1.3-0.2c0.2,0,0.4,0,0.7,0.1
							c0.4,0.1,0.8,0.4,1.3,0.6c0.3,0.1,0.5,0.3,0.8,0.4c0.3,0.1,0.6,0.2,1,0.2c0.4,0,0.9-0.1,1.3-0.3L25.8,48.5z"/>
					</g>
					<g>
						<path class="st2" d="M41.3,51.5c0.2,0.1,0.4,0.1,0.5,0.1c0.1,0,0.3,0,0.5-0.1c0.3-0.1,0.6-0.3,1-0.5c0.4-0.2,0.8-0.4,1.3-0.6
							c0.4-0.1,0.7-0.1,1.1-0.1c0.7,0,1.3,0.1,1.8,0.2c0.5,0.1,1,0.3,1.5,0.4c0.5,0.1,1,0.2,1.4,0.1c0.7,0,1.4-0.2,2.4-0.3
							c0.2,0,0.4,0,0.6,0c0.9,0,1.6,0.2,2.3,0.4c0.6,0.2,1.2,0.3,1.7,0.3l0.1,0l0,0.5l0-0.5c0.4,0,0.8-0.1,1.2-0.2
							c0.4-0.1,0.9-0.2,1.4-0.3c0.2,0,0.4-0.1,0.6-0.1c0.5,0,0.8,0.1,1.2,0.1c0.3,0.1,0.7,0.2,1,0.2c0.3,0.1,0.5,0.1,0.6,0.1
							c0.2,0,0.2,0,0.4-0.1c0.2-0.1,0.4-0.2,0.7-0.4c0.3-0.2,0.7-0.2,1.1-0.3c0.4,0,0.8,0.1,1,0.1c0.3,0.1,0.5,0.1,0.8,0.1l-0.1,1
							c-0.4,0-0.8-0.1-1-0.2c-0.3-0.1-0.4-0.1-0.6-0.1c-0.1,0-0.2,0-0.4,0.1c-0.3,0.1-0.5,0.3-0.8,0.4c-0.3,0.1-0.6,0.2-1,0.2
							c-0.3,0-0.6,0-1-0.1c-0.4-0.1-0.8-0.2-1.1-0.2C61.2,52,61,52,60.7,52c-0.1,0-0.2,0-0.4,0c-0.4,0.1-0.8,0.2-1.3,0.2
							c-0.5,0.1-1,0.2-1.5,0.2l0,0h0h-0.1c-0.9,0-1.6-0.2-2.2-0.4c-0.6-0.2-1.2-0.3-1.7-0.3c-0.1,0-0.2,0-0.4,0
							c-0.9,0.1-1.7,0.3-2.6,0.3c-0.6,0-1.2,0-1.8-0.2c-0.6-0.1-1.1-0.3-1.6-0.4c-0.5-0.1-0.9-0.2-1.3-0.2c-0.2,0-0.4,0-0.7,0.1
							c-0.4,0.1-0.8,0.3-1.3,0.6c-0.3,0.1-0.5,0.3-0.8,0.4c-0.3,0.1-0.6,0.2-1,0.2c-0.4,0-0.9-0.1-1.3-0.3L41.3,51.5z"/>
						<path class="st2" d="M41.2,50c0.2,0.1,0.4,0.1,0.5,0.1c0.1,0,0.3,0,0.5-0.1c0.3-0.1,0.6-0.3,1-0.5c0.4-0.2,0.8-0.4,1.3-0.6
							c0.4-0.1,0.7-0.1,1.1-0.2c0.7,0,1.3,0.1,1.8,0.2c0.5,0.1,1,0.3,1.5,0.4c0.6,0.1,1,0.2,1.4,0.1c0.7,0,1.4-0.2,2.4-0.3
							c0.2,0,0.4,0,0.6,0c0.9,0,1.6,0.2,2.3,0.4c0.6,0.2,1.2,0.3,1.7,0.3l0.1,0l0,0.5l0-0.5c0.3,0,0.8-0.1,1.2-0.2
							c0.4-0.1,0.9-0.2,1.4-0.3c0.2,0,0.4-0.1,0.6-0.1c0.5,0,0.8,0,1.2,0.1c0.3,0.1,0.7,0.2,1,0.2c0.3,0.1,0.5,0.1,0.6,0.1
							c0.2,0,0.2,0,0.4-0.1c0.1-0.1,0.4-0.2,0.7-0.4c0.3-0.2,0.7-0.2,1.1-0.3c0.4,0,0.8,0.1,1,0.1c0.3,0.1,0.5,0.1,0.8,0.1l-0.1,1
							c-0.4,0-0.8-0.1-1-0.2c-0.3-0.1-0.4-0.1-0.6-0.1c-0.1,0-0.2,0-0.4,0.1c-0.3,0.1-0.5,0.3-0.8,0.4c-0.3,0.1-0.6,0.2-1,0.2
							c-0.3,0-0.6,0-1-0.1c-0.5-0.1-0.8-0.2-1.1-0.2c-0.3-0.1-0.5-0.1-0.8-0.1c-0.1,0-0.2,0-0.4,0c-0.4,0.1-0.8,0.2-1.3,0.2
							c-0.5,0.1-1,0.2-1.5,0.2h0l0,0l-0.1,0c-0.9,0-1.6-0.2-2.2-0.4c-0.6-0.2-1.2-0.3-1.7-0.3c-0.1,0-0.2,0-0.4,0
							c-0.9,0.1-1.7,0.3-2.6,0.3c-0.6,0-1.2,0-1.8-0.2c-0.6-0.1-1.1-0.3-1.6-0.4c-0.5-0.1-0.9-0.2-1.3-0.2c-0.2,0-0.4,0-0.7,0.1
							c-0.4,0.1-0.8,0.4-1.3,0.6c-0.3,0.1-0.5,0.3-0.8,0.4c-0.3,0.1-0.6,0.2-1,0.2c-0.4,0-0.9-0.1-1.3-0.3L41.2,50z"/>
						<path class="st2" d="M41.1,48.5c0.2,0.1,0.4,0.1,0.5,0.1c0.1,0,0.3,0,0.5-0.1c0.3-0.1,0.6-0.3,1-0.5c0.4-0.2,0.8-0.4,1.3-0.6
							c0.4-0.1,0.7-0.1,1.1-0.2c0.7,0,1.3,0.1,1.8,0.2c0.5,0.1,1,0.3,1.5,0.4c0.6,0.1,1,0.2,1.4,0.1c0.7,0,1.4-0.2,2.4-0.3
							c0.2,0,0.4,0,0.6,0c0.9,0,1.6,0.2,2.3,0.4c0.6,0.2,1.2,0.3,1.7,0.3l0.1,0l0,0.5l0-0.5c0.3,0,0.8-0.1,1.2-0.2
							c0.4-0.1,0.9-0.2,1.4-0.3c0.2,0,0.4,0,0.6-0.1c0.5,0,0.8,0.1,1.2,0.1c0.3,0.1,0.6,0.2,1,0.2c0.3,0.1,0.5,0.1,0.6,0.1
							c0.2,0,0.2,0,0.4-0.1c0.2-0.1,0.4-0.2,0.7-0.4c0.3-0.2,0.7-0.2,1.1-0.3c0.4,0,0.8,0.1,1,0.1c0.3,0.1,0.5,0.1,0.8,0.1l-0.1,1
							c-0.4,0-0.8-0.1-1-0.2c-0.3-0.1-0.4-0.1-0.6-0.1c-0.1,0-0.2,0-0.4,0.1c-0.3,0.1-0.5,0.3-0.8,0.4c-0.2,0.1-0.6,0.2-1,0.2
							c-0.3,0-0.6,0-0.9-0.1c-0.5-0.1-0.8-0.2-1.1-0.2c-0.3-0.1-0.5-0.1-0.8-0.1c-0.1,0-0.2,0-0.4,0c-0.4,0.1-0.8,0.2-1.3,0.2
							c-0.5,0.1-1,0.2-1.5,0.2h0h0l-0.1,0c-0.9,0-1.6-0.2-2.3-0.4c-0.6-0.2-1.2-0.3-1.7-0.3c-0.1,0-0.2,0-0.4,0
							c-0.9,0.1-1.7,0.3-2.6,0.3c-0.6,0-1.2,0-1.8-0.2c-0.6-0.1-1.1-0.3-1.6-0.4c-0.5-0.1-0.9-0.2-1.3-0.2c-0.2,0-0.4,0-0.7,0.1
							c-0.4,0.1-0.8,0.4-1.3,0.6c-0.3,0.1-0.5,0.3-0.8,0.4c-0.3,0.1-0.6,0.2-1,0.2c-0.4,0-0.9-0.1-1.3-0.3L41.1,48.5z"/>
					</g>
				</g>
			</g>
		</g>
	</g>
</g>
</svg>
