<?xml version="1.0" encoding="utf-8"?>
<!-- Generator: Adobe Illustrator 21.0.0, SVG Export Plug-In . SVG Version: 6.00 Build 0)  -->
<svg version="1.1" id="Capa_16" xmlns="http://www.w3.org/2000/svg" xmlns:xlink="http://www.w3.org/1999/xlink" x="0px" y="0px"
	 viewBox="0 0 101.9 33.9" style="enable-background:new 0 0 101.9 33.9;" xml:space="preserve">
<style type="text/css">
	.st0{fill:#B4B3B9;}
	.st1{fill:#008375;}
	.st2{fill:#FFFFFF;}
	.st3{clip-path:url(#SVGID_2_);}
</style>
<g>
	<g>
		<g>
			<path class="st0" d="M34.4,10.7L29,6.4l-1.1,6.8l1.4-0.5c0.6,1.4,0.8,3,0.8,4.5c0,7-5.7,12.8-12.8,12.8S4.6,24.2,4.6,17.2
				S10.3,4.4,17.4,4.4c3.1,0,6.1,1.1,8.5,3.2l2.6-3c-3.1-2.7-7-4.2-11.1-4.2C8.2,0.5,0.6,8,0.6,17.2c0,9.2,7.5,16.7,16.7,16.7
				s16.7-7.5,16.7-16.7c0-2-0.4-4.1-1.1-5.9L34.4,10.7z"/>
			<path class="st1" d="M30.7,15.2c-1.1,0-2,0.9-2,2c0,6.2-5.1,11.3-11.3,11.3c-6.2,0-11.3-5.1-11.3-11.3c0-6.2,5.1-11.3,11.3-11.3
				c2.2,0,4.3,0.6,6.1,1.8l2.1-3.3c-2.4-1.6-5.3-2.4-8.2-2.4C9,1.9,2.1,8.8,2.1,17.2c0,8.4,6.9,15.3,15.3,15.3
				c8.4,0,15.3-6.9,15.3-15.3C32.7,16.1,31.8,15.2,30.7,15.2z"/>
			<circle class="st2" cx="17.4" cy="17.2" r="10.7"/>
		</g>
		<g>
			<defs>
				<circle id="SVGID_1_" cx="17.4" cy="17.2" r="10.7"/>
			</defs>
			<clipPath id="SVGID_2_">
				<use xlink:href="#SVGID_1_"  style="overflow:visible;"/>
			</clipPath>
			<g class="st3">
				<path class="st1" d="M23.7,11.8H11.1v2c0,0,2.6-0.4,2.7,1.9v3.4H0.4l-1.2,2.7h17L15,19.2h-0.1l0.1-2.9c0,0,0.3-2.6,2.3-2.6
					c2,0,2.1,2.2,2.1,2.2v0h-0.3v0.3h0.3v2.9H19V23h2.4v-3.8H21l0.1-2.7c0,0,0-0.1,0-0.2h0.2v-0.3h-0.1c0.2-0.8,0.8-2.1,2.2-2.1
					c1.7,0,2.1,1.6,2.1,2.1h-0.3v0.3h0.3v3H25V23h2.4v-3.8H27l-0.1-0.1l0.1-2.5l0,0v-0.4h0.3v-0.3H27v-0.1c0.2-0.7,0.7-2.2,2.2-2.2
					c2,0,2.1,2.2,2.1,2.2v0H31v0.3h0.3v2.9h-0.5V23h2.4v-3.8h-0.4v0L32.7,19l0.1-2.6l0.2-0.2h0.1v-0.3h-0.3c0.1-0.1,1-2.3,2.8-2.3
					v-1.9H23.7z"/>
				<g>
					<rect x="4.8" y="20.3" class="st2" width="5.7" height="0.5"/>
					<rect x="5" y="19.6" class="st2" width="5.4" height="0.5"/>
					<rect x="4.7" y="21.1" class="st2" width="6" height="0.5"/>
				</g>
			</g>
		</g>
	</g>
	<g>
		<g>
			<g>
				<path d="M39.9,13.1V14h-1.2v-3.3h1.7c0.9,0,1.3,0.4,1.3,1.1c0,0.8-0.6,1.3-1.5,1.3C40.1,13.1,40,13.1,39.9,13.1z M39.9,12.2
					c0.1,0,0.1,0,0.2,0c0.3,0,0.4-0.1,0.4-0.3c0-0.2-0.2-0.3-0.4-0.3h-0.2V12.2z"/>
				<path d="M42,10.6h1.2V14H42V10.6z"/>
				<path d="M46.5,13.9C46.1,14,45.9,14,45.7,14c-0.3,0-0.5-0.1-0.6-0.3l0,0c-0.3,0.2-0.5,0.3-0.8,0.3c-0.4,0-0.8-0.3-0.8-0.7
					c0-0.3,0.2-0.5,0.6-0.6c0.3-0.1,0.8-0.2,1-0.2v0c0-0.1-0.1-0.2-0.3-0.2c-0.3,0-0.6,0.1-1,0.2l-0.2-0.7c0.4-0.2,1-0.3,1.3-0.3
					c0.5,0,1.3,0,1.3,1v0.6c0,0.1,0,0.1,0.1,0.1c0.1,0,0.1,0,0.1,0L46.5,13.9z M44.9,13.3c0,0,0.1,0,0.2-0.1V13
					C45,13,44.9,13,44.8,13c-0.1,0-0.1,0.1-0.1,0.1C44.7,13.2,44.8,13.3,44.9,13.3z"/>
				<path d="M46.8,11.6h1.1l0.1,0.3l0,0c0.2-0.3,0.6-0.4,0.8-0.4c0.5,0,0.8,0.3,0.8,0.9V14h-1.2v-1.3c0-0.2-0.1-0.3-0.2-0.3
					c-0.1,0-0.2,0.1-0.3,0.2V14h-1.2V11.6z"/>
				<path d="M49.8,11.6h0.4l0.2-0.7h0.9v0.7H52L52,12.3h-0.7v0.5c0,0.2,0,0.3,0.2,0.3c0.1,0,0.3,0,0.5-0.1l0.2,0.9
					C51.7,14,51.4,14,51.1,14c-0.6,0-0.9-0.3-0.9-1v-0.7h-0.4V11.6z"/>
				<path d="M54.9,13.8c-0.4,0.1-0.8,0.2-1.2,0.2c-0.6,0-1.4-0.2-1.4-1.2c0-1.1,0.8-1.3,1.4-1.3c0.7,0,1.3,0.2,1.3,1.2
					c0,0.1,0,0.2,0,0.2h-1.5v0c0,0.1,0.1,0.3,0.4,0.3c0.2,0,0.5,0,0.9-0.2L54.9,13.8z M53.9,12.4c0-0.2-0.1-0.3-0.2-0.3
					c-0.1,0-0.2,0.1-0.2,0.3H53.9z"/>
				<path d="M55.2,10.6h1.2V14h-1.2V10.6z"/>
			</g>
			<path d="M58.1,13.1h0.8v-1.2l-0.8,0v-0.8c0.6-0.1,1.1-0.2,1.6-0.3h0.5v2.3h0.8V14h-2.8V13.1z"/>
			<path d="M62.6,12.1L62.6,12.1c0.2-0.1,0.3-0.1,0.6-0.1c0.5,0,1,0.2,1,0.9c0,0.7-0.6,1.1-1.4,1.1c-0.7,0-1.4-0.3-1.4-1.4
				c0-1.2,1.2-1.8,2.4-1.9l0.2,0.8C63.4,11.7,62.8,11.8,62.6,12.1z M62.4,12.8c0,0.2,0.1,0.4,0.3,0.4c0.2,0,0.3-0.1,0.3-0.3
				c0-0.2-0.1-0.3-0.3-0.3C62.6,12.7,62.5,12.7,62.4,12.8z"/>
		</g>
		<g>
			<path d="M39.7,17.3h-1.1v-1h3.5v1h-1.1V20h-1.4V17.3z"/>
			<path d="M42.5,16.2h1.3V20h-1.3V16.2z"/>
			<path d="M47.5,19.9c-0.4,0.1-0.8,0.2-1,0.2c-0.4,0-0.5-0.1-0.6-0.4l0,0c-0.3,0.3-0.6,0.4-0.9,0.4c-0.4,0-0.9-0.3-0.9-0.8
				c0-0.4,0.2-0.5,0.6-0.6c0.3-0.1,0.9-0.2,1.1-0.2v0c0-0.1-0.1-0.2-0.3-0.2c-0.3,0-0.7,0.1-1.1,0.2l-0.2-0.7
				c0.5-0.2,1.1-0.4,1.4-0.4c0.5,0,1.5,0.1,1.5,1.1V19c0,0.1,0,0.1,0.1,0.1c0.1,0,0.1,0,0.1,0L47.5,19.9z M45.1,16.7l0.8-1.4
				l0.8,0.5l-1.1,1.2L45.1,16.7z M45.6,19.3c0.1,0,0.1,0,0.2-0.1v-0.3c-0.1,0-0.2,0.1-0.3,0.1c-0.1,0-0.1,0.1-0.1,0.1
				C45.4,19.2,45.5,19.3,45.6,19.3z"/>
			<path d="M47.7,16.2H49v1l0,0.5l0,0c0.2-0.2,0.5-0.4,0.8-0.4c0.7,0,1,0.4,1,1.2V20h-1.3v-1.4c0-0.3-0.1-0.3-0.2-0.3
				c-0.1,0-0.2,0.1-0.3,0.2V20h-1.3V16.2z"/>
			<path d="M54.4,20h-1.1l-0.1-0.3l0,0c-0.2,0.2-0.6,0.4-0.9,0.4c-0.5,0-0.9-0.3-0.9-1v-1.7h1.3v1.5c0,0.2,0.1,0.3,0.2,0.3
				c0.1,0,0.3-0.1,0.3-0.2v-1.7h1.3V20z"/>
			<path d="M58.1,19.9c-0.4,0.1-0.8,0.2-1,0.2c-0.4,0-0.5-0.1-0.6-0.4l0,0c-0.3,0.3-0.6,0.4-0.9,0.4c-0.4,0-0.9-0.3-0.9-0.8
				c0-0.4,0.2-0.5,0.6-0.6c0.3-0.1,0.9-0.2,1.1-0.2v0c0-0.1-0.1-0.2-0.3-0.2c-0.3,0-0.7,0.1-1.1,0.2l-0.2-0.7
				c0.5-0.2,1.1-0.4,1.4-0.4c0.5,0,1.5,0.1,1.5,1.1V19c0,0.1,0,0.1,0.1,0.1c0.1,0,0.1,0,0.1,0L58.1,19.9z M56.3,19.3
				c0.1,0,0.1,0,0.2-0.1v-0.3c-0.1,0-0.2,0.1-0.3,0.1C56.1,19,56,19,56,19.1C56,19.2,56.1,19.3,56.3,19.3z"/>
			<path d="M58.3,18.7c0-0.8,0.3-1.4,1.5-1.4c0.4,0,0.8,0.1,1.1,0.2l-0.2,0.9c-0.2-0.1-0.4-0.1-0.6-0.1c-0.2,0-0.4,0.1-0.4,0.4
				c0,0.2,0,0.4,0.4,0.4c0.2,0,0.4-0.1,0.6-0.1l0.2,0.9c-0.2,0.1-0.6,0.2-1.1,0.2C58.8,20.1,58.3,19.6,58.3,18.7z"/>
		</g>
		<g>
			<path d="M39.3,22.8c-0.1,0.2-0.2,0.3-0.2,0.5c0,0.1,0.1,0.3,0.2,0.4l-0.4,0.1c-0.1-0.1-0.2-0.3-0.2-0.4c0-0.2,0.1-0.4,0.4-0.6
				L39.3,22.8z M40.1,22.8c-0.1,0.1-0.2,0.3-0.2,0.4c0,0.1,0.1,0.3,0.2,0.4l-0.4,0.1c-0.1-0.1-0.2-0.3-0.2-0.4
				c0-0.2,0.1-0.4,0.3-0.6L40.1,22.8z"/>
			<path d="M44.1,25.9h-0.5l-0.1-2.3h0c-0.3,0.7-0.8,1.8-0.9,2l-0.3,0c-0.2-0.4-0.5-1.2-1-2.1h0l-0.1,2.3h-0.5l0.1-3.2h0.6
				c0.5,0.9,0.9,2,1,2.2h0c0.2-0.4,0.6-1.4,1-2.2h0.6L44.1,25.9z"/>
			<path d="M46.8,25.9C46.7,26,46.5,26,46.4,26c-0.2,0-0.3-0.1-0.4-0.3l0,0c-0.3,0.2-0.4,0.3-0.7,0.3c-0.4,0-0.7-0.3-0.7-0.7
				c0-0.3,0.2-0.4,0.5-0.5c0.3-0.1,0.7-0.1,0.9-0.2v-0.1c0-0.3-0.1-0.4-0.5-0.4c-0.2,0-0.5,0.1-0.8,0.2l-0.1-0.3
				c0.3-0.2,0.6-0.3,0.9-0.3c0.5,0,1,0.1,1,0.8v1c0,0.1,0,0.2,0.1,0.2c0.1,0,0.1,0,0.1,0L46.8,25.9z M45.5,25.6
				c0.2,0,0.4-0.1,0.5-0.3v-0.5c-0.2,0-0.5,0.1-0.6,0.2c-0.1,0-0.3,0.1-0.3,0.3C45.1,25.5,45.3,25.6,45.5,25.6z"/>
			<path d="M47.2,23.7h0.5l0.1,0.3l0,0c0.2-0.2,0.5-0.3,0.8-0.3c0.5,0,0.7,0.3,0.7,0.9v1.5h-0.5v-1.4c0-0.4-0.1-0.5-0.4-0.5
				c-0.2,0-0.4,0.1-0.6,0.3v1.6h-0.5V23.7z"/>
			<path d="M51.8,25.9h-0.4l-0.1-0.3l0,0C51,25.9,50.8,26,50.5,26c-0.5,0-0.8-0.3-0.8-0.8v-1.5h0.5v1.4c0,0.3,0.2,0.5,0.4,0.5
				c0.2,0,0.4-0.1,0.6-0.3v-1.6h0.5V25.9z"/>
			<path d="M54.3,25.8c-0.2,0.1-0.5,0.2-0.8,0.2c-0.6,0-1.2-0.3-1.2-1.1c0-0.9,0.5-1.2,1.1-1.2c0.7,0,1,0.4,1,1c0,0.1,0,0.1,0,0.2
				h-1.5v0.1c0,0.5,0.3,0.7,0.7,0.7c0.2,0,0.5-0.1,0.7-0.1L54.3,25.8z M53.9,24.5c0-0.4-0.2-0.5-0.5-0.5c-0.3,0-0.5,0.2-0.6,0.5
				H53.9z"/>
			<path d="M54.9,22.7h0.5v3.3h-0.5V22.7z"/>
			<path d="M57,24.4c0-1.1,0.7-1.7,1.6-1.7c0.3,0,0.7,0.1,0.9,0.2l-0.1,0.4c-0.2-0.1-0.5-0.2-0.8-0.2c-0.6,0-1.1,0.4-1.1,1.2
				c0,0.8,0.5,1.1,1.1,1.1c0.3,0,0.6-0.1,0.8-0.2l0.1,0.4c-0.3,0.1-0.6,0.2-1,0.2C57.8,26,57,25.5,57,24.4z"/>
			<path d="M60,22.7h0.5v0.8l0,0.5l0,0c0.2-0.2,0.5-0.3,0.7-0.3c0.5,0,0.8,0.4,0.8,0.9v1.4h-0.5v-1.4c0-0.4-0.1-0.5-0.4-0.5
				c-0.2,0-0.4,0.1-0.6,0.3v1.6H60V22.7z"/>
			<path d="M64.8,25.9C64.6,26,64.5,26,64.3,26c-0.2,0-0.3-0.1-0.4-0.3l0,0c-0.3,0.2-0.4,0.3-0.7,0.3c-0.4,0-0.7-0.3-0.7-0.7
				c0-0.3,0.2-0.4,0.5-0.5c0.3-0.1,0.7-0.1,0.9-0.2v-0.1c0-0.3-0.1-0.4-0.4-0.4c-0.2,0-0.5,0.1-0.8,0.2l-0.1-0.3
				c0.3-0.2,0.6-0.3,0.9-0.3c0.5,0,1,0.1,1,0.8v1c0,0.1,0,0.2,0.1,0.2c0.1,0,0.1,0,0.1,0L64.8,25.9z M63.4,25.6
				c0.2,0,0.4-0.1,0.5-0.3v-0.5c-0.2,0-0.5,0.1-0.6,0.2c-0.1,0-0.3,0.1-0.3,0.3C63.1,25.5,63.2,25.6,63.4,25.6z"/>
			<path d="M65.7,25.9c-0.1-0.3-0.7-1.6-0.9-2.3h0.6c0.2,0.6,0.4,1.1,0.6,1.6h0c0.2-0.5,0.4-1.1,0.5-1.6h0.6c-0.2,0.6-0.8,2-0.9,2.3
				H65.7z"/>
			<path d="M69.6,25.9C69.4,26,69.3,26,69.1,26c-0.2,0-0.3-0.1-0.4-0.3l0,0C68.5,25.9,68.3,26,68,26c-0.4,0-0.7-0.3-0.7-0.7
				c0-0.3,0.2-0.4,0.5-0.5c0.3-0.1,0.7-0.1,0.9-0.2v-0.1c0-0.3-0.1-0.4-0.4-0.4c-0.2,0-0.5,0.1-0.8,0.2l-0.1-0.3
				c0.3-0.2,0.6-0.3,0.9-0.3c0.5,0,1,0.1,1,0.8v1c0,0.1,0,0.2,0.1,0.2c0.1,0,0.1,0,0.1,0L69.6,25.9z M68.2,25.6
				c0.2,0,0.4-0.1,0.5-0.3v-0.5c-0.2,0-0.5,0.1-0.6,0.2c-0.1,0-0.3,0.1-0.3,0.3C67.9,25.5,68,25.6,68.2,25.6z"/>
			<path d="M70,25.9v-2.3h0.4l0.1,0.4h0c0.2-0.2,0.4-0.4,0.6-0.4c0.1,0,0.2,0,0.3,0.1l-0.1,0.4c-0.1,0-0.1-0.1-0.2-0.1
				c-0.2,0-0.4,0.2-0.6,0.4v1.5H70z"/>
			<path d="M71.8,25.9v-2.3h0.4l0.1,0.4h0c0.2-0.2,0.4-0.4,0.6-0.4c0.1,0,0.2,0,0.3,0.1l-0.1,0.4c-0.1,0-0.1-0.1-0.2-0.1
				c-0.2,0-0.4,0.2-0.6,0.4v1.5H71.8z"/>
			<path d="M73.6,23.7h0.5v2.3h-0.5V23.7z M73.6,23.2l0.6-1l0.4,0.2l-0.8,0.8L73.6,23.2z"/>
			<path d="M76.9,25.9C76.7,26,76.5,26,76.4,26c-0.2,0-0.3-0.1-0.4-0.3l0,0c-0.3,0.2-0.4,0.3-0.7,0.3c-0.4,0-0.7-0.3-0.7-0.7
				c0-0.3,0.2-0.4,0.5-0.5c0.3-0.1,0.7-0.1,0.9-0.2v-0.1c0-0.3-0.1-0.4-0.5-0.4c-0.2,0-0.5,0.1-0.8,0.2l-0.1-0.3
				c0.3-0.2,0.6-0.3,0.9-0.3c0.5,0,1,0.1,1,0.8v1c0,0.1,0,0.2,0.1,0.2c0.1,0,0.1,0,0.1,0L76.9,25.9z M75.5,25.6
				c0.2,0,0.4-0.1,0.5-0.3v-0.5c-0.2,0-0.5,0.1-0.6,0.2c-0.1,0-0.3,0.1-0.3,0.3C75.1,25.5,75.3,25.6,75.5,25.6z"/>
			<path d="M78.2,24.4c0-1.1,0.7-1.7,1.6-1.7c0.3,0,0.7,0.1,0.9,0.2l-0.1,0.4c-0.2-0.1-0.5-0.2-0.8-0.2c-0.6,0-1.1,0.4-1.1,1.2
				c0,0.8,0.5,1.1,1.1,1.1c0.3,0,0.6-0.1,0.8-0.2l0.1,0.4c-0.3,0.1-0.6,0.2-1,0.2C79,26,78.2,25.5,78.2,24.4z"/>
			<path d="M81.3,22.7h0.5v0.8l0,0.5l0,0c0.2-0.2,0.5-0.3,0.7-0.3c0.5,0,0.8,0.4,0.8,0.9v1.4h-0.5v-1.4c0-0.4-0.1-0.5-0.4-0.5
				c-0.2,0-0.4,0.1-0.6,0.3v1.6h-0.5V22.7z"/>
			<path d="M86,25.9C85.9,26,85.7,26,85.6,26c-0.2,0-0.3-0.1-0.4-0.3l0,0c-0.3,0.2-0.4,0.3-0.7,0.3c-0.4,0-0.7-0.3-0.7-0.7
				c0-0.3,0.2-0.4,0.5-0.5c0.3-0.1,0.7-0.1,0.9-0.2v-0.1c0-0.3-0.1-0.4-0.4-0.4c-0.2,0-0.5,0.1-0.8,0.2l-0.1-0.3
				c0.3-0.2,0.6-0.3,0.9-0.3c0.5,0,1,0.1,1,0.8v1c0,0.1,0,0.2,0.1,0.2c0.1,0,0.1,0,0.1,0L86,25.9z M84.7,25.6c0.2,0,0.4-0.1,0.5-0.3
				v-0.5c-0.2,0-0.5,0.1-0.6,0.2c-0.1,0-0.3,0.1-0.3,0.3C84.3,25.5,84.5,25.6,84.7,25.6z"/>
			<path d="M87,25.9c-0.1-0.3-0.7-1.6-0.9-2.3h0.6c0.2,0.6,0.4,1.1,0.6,1.6h0c0.2-0.5,0.4-1.1,0.5-1.6h0.6c-0.2,0.6-0.8,2-0.9,2.3
				H87z"/>
			<path d="M90.8,25.9C90.7,26,90.5,26,90.4,26c-0.2,0-0.3-0.1-0.4-0.3l0,0c-0.3,0.2-0.4,0.3-0.7,0.3c-0.4,0-0.7-0.3-0.7-0.7
				c0-0.3,0.2-0.4,0.5-0.5c0.3-0.1,0.7-0.1,0.9-0.2v-0.1c0-0.3-0.1-0.4-0.5-0.4c-0.2,0-0.5,0.1-0.8,0.2l-0.1-0.3
				c0.3-0.2,0.6-0.3,0.9-0.3c0.5,0,1,0.1,1,0.8v1c0,0.1,0,0.2,0.1,0.2c0.1,0,0.1,0,0.1,0L90.8,25.9z M89.5,25.6
				c0.2,0,0.4-0.1,0.5-0.3v-0.5c-0.2,0-0.5,0.1-0.6,0.2c-0.1,0-0.3,0.1-0.3,0.3C89.1,25.5,89.3,25.6,89.5,25.6z"/>
			<path d="M91.2,25.9v-2.3h0.4l0.1,0.4h0c0.2-0.2,0.4-0.4,0.6-0.4c0.1,0,0.2,0,0.3,0.1l-0.1,0.4c-0.1,0-0.1-0.1-0.2-0.1
				c-0.2,0-0.4,0.2-0.6,0.4v1.5H91.2z"/>
			<path d="M93,25.9v-2.3h0.4l0.1,0.4h0c0.2-0.2,0.4-0.4,0.6-0.4c0.1,0,0.2,0,0.3,0.1l-0.1,0.4c-0.1,0-0.1-0.1-0.2-0.1
				c-0.2,0-0.4,0.2-0.6,0.4v1.5H93z"/>
			<path d="M94.8,23.7h0.5v2.3h-0.5V23.7z M94.8,23.2l0.6-1l0.4,0.2l-0.8,0.8L94.8,23.2z"/>
			<path d="M98.1,25.9C98,26,97.8,26,97.7,26c-0.2,0-0.3-0.1-0.4-0.3l0,0C97,25.9,96.8,26,96.6,26c-0.4,0-0.7-0.3-0.7-0.7
				c0-0.3,0.2-0.4,0.5-0.5c0.3-0.1,0.7-0.1,0.9-0.2v-0.1c0-0.3-0.1-0.4-0.5-0.4c-0.2,0-0.5,0.1-0.8,0.2L96,23.9
				c0.3-0.2,0.6-0.3,0.9-0.3c0.5,0,1,0.1,1,0.8v1c0,0.1,0,0.2,0.1,0.2c0.1,0,0.1,0,0.1,0L98.1,25.9z M96.8,25.6
				c0.2,0,0.4-0.1,0.5-0.3v-0.5c-0.2,0-0.5,0.1-0.6,0.2c-0.1,0-0.3,0.1-0.3,0.3C96.4,25.5,96.6,25.6,96.8,25.6z"/>
			<path d="M98.4,23.7c0.1-0.1,0.2-0.3,0.2-0.4c0-0.1-0.1-0.3-0.2-0.4l0.4-0.1c0.1,0.1,0.2,0.3,0.2,0.4c0,0.2-0.1,0.4-0.3,0.6
				L98.4,23.7z M99.2,23.7c0.1-0.2,0.2-0.3,0.2-0.5c0-0.1-0.1-0.3-0.2-0.4l0.4-0.1c0.1,0.1,0.2,0.3,0.2,0.4c0,0.2-0.1,0.4-0.3,0.6
				L99.2,23.7z"/>
		</g>
	</g>
</g>
</svg>
