<?xml version="1.0" encoding="utf-8"?>
<!-- Generator: Adobe Illustrator 21.0.0, SVG Export Plug-In . SVG Version: 6.00 Build 0)  -->
<svg version="1.1" id="Capa_1" xmlns="http://www.w3.org/2000/svg" xmlns:xlink="http://www.w3.org/1999/xlink" x="0px" y="0px"
	 viewBox="0 0 512 512" style="enable-background:new 0 0 512 512;" xml:space="preserve">
<g>
	<path d="M171,143.2c-12.7,0-23.1,10.4-23.1,23.1v103.9c0,12.7,10.4,23.1,23.1,23.1c12.7,0,23.1-10.4,23.1-23.1V166.2
		C194.1,153.5,183.8,143.2,171,143.2z M178.6,270.2c0,4.2-3.4,7.6-7.6,7.6c-4.2,0-7.6-3.4-7.6-7.6V166.2c0-4.2,3.4-7.6,7.6-7.6
		c4.2,0,7.6,3.4,7.6,7.6V270.2z"/>
	<path d="M106,143.2c-12.7,0-23.1,10.4-23.1,23.1v103.9c0,12.7,10.4,23.1,23.1,23.1c12.7,0,23.1-10.4,23.1-23.1V166.2
		C129.1,153.5,118.7,143.2,106,143.2z M113.6,270.2c0,4.2-3.4,7.6-7.6,7.6c-4.2,0-7.6-3.4-7.6-7.6V166.2c0-4.2,3.4-7.6,7.6-7.6
		c4.2,0,7.6,3.4,7.6,7.6V270.2z"/>
	<path d="M254,344.6l-14-36.1c-1.2-3-4-5-7.2-5h-0.9V160c1.3,0,2.7-0.1,4.1-0.2c27-2.5,38.4-23.8,37.5-42.4
		c-0.9-19.8-15.1-39.8-40.8-43.2V48h19.6c13.2,0,24-10.8,24-24s-10.8-24-24-24H24.7c-13.2,0-24,10.8-24,24s10.8,24,24,24h19.6v26.2
		C18.6,77.6,4.4,97.6,3.5,117.4C2.6,136.1,14,157.3,41,159.8c1.4,0.1,2.7,0.2,4.1,0.2v143.5h-0.9c-3.2,0-6.1,2-7.2,5l-14,36.1
		c-12.8,0.8-23,11.5-23,24.5c0,13.5,11,24.5,24.6,24.5h227.9c13.5,0,24.6-11,24.6-24.5C277,356.1,266.8,345.4,254,344.6z M16.2,24
		c0-4.7,3.8-8.5,8.5-8.5h227.6c4.7,0,8.5,3.8,8.5,8.5s-3.8,8.5-8.5,8.5H24.7C20,32.5,16.2,28.7,16.2,24z M19,118.1
		c0.6-13.9,11.3-28.9,33.1-29h51.5c4.3,0,7.7-3.5,7.7-7.7c0-4.3-3.5-7.7-7.7-7.7H59.8V48h157.5v25.7h-43.8c-4.3,0-7.7,3.5-7.7,7.7
		c0,4.3,3.5,7.7,7.7,7.7H225c21.8,0,32.4,15,33.1,28.9c0.5,11.1-5.3,24.6-23.5,26.3c-7.4,0.7-14.2-1.3-18.1-5.4
		c-3.5-3.6-4.8-8.8-3.9-15.5c0.1-0.4,0.1-0.8,0.1-1.2c0.1-2,1.1-3.5,3.2-4.7c2.9-1.6,6.7-1.7,8.9-0.3c0.5,0.3,2.2,1.4,1.9,5.4
		c-0.3,4.3,3,7.9,7.3,8.2c0.2,0,0.3,0,0.5,0c4.1,0,7.5-3.2,7.7-7.3c0.5-8.3-2.8-15.4-9.1-19.4c-6.9-4.4-16.8-4.5-24.6-0.2
		c-4.6,2.6-8,6.3-9.8,10.7H77.7c-4.6-9.5-15-13.9-23.9-13.1c-11.1,1-18.9,9.3-18.9,20.2c0,4.3,3.5,7.7,7.7,7.7s7.7-3.5,7.7-7.7
		c0-1.1,0-4.4,4.8-4.8c3.2-0.3,8.4,1.3,9.3,6.8c0,0,0,0.1,0,0.1c0.8,6.5-0.6,11.5-4,15.1c-3.9,4.1-10.7,6.1-18.1,5.4
		C24.3,142.7,18.5,129.2,19,118.1z M60.6,157.2c4.3-1.7,8-4.2,11.1-7.4c3.7-3.8,7.7-10.1,8.4-19.5h116.7c0.7,9.4,4.7,15.7,8.4,19.5
		c3.1,3.2,6.9,5.7,11.1,7.4v146.4H60.6V157.2z M49.5,319h177.9l9.9,25.5H39.7L49.5,319z M252.4,378.1H24.6c-5,0-9.1-4.1-9.1-9.1
		c0-5,4.1-9.1,9.1-9.1h227.9c5,0,9.1,4.1,9.1,9.1C261.5,374.1,257.4,378.1,252.4,378.1z"/>
	<path d="M138.4,89.2h0.2c4.3,0,7.7-3.5,7.7-7.7c0,0,0,0,0-0.1c0,0,0,0,0-0.1c0-4.3-3.5-7.7-7.7-7.7h-0.2c-4.3,0-7.7,3.5-7.7,7.7
		c0,0,0,0,0,0.1c0,0,0,0,0,0.1C130.7,85.7,134.1,89.2,138.4,89.2z"/>
</g>
<path d="M481.6,190.8c-13.2-27-35.7-42.1-57.6-56.7c-16.3-10.9-31.6-21.2-42.5-36l-2-2.7c-6.4-8.6-13.7-18.4-14.8-26.6
	c-1.1-8.3-7.6-14-16.9-13.8c-8.4,0.6-14.9,7.6-14.9,16v285.1c-13.4-8.1-29.9-13.1-48-13.1c-44.1,0-80,28.7-80,64s35.9,64,80,64
	c44.1,0,80-28.7,80-64V220.6c24,9.2,63.4,32.6,74.2,87.2c-2,3-3.9,6.2-6.2,8.7c-5.9,6.6-5.2,16.7,1.4,22.6
	c6.6,5.9,16.7,5.2,22.6-1.4c20-22.8,33.8-58.8,36-94C493.9,226.2,490,208,481.6,190.8z"/>
</svg>
