<?xml version="1.0" encoding="utf-8"?>
<!-- Generator: Adobe Illustrator 21.0.0, SVG Export Plug-In . SVG Version: 6.00 Build 0)  -->
<svg version="1.1" id="Capa_1" xmlns="http://www.w3.org/2000/svg" xmlns:xlink="http://www.w3.org/1999/xlink" x="0px" y="0px"
	 viewBox="0 0 85.5 100" style="enable-background:new 0 0 85.5 100;" xml:space="preserve">
<style type="text/css">
	.st0{fill:#7E878D;}
	.st1{fill:#008874;}
	.st2{clip-path:url(#SVGID_2_);}
	.st3{fill:#FFFFFF;}
</style>
<g>
	<g>
		<path class="st0" d="M83.7,26.1L70.5,15.4l-2.7,16.7l3.4-1.3c1.3,3.5,2,7.3,2,11.1c0,17.3-14,31.3-31.3,31.3
			c-17.3,0-31.3-14-31.3-31.3c0-17.3,14-31.3,31.3-31.3c7.7,0,15.1,2.8,20.8,7.9l6.4-7.2C61.7,4.6,52,1,42,1C19.4,1,1,19.4,1,42
			c0,22.6,18.4,41,41,41c22.6,0,41-18.4,41-41c0-5-0.9-9.9-2.7-14.6L83.7,26.1z"/>
	</g>
	<circle class="st1" cx="42" cy="42" r="27.5"/>
	<g>
		<path class="st1" d="M12.8,78.6l8.4,5.3l-1.1,1.8l-3.1-2l-3.3,5.2l-2.2-1.4l3.3-5.2l-3.1-2L12.8,78.6z"/>
		<path class="st1" d="M21.8,84.1l8.5,3.1L29.6,89l-6.2-2.3L23,87.9l5.9,2.2l-0.6,1.7l-5.9-2.2l-0.5,1.2l6.3,2.3L27.5,95l-8.6-3.2
			L21.8,84.1z"/>
		<path class="st1" d="M38.9,96.7l-0.5-1.5L33,94.6l-0.9,1.3l-2.8-0.3l5.3-7.6l3.9,0.5l3.3,8.6L38.9,96.7z M37.7,93.3l-1.2-3.3
			L36,90l-1.9,2.9L37.7,93.3z"/>
		<path class="st1" d="M41.4,88.7l9.9-0.9l0.2,2.1l-3.6,0.3l0.6,6.1l-2.6,0.2l-0.6-6.1l-3.6,0.3L41.4,88.7z"/>
		<path class="st1" d="M54.4,95.5l-2.6-7.8l5.7-1.9c1.4-0.4,2.2-0.7,2.4-0.7c0.3-0.1,0.6-0.1,0.8,0c0.3,0.1,0.5,0.2,0.7,0.3
			c0.2,0.2,0.4,0.4,0.5,0.6c0.1,0.3,0.3,0.6,0.4,1c0.2,0.6,0.3,1.1,0.3,1.4c0,0.4-0.2,0.8-0.5,1c-0.1,0.1-0.3,0.2-0.5,0.3
			c0.5-0.1,0.9-0.1,1.2,0.1c0.1,0.1,0.2,0.2,0.3,0.3c0.1,0.1,0.2,0.3,0.3,0.6c0,0.1,0.1,0.4,0.3,0.9l0.2,0.7l-2.3,0.8l-0.1-0.4
			c-0.2-0.5-0.3-0.8-0.4-1c-0.2-0.3-0.4-0.4-0.6-0.4c-0.2,0-0.5,0.1-1,0.3l-3.3,1.1l0.7,2L54.4,95.5z M55.5,90.8l3.3-1.1
			c0.5-0.2,0.8-0.3,0.9-0.3c0.3-0.1,0.5-0.3,0.5-0.5c0-0.1,0-0.4-0.1-0.7c-0.1-0.3-0.2-0.5-0.3-0.6c-0.1-0.2-0.4-0.2-0.7-0.1
			c-0.1,0-0.4,0.1-1,0.3l-3.3,1.1L55.5,90.8z"/>
		<path class="st1" d="M66.9,81.1c1.5-0.9,2.5-1.5,3.1-1.8c0.9-0.4,1.6-0.3,2.2,0.2c0.4,0.4,1,1.1,1.7,2.2c0.7,1.1,1.1,1.9,1.3,2.4
			c0.2,0.8,0,1.5-0.8,2.1c-0.5,0.4-1.5,1.1-3,2.1c-1.5,0.9-2.5,1.6-3.2,1.8c-0.9,0.4-1.6,0.3-2.2-0.2c-0.4-0.4-1-1.1-1.6-2.2
			c-0.7-1.1-1.1-1.9-1.3-2.4c-0.2-0.8,0-1.5,0.8-2.1C64.3,82.8,65.4,82.1,66.9,81.1z M67.9,83c-1.1,0.7-1.7,1.1-1.9,1.3
			c-0.2,0.2-0.3,0.5-0.2,0.8c0.1,0.3,0.3,0.8,0.8,1.4c0.3,0.4,0.5,0.7,0.7,0.9c0.3,0.3,0.7,0.3,1.1,0.1c0.3-0.2,1-0.5,1.9-1.1
			c0.9-0.6,1.5-1,1.8-1.2c0.4-0.3,0.5-0.7,0.4-1.1c-0.1-0.2-0.2-0.5-0.5-0.9c-0.3-0.5-0.6-0.8-0.7-1c-0.3-0.3-0.5-0.5-0.8-0.5
			c-0.2,0-0.6,0.1-1.1,0.4C69.1,82.2,68.6,82.5,67.9,83z"/>
	</g>
	<g>
		<defs>
			<circle id="SVGID_1_" cx="42" cy="42" r="27.5"/>
		</defs>
		<use xlink:href="#SVGID_1_"  style="overflow:visible;fill:#008874;"/>
		<clipPath id="SVGID_2_">
			<use xlink:href="#SVGID_1_"  style="overflow:visible;"/>
		</clipPath>
		<g class="st2">
			<g>
				<g>
					<path class="st3" d="M22,44.6c0,0,0.3,0.3,0.2,1.2C22,47.1,22,48.2,22,48.2h-4.4v-3.6H22z"/>
				</g>
				<g>
					<path class="st3" d="M20.2,44.2h2l0.1,0.1c0,0,0,0,0,0c7-4.3,16.5-16.1,19.7-30.4h-7.9C34.6,23.1,30.7,38.4,20.2,44.2z"/>
					<path class="st3" d="M17.5,48.6v15.3h11.6c-3.7-5.3-6.4-13.4-7-15.3H17.5z"/>
					<path class="st3" d="M20.1,44.2C30,37.7,31.6,23,28.9,14H17.5v30.2H20.1z"/>
				</g>
			</g>
			<g>
				<g>
					<path class="st3" d="M62,44.6c0,0-0.3,0.3-0.2,1.2c0.2,1.3,0.2,2.4,0.2,2.4h4.4v-3.6H62z"/>
				</g>
				<g>
					<path class="st3" d="M63.8,44.2h-2l-0.1,0.1c0,0,0,0,0,0c-7-4.3-16.5-16.1-19.7-30.4h7.9C49.4,23.1,53.3,38.4,63.8,44.2z"/>
					<path class="st3" d="M66.5,48.6v15.3H54.9c3.7-5.3,6.4-13.4,7-15.3H66.5z"/>
					<path class="st3" d="M63.9,44.2C54,37.7,52.4,23,55.1,14h11.3v30.2H63.9z"/>
				</g>
			</g>
		</g>
	</g>
</g>
</svg>
