<?xml version="1.0" encoding="utf-8"?>
<!-- Generator: Adobe Illustrator 21.0.0, SVG Export Plug-In . SVG Version: 6.00 Build 0)  -->
<svg version="1.1" id="Capa_1" xmlns="http://www.w3.org/2000/svg" xmlns:xlink="http://www.w3.org/1999/xlink" x="0px" y="0px"
	 viewBox="0 0 86 100" style="enable-background:new 0 0 86 100;" xml:space="preserve">
<style type="text/css">
	.st0{fill:#7E878D;}
	.st1{fill:#008874;}
	.st2{clip-path:url(#SVGID_2_);}
	.st3{fill:#FFFFFF;}
</style>
<g>
	<g>
		<path class="st0" d="M85.3,27.2L72,16.3l-2.7,17l3.5-1.3c1.4,3.6,2.1,7.4,2.1,11.3C74.8,60.7,60.6,75,43.1,75
			c-17.5,0-31.7-14.2-31.7-31.7c0-17.5,14.2-31.7,31.7-31.7c7.8,0,15.3,2.8,21.1,8l6.5-7.3C63.1,5.4,53.3,1.7,43.1,1.7
			C20.2,1.7,1.5,20.3,1.5,43.2c0,22.9,18.6,41.6,41.6,41.6c22.9,0,41.6-18.6,41.6-41.6c0-5-0.9-10.1-2.7-14.8L85.3,27.2z"/>
	</g>
	<circle class="st1" cx="43.1" cy="43.2" r="27.8"/>
	<g>
		<path class="st1" d="M14.3,80.9l7.4,4.7l-1,1.7l-5.3-3.4l-0.8,1.3l5,3.2l-1,1.6l-5-3.2L12,89.2l-2.1-1.4L14.3,80.9z"/>
		<path class="st1" d="M22.2,85.9l2.4,0.8l-1.3,3.6c-0.3,0.8-0.4,1.4-0.5,1.6c-0.1,0.4,0.1,0.7,0.5,0.9c0.4,0.2,1,0.5,1.8,0.7
			c0.8,0.3,1.5,0.5,1.8,0.6c0.5,0.1,0.9-0.1,1.1-0.6c0.2-0.4,0.4-0.8,0.6-1.4l1.3-3.6l2.4,0.8l-1.3,3.6c-0.5,1.2-0.8,2.1-1,2.4
			c-0.3,0.6-0.8,1-1.5,1.1c-0.5,0.1-1.2,0-2.1-0.3c-0.4-0.1-1.1-0.4-2-0.7c-1.3-0.5-2.3-0.9-2.8-1.1c-0.4-0.2-0.7-0.4-0.9-0.6
			c-0.2-0.2-0.4-0.4-0.5-0.7c-0.2-0.3-0.2-0.7-0.1-1.1c0.1-0.5,0.2-1,0.4-1.6l0.3-1L22.2,85.9z"/>
		<path class="st1" d="M32.9,89.6l10,1.1l-0.2,2.1L39,92.4l-0.7,6.2l-2.6-0.3l0.7-6.2l-3.7-0.4L32.9,89.6z"/>
		<path class="st1" d="M44.4,98.9l-0.9-8.3l5.9-0.7c1.3-0.1,2-0.2,2.3-0.2c0.5,0,1,0,1.2,0.2c0.3,0.2,0.5,0.4,0.7,0.7
			c0.1,0.3,0.2,0.6,0.2,1c0.1,0.5,0.1,0.9,0,1.1c-0.1,0.4-0.4,0.7-0.9,0.9c0.4,0,0.7,0.1,0.8,0.2c0.4,0.2,0.7,0.8,0.8,1.6
			c0.1,0.7,0,1.2-0.1,1.5c-0.2,0.3-0.4,0.5-0.8,0.7c-0.3,0.1-0.8,0.2-1.6,0.3l-1.6,0.2L44.4,98.9z M46.2,93.7l3.5-0.4
			c0.8-0.1,1.2-0.2,1.4-0.2c0.2-0.1,0.3-0.3,0.2-0.6c0-0.3-0.2-0.5-0.4-0.5c-0.1,0-0.5,0-1.3,0.1l-3.5,0.4L46.2,93.7z M46.6,96.7
			l3.6-0.4c0.7-0.1,1.1-0.1,1.2-0.1c0.4-0.1,0.6-0.2,0.7-0.3c0.1-0.1,0.1-0.3,0.1-0.5c0-0.3-0.2-0.5-0.4-0.6c-0.1,0-0.6,0-1.6,0.1
			l-3.6,0.4L46.6,96.7z"/>
		<path class="st1" d="M59.8,87.2c1.6-0.6,2.8-1,3.4-1.2c1-0.2,1.7,0,2.2,0.7c0.3,0.5,0.7,1.3,1.2,2.5c0.5,1.2,0.7,2.1,0.8,2.7
			c0.1,0.8-0.3,1.5-1.2,1.9c-0.6,0.3-1.7,0.8-3.4,1.4c-1.7,0.6-2.8,1-3.5,1.2c-1,0.2-1.7,0-2.2-0.7c-0.3-0.5-0.7-1.3-1.2-2.5
			c-0.5-1.2-0.7-2.1-0.8-2.7c-0.1-0.8,0.3-1.5,1.2-1.9C57,88.3,58.1,87.9,59.8,87.2z M60.4,89.3c-1.2,0.5-1.9,0.8-2.1,0.9
			c-0.3,0.2-0.4,0.5-0.4,0.8c0,0.3,0.2,0.8,0.5,1.6c0.2,0.5,0.3,0.8,0.5,1c0.2,0.4,0.6,0.5,1.1,0.4c0.4-0.1,1.1-0.3,2.1-0.7
			c1-0.4,1.7-0.7,2-0.8c0.5-0.2,0.7-0.6,0.6-1c0-0.2-0.1-0.6-0.3-1c-0.2-0.6-0.4-0.9-0.5-1.2c-0.2-0.4-0.4-0.6-0.7-0.6
			c-0.2-0.1-0.6,0-1.2,0.2C61.8,88.8,61.3,89,60.4,89.3z"/>
		<path class="st1" d="M65.9,84.7l2.2-1.5l3.4,5.2l4.9-3.3l1.2,1.8l-7.1,4.8L65.9,84.7z"/>
	</g>
	<g>
		<defs>
			<circle id="SVGID_1_" cx="43.1" cy="43.2" r="27.8"/>
		</defs>
		<use xlink:href="#SVGID_1_"  style="overflow:visible;fill:#008874;"/>
		<clipPath id="SVGID_2_">
			<use xlink:href="#SVGID_1_"  style="overflow:visible;"/>
		</clipPath>
		<g class="st2">
			<circle class="st3" cx="58.1" cy="60.5" r="5.3"/>
			<path class="st3" d="M50.4,69.7c-0.4-0.6-0.9-1.1-1.3-1.7c-0.4-0.6-0.8-1.2-1.1-1.8c-0.4-0.6-0.7-1.2-1-1.9
				c-0.3-0.6-0.6-1.3-0.8-1.9c-0.2-0.6-0.5-1.3-0.7-1.9c-0.1-0.3-0.2-0.6-0.2-0.9c0-0.1,0-0.3-0.1-0.4l0-0.3l0-0.1l0,0
				c0,0.1,0,0,0,0l0,0l0,0l0-0.1c-0.1-0.8-0.3-1.6-0.5-2.4c-0.2-0.8-0.5-1.5-0.8-2.3c-0.3-0.7-0.6-1.4-1-2.1c-0.3-0.7-0.7-1.4-1.1-2
				c-0.8-1.3-1.6-2.6-2.5-3.8c-0.9-1.2-1.8-2.4-2.7-3.6l0,0c0,0,0-0.1,0-0.1c0.1-0.3,0.2-0.6,0.2-0.9c0.1-0.3,0.2-0.6,0.3-0.9
				c0.1-0.3,0.2-0.6,0.3-0.9c0.1-0.3,0.2-0.6,0.3-0.9c0.1-0.3,0.2-0.6,0.4-0.9c0.1-0.3,0.3-0.6,0.4-0.9c0.1-0.3,0.3-0.6,0.4-0.9
				c0.2-0.3,0.3-0.6,0.5-0.9c0.3-0.6,0.6-1.1,0.9-1.7c0.3-0.5,0.6-1.1,0.9-1.6c0.3-0.5,0.6-1,0.9-1.5c0.1-0.2,0.3-0.5,0.4-0.7
				c0.1-0.2,0.2-0.4,0.4-0.6c0,0,0.1-0.1,0.1-0.1c0.9,0.5,1.8,0.9,2.7,1.3c0.9,0.4,1.8,0.8,2.7,1.2c0.8,0.3,1.6,0.6,2.3,0.9
				c0.7,0.3,1.3,0.5,1.8,0.6c0.3,0.1,0.5,0.1,0.7,0.2c0.2,0.1,0.4,0.1,0.5,0.1c0.3,0.1,0.4,0.1,0.4,0.1S54,33.2,53.8,33
				c-0.2-0.2-0.5-0.4-1-0.8c-0.4-0.3-0.9-0.7-1.5-1.2c-0.6-0.5-1.2-1-1.9-1.5c-0.4-0.3-0.7-0.6-1.1-0.8c-0.4-0.3-0.8-0.6-1.2-0.9
				c-0.8-0.6-1.7-1.2-2.6-1.8c-0.5-0.3-0.9-0.6-1.4-0.9c-0.2-0.2-0.5-0.3-0.7-0.5c-0.2-0.2-0.5-0.3-0.7-0.5
				c-0.2-0.1-0.5-0.3-0.8-0.5c0.6-0.4,1.1-0.9,1.7-1.5c1.5-1.7,0.9-4.2-0.4-4.9c-1.3-0.7-3.7,0.1-4.4,2.3c-0.3,1.1-0.5,2.2-0.4,3.1
				c-1.3-0.1-2.6,0.1-3.6,0.2c-0.3,0-0.5,0.1-0.8,0.1l-0.2,0l-0.1,0c0,0,0,0,0,0l0,0l0,0l0,0c-0.1,0-0.3,0-0.4,0c-0.3,0-0.5,0-0.8,0
				c-0.3,0-0.5,0-0.8,0c-1,0-2.1-0.1-3-0.2c-1-0.1-1.9-0.2-2.8-0.4c-0.9-0.1-1.7-0.3-2.4-0.4c-0.7-0.1-1.3-0.2-1.9-0.3
				c-0.5-0.1-0.9-0.2-1.2-0.2c-0.3,0-0.4-0.1-0.4-0.1s0.1,0.1,0.3,0.3c0.2,0.2,0.6,0.4,1,0.7c0.4,0.3,1,0.6,1.7,1
				c0.7,0.4,1.4,0.7,2.3,1.1c0.8,0.4,1.8,0.7,2.8,1c1,0.3,2.1,0.6,3.3,0.8c0.6,0.1,1.2,0.1,1.9,0.2c0.1,0,0.3,0,0.4,0
				c0,0.2,0,0.3,0,0.5c0,0.2,0,0.5,0,0.8c0,0.5,0,1.1,0,1.8c0,0.6,0,1.3,0,2c0,0.7,0,1.5,0,2.2c0,0.4,0,0.8,0.1,1.1
				c0,0.4,0.1,0.8,0.1,1.2c0,0.4,0.1,0.8,0.1,1.2c0,0.4,0.1,0.8,0.2,1.1c0.1,0.4,0.1,0.7,0.2,1.1c0,0.2,0.1,0.4,0.1,0.6l-1,3.3
				c-0.4,1.3-0.8,2.5-1.2,3.6c-0.2,0.6-0.5,1.1-0.7,1.6c-0.1,0.2-0.3,0.4-0.4,0.6c0,0,0,0,0,0l-0.1,0l-0.4-0.2
				c-0.3-0.2-0.5-0.3-0.8-0.5c-0.3-0.2-0.6-0.3-0.8-0.5L27,47.2l-1.7-1.1L23.5,45c-0.6-0.4-1.2-0.7-1.8-1.1l-0.5-0.3
				c-0.2-0.1-0.3-0.2-0.5-0.2c-0.3-0.2-0.6-0.4-1-0.5c-0.7-0.3-1.4-0.6-2.1-0.8c-0.4-0.1-0.8-0.2-1.1-0.2c-0.4-0.1-0.8-0.1-1.2-0.1
				c-0.8,0-1.6,0.2-2.3,0.5c-0.7,0.3-1.3,0.8-1.8,1.4c-0.5,0.5-0.9,1.1-1.2,1.8c0.5-0.5,1-0.9,1.6-1.3c0.6-0.3,1.2-0.6,1.7-0.7
				c0.3-0.1,0.6-0.1,0.9-0.1c0.3,0,0.6,0,0.9,0.1c0.6,0.1,1.1,0.4,1.7,0.6c0.5,0.3,1,0.6,1.6,1c0.3,0.2,0.5,0.4,0.7,0.6l0.8,0.7
				l3.1,2.7c0.5,0.5,1,0.9,1.6,1.3c0.5,0.5,1.1,0.9,1.7,1.3c0.3,0.2,0.6,0.4,0.9,0.7l0.5,0.3l0.5,0.3c0.2,0.1,0.4,0.2,0.6,0.3
				l0.2,0.1c0.1,0.1,0.3,0.1,0.4,0.1c0.2,0.1,0.5,0.1,0.7,0.1c0.5,0,1,0,1.4-0.2c0.4-0.1,0.8-0.3,1-0.5c0.6-0.4,0.9-0.8,1.2-1.2
				c0.3-0.4,0.6-0.7,0.8-1.1c0.4-0.6,0.7-1.3,1-1.9c0.8,1.1,1.6,2.2,2.3,3.3c0.4,0.6,0.8,1.2,1.1,1.7c0.4,0.6,0.7,1.2,1,1.8
				c0.3,0.6,0.6,1.2,0.8,1.8c0.3,0.6,0.5,1.2,0.6,1.8l0.1,0.6c0.1,0.2,0.1,0.5,0.2,0.7c0.1,0.4,0.3,0.8,0.5,1.2
				c0.3,0.7,0.7,1.4,1.1,2.1c0.4,0.7,0.8,1.3,1.3,1.9c0.5,0.6,1,1.2,1.5,1.8c0.5,0.6,1.1,1.1,1.6,1.6c0.6,0.5,1.1,1,1.8,1.5
				c0.6,0.5,1.3,0.9,1.9,1.2c0.7,0.4,1.4,0.7,2.1,0.8C52.3,71.9,51.3,70.8,50.4,69.7z M30.6,49.3L30.6,49.3L30.6,49.3L30.6,49.3
				C30.5,49.3,30.6,49.3,30.6,49.3L30.6,49.3z"/>
		</g>
	</g>
</g>
</svg>
